1110
1110
1110
0
111
1100
1100
10
0
11
11
1
100
1
100
1
100
100
1
101
11
0
0
0
0
1110
1110
1110
1110
1110
1110
1110
1110
1110
1110
1110
10
111
111
1110
0
11
11
1
110
1
100
100
100
110
1
1000
11
0
1110
1110
1110
1110
1110
1110
1110
1110
1110
1110
1110
1110
1110
1110
1110
1110
1110
1110
1110
0
11
1
1001
110
1001
110
1001
1001
1
101
0
1110
1110
1110
1110
1110
1110
1110
1110
1110
1110
1110
1110
1110
1110
1110
1110
1110
1110
1110
1110
1110
0
0
0
0
11
101
101
11
0
0
1110
1110
1110
1110
1110
1110
1110
1110
1110
1110
1110
1110
1110
1110
1110
1110
1110
1110
1110
1110
1110
1110
1110
1110
1110
0
111
1010
1010
0
1110
1110
1110
1110
1110
1110
1110
1110
1110
1110
1110
1110
1110
1110
1110
1110
1110
1110
1110
1110
0
0
0
1
100
100
100
0
111
111
0
10
0
0
0
0
1110
1110
0
11
0
1110
1110
1110
1110
1110
1110
1110
1110
1110
1110
1110
1110
1110
0
110
1001
110
110
1001
0
0
0
0
0
0
10
0
1110
1110
1110
0
1110
1110
1110
1110
1110
1110
1110
1110
1110
1110
1110
1110
1110
1110
0
1
1
1
1
1000
101
11
0
0
10
10
0
1110
1110
1110
1110
1110
1110
1110
1110
1110
1110
1110
1110
1110
1110
1110
1110
1110
1110
1110
0
10
10
10
101
101
0
0
1110
1110
0
0
1110
1110
1110
1110
1110
1110
1110
1110
1110
1110
1110
1110
1110
1110
1110
1110
1110
1110
1110
1110
1010
1010
111
111
10
0
1110
1110
1110
1110
1110
1110
1110
1110
1110
1110
1110
1110
1110
1110
1110
1110
1110
1110
1110
1110
1110
0
11
0
1110
1110
0
0
0
0
10
111
0
111
0
100
100
100
1
0
0
0
1110
1110
1110
1110
1110
1110
1110
1110
1110
1110
1110
1110
0
1110
1110
1110
0
10
0
0
0
0
0
0
1001
110
110
1001
110
0
1110
1110
1110
1110
1110
1110
1110
1110
1110
1110
1110
1110
1110
1110
1110
1110
1110
1110
1110
0
10
10
0
0
0
101
1000
1
1
1
1
0
1110
1110
1110
1110
1110
1110
1110
1110
1110
1110
1110
1110
1110
1110
1110
1110
1110
1110
1110
1110
0
0
1110
1110
1110
0
101
101
10
10
10
0
1110
1110
1110
1110
1110
1110
1110
1110
1110
1110
1110
1110
1110
1110
1110
1110
1110
1110
1110
1110
1110
1110
1110
1110
1110
1110
0
10
111
111
1010
1010
1110
1110
1110
1110
1110
1110
1110
1110
1110
1110
1110
1110
1110
1110
1110
1110
1110
1110
0
0
0
1011
1101
101
100
1000
1000
1000
101
0
11
0
1110
1110
1110
1110
1110
1110
1110
1110
1110
1110
1110
1110
1110
1110
1110
1110
1110
1110
0
11
11
0
0
0
110
1000
1000
1000
11
0
101
0
1110
1110
1110
1110
1110
1110
1110
1110
1110
1110
1110
1110
1110
1110
1110
1110
1110
1110
1110
0
11
1
110
110
110
11
0
0
0
11
0
1110
1110
1110
1110
1110
1110
1110
1110
1110
1110
1110
1110
1110
1110
1110
1110
1110
1110
1110
1110
1110
0
0
0
0
0
1100
1100
11
0
0
1110
1110
1110
1110
1110
1110
1110
1110
1110
1110
1110
1110
1110
1110
1110
1110
1110
1110
1110
1110
1110
1110
1110
1110
1110
0
1010
111
111
1100
0
1110
1110
1110
1110
1110
1110
1110
1110
1110
1110
1110
1110
1110
