565
AAA
BCB
DDD
BCB
DDD
CCC
666
ABA
666
CDC
888
DDD
777
DDD
CCC
DED
BCB
CCC
BCB
454
CCB
555
DED
665
CDB
453
BCA
AB9
BDB
000
000
666
999
666
666
555
555
555
333
555
444
666
444
555
333
B66
655
665
555
555
555
444
565
333
666
333
555
444
666
666
666
000
000
666
DED
444
777
777
777
888
888
888
888
777
777
777
877
FBB
632
766
777
999
999
888
777
888
777
777
DAA
D99
755
777
777
000
000
555
555
333
888
AA9
999
999
999
999
AAA
888
999
899
C88
FBC
732
743
888
9A9
999
999
999
AAA
888
A99
FAA
FBB
843
999
888
000
000
555
EFE
444
898
999
AAA
DDD
666
DDD
666
EEE
444
D99
F99
E99
954
843
CCC
EEE
DDD
444
DDD
444
FBC
FAB
E99
FBC
843
843
A98
000
000
555
666
444
AAA
AAA
AAA
888
444
777
555
777
444
E89
D88
D78
A65
954
754
777
777
444
666
777
F9A
E99
D88
FBC
943
843
843
000
000
666
FFF
444
999
BBB
999
DED
555
999
AAA
BBB
877
D77
D77
B65
A66
954
732
632
BBB
ABB
BBB
F9A
E9A
E9A
D77
FBC
944
943
843
000
000
555
BBB
444
999
BBB
ABA
ABA
555
222
999
654
C88
C76
C77
B66
954
843
732
731
654
C87
C88
C77
FAA
FAB
D89
FCC
832
732
944
000
000
555
EEE
444
999
AAA
BBB
BBB
666
222
666
655
C88
A55
C76
B66
943
853
732
732
654
C77
D88
D88
E9A
FAB
E9A
FCD
732
A65
B76
000
000
656
BCB
444
999
BBB
999
CCB
666
333
666
BAA
432
A54
954
955
732
732
631
211
877
A65
A65
C77
B77
B76
D99
FBC
954
A65
A65
000
000
555
666
444
999
AAA
AAA
888
444
444
666
BBB
EED
BAA
544
421
321
322
888
666
333
D99
EAA
E99
B65
C77
E99
FBC
732
832
943
000
000
665
BCB
444
999
BBB
AAA
CCC
666
333
777
BBB
BBA
FEE
EED
998
A99
999
554
333
333
C77
EAA
D88
B66
E99
D99
FCC
832
732
843
000
000
565
666
444
999
AAA
AAA
888
444
444
777
999
DDD
BBB
BBA
777
555
555
444
888
BAA
B76
E99
B65
E99
E99
EAA
FCC
842
732
732
000
000
676
BCB
444
AAA
AAA
BBA
CCB
444
222
777
666
777
CBB
CCC
AAA
776
666
222
CCC
A99
B66
D88
B65
E9A
FAA
EAA
FCC
832
843
731
000
000
665
665
444
999
BCB
999
777
555
222
222
CCB
CBB
444
777
555
444
444
333
CCC
999
832
843
C77
FAB
D88
EAA
FBC
843
732
732
000
000
565
EEE
444
AAA
BBB
999
BBB
555
544
555
AAA
BBB
444
444
444
555
555
444
CCB
A99
BBA
998
FAA
E99
E9A
D99
FAB
842
832
732
000
000
665
666
444
999
AAA
999
777
344
444
544
CBB
BBB
333
333
444
544
555
444
BBB
665
555
555
E99
E9A
E99
EBB
D99
732
832
732
000
000
565
EFE
444
999
ABA
AAA
DED
777
444
555
999
BBB
333
444
556
A91
762
555
CCB
444
BBA
AAA
D99
E99
FDD
666
777
876
732
732
000
000
565
666
444
999
AAA
AAA
888
444
444
544
BBB
BBB
333
433
666
FD0
A91
444
DCC
444
CCC
CCC
C88
FCD
BAA
BBB
DDC
666
843
732
000
000
565
EFE
444
888
AAA
999
DED
777
444
544
777
BBB
444
555
777
CA1
981
553
DDC
544
DDD
DDD
DBB
444
555
887
888
777
555
866
000
000
676
BCB
444
999
BBB
AAA
CCB
444
444
544
544
877
555
555
B66
998
666
444
BBB
777
665
666
333
BBB
333
BBB
222
EED
333
888
000
000
665
FFF
444
999
AAA
999
DED
555
444
444
544
888
555
555
E89
966
666
444
AAA
555
777
766
666
DDD
BBB
DDD
CCC
EEE
CCC
CCB
000
000
665
BBB
444
999
BBB
ABA
ABA
555
444
444
555
888
555
A66
FBC
732
632
444
777
999
AAA
EED
999
DDD
222
DDD
222
DDD
111
AAA
000
000
665
666
444
999
BBB
AAA
777
444
444
544
544
888
C88
F99
E99
A54
843
443
333
333
222
CCC
999
888
998
888
777
777
777
887
000
000
665
BCB
444
999
AAA
999
CCB
666
444
444
544
877
E99
D88
D78
954
843
532
333
333
111
DDD
555
888
998
999
998
999
988
777
000
000
665
666
444
999
BBB
999
888
444
444
444
544
866
C76
D77
B66
954
843
732
632
444
222
888
999
666
777
888
888
888
998
DDD
000
000
665
BCB
444
999
BBB
999
CCC
565
444
444
543
A66
B66
C77
A65
843
732
732
631
777
222
766
888
554
777
666
666
666
555
998
000
000
565
666
444
999
BBB
AAA
888
444
444
444
655
A66
954
B66
A54
832
732
732
732
654
221
444
555
333
333
443
444
333
333
777
000
000
665
FFF
444
AAA
AAA
AAA
DDD
555
444
444
BAA
432
B66
743
743
732
732
631
211
877
444
444
333
666
666
333
555
666
444
444
000
000
665
665
444
999
BBB
AAA
777
555
444
444
FEE
999
E89
843
732
632
522
332
777
555
222
222
444
555
666
666
766
766
777
776
000
000
000
000
000
000
000
000
000
000
000
000
000
000
000
000
000
000
000
000
000
000
000
000
000
000
000
000
000
000
000
000
000
000
000
000
000
000
000
000
000
000
000
000
000
000
000
000
000
000
000
000
000
000
000
000
000
000
000
000
000
000
000
000
000
000
