380
490
280
490
380
490
491
481
380
490
481
380
481
471
481
490
491
481
390
381
491
390
380
380
490
390
591
481
481
270
000
000
381
490
380
270
380
380
490
380
490
390
481
481
270
481
370
380
490
380
490
380
481
390
280
280
490
380
481
380
491
380
000
000
491
280
471
480
5A0
390
380
380
590
280
380
591
380
581
481
380
591
380
490
380
380
491
380
390
381
492
481
380
490
380
000
000
491
380
370
491
5A0
280
390
490
481
381
380
380
280
591
370
370
380
490
380
491
280
490
490
280
381
481
490
380
490
380
000
000
491
380
380
491
491
370
490
380
490
481
481
380
490
490
280
481
380
490
380
390
280
390
490
380
380
270
490
480
380
490
000
000
380
490
591
380
481
481
380
380
490
591
591
5A0
380
380
490
4A0
380
380
380
380
280
481
380
380
380
280
490
380
380
380
000
000
380
481
481
370
481
380
491
280
491
5A1
581
491
581
490
380
490
390
380
380
490
390
280
381
380
380
380
490
4A0
481
381
000
000
380
481
490
481
480
390
490
370
481
591
481
380
280
490
380
380
380
380
280
491
490
280
380
491
280
380
280
490
481
480
000
000
481
581
5A0
491
370
380
481
371
490
490
491
490
280
280
280
380
380
490
490
490
380
491
390
490
390
490
490
270
481
481
000
000
491
481
381
490
491
380
481
380
490
280
380
4A0
491
390
380
380
280
490
591
491
380
380
491
490
490
480
481
380
481
471
000
000
490
381
380
390
390
481
491
380
380
280
380
491
481
490
591
280
380
380
481
592
490
280
491
380
490
481
481
481
270
481
000
000
591
380
490
380
490
380
481
270
280
280
490
381
380
490
491
280
491
380
280
380
591
390
390
380
480
380
380
591
380
581
000
000
380
490
380
490
490
490
491
380
380
380
490
491
270
480
481
380
380
481
380
380
591
490
380
490
380
270
490
380
280
591
000
000
380
490
380
380
280
390
380
390
280
380
491
4A0
491
481
380
380
490
380
481
490
490
490
280
380
380
390
380
270
490
490
000
000
380
380
380
380
280
380
170
380
490
591
381
490
490
491
481
481
581
481
491
481
381
390
380
390
380
490
280
390
380
380
000
000
390
380
380
490
390
280
380
380
491
591
370
381
490
481
491
481
381
481
491
581
491
380
490
280
390
490
490
490
270
390
000
000
380
380
280
491
490
280
380
380
481
491
280
481
380
491
380
490
380
380
490
480
490
280
490
390
490
380
380
390
380
490
000
000
380
490
490
490
380
491
390
380
380
481
380
491
380
380
480
380
481
380
490
390
491
280
490
390
390
380
380
481
380
490
000
000
280
490
591
491
380
380
491
390
380
490
490
380
380
380
380
591
481
280
490
380
490
490
380
380
490
490
380
491
491
380
000
000
380
380
481
592
490
280
591
491
390
280
490
280
490
380
380
591
491
380
380
380
490
490
390
380
380
490
490
481
380
490
000
000
491
380
280
380
591
390
380
380
380
270
370
380
390
380
591
481
370
380
491
491
490
490
280
490
380
490
390
491
490
490
000
000
380
481
380
380
591
490
280
380
380
390
380
492
491
380
491
481
380
491
491
381
380
481
380
490
481
490
270
491
390
490
000
000
490
380
481
490
490
490
490
380
490
490
380
380
380
380
380
491
491
480
490
380
480
481
481
381
590
481
481
5A0
280
380
000
000
4A0
481
591
490
481
481
380
380
380
491
380
270
490
380
380
491
481
491
490
490
380
481
380
380
5A0
490
491
490
390
490
000
000
591
491
481
481
490
380
380
491
380
481
270
381
491
490
492
491
380
491
380
380
490
491
380
591
481
490
380
480
490
481
000
000
481
581
481
591
590
380
380
491
581
581
380
490
481
491
591
481
491
491
381
380
490
481
380
491
481
591
490
381
280
490
000
000
481
381
491
380
481
370
490
380
481
481
490
390
491
380
481
380
491
380
380
380
490
491
380
380
380
490
380
481
380
490
000
000
490
280
390
280
380
380
280
380
4A0
390
390
380
280
280
481
491
491
380
380
390
490
480
380
280
591
481
280
481
490
380
000
000
490
380
490
270
380
4A0
390
490
490
280
491
380
270
270
380
591
380
490
490
280
390
390
490
280
591
481
370
491
490
280
000
000
481
380
490
371
481
490
390
380
480
380
490
4A0
481
381
380
591
380
481
380
380
380
380
490
380
490
491
380
490
380
380
000
000
000
000
000
000
000
000
000
000
000
000
000
000
000
000
000
000
000
000
000
000
000
000
000
000
000
000
000
000
000
000
000
000
000
000
000
000
000
000
000
000
000
000
000
000
000
000
000
000
000
000
000
000
000
000
000
000
000
000
000
000
000
000
000
000
