490
480
480
660
860
A72
A71
B71
B82
B83
B82
B82
B83
C93
B93
B83
A82
B82
B82
B82
B83
B83
B82
A71
961
760
591
681
380
490
000
000
480
480
480
591
450
A82
B82
B71
B82
B82
B82
B82
B83
C93
B83
A81
A81
A81
A81
A81
A81
A81
B82
B82
A71
870
661
480
570
280
000
000
480
480
480
660
860
A72
A71
B71
B82
B83
A81
A81
A81
A81
A81
B83
A82
B82
B82
B82
B83
B83
A81
A71
961
760
591
681
380
490
000
000
660
591
660
671
A72
B82
A81
A81
A81
A81
B83
B83
B82
B82
B82
B83
B82
B82
B82
B82
B82
A82
A81
A82
871
860
571
570
380
270
000
000
860
450
860
A72
A72
A81
A81
A71
A72
A71
B82
B82
B82
B82
B83
B82
B82
B82
B82
A71
A71
A71
A81
A82
680
680
690
5A1
490
280
000
000
A72
A82
A72
B82
A81
B82
B82
A71
B82
A71
A72
B82
B82
B83
B82
B82
C82
C82
B82
A71
A71
A71
A81
981
660
360
360
380
490
490
000
000
A71
B82
A71
A81
A81
B82
B82
B82
B71
B71
B82
B82
B82
B82
B83
B82
B82
B82
A71
A71
B82
B82
A81
B82
760
461
350
480
490
380
000
000
B71
B71
B71
A81
A71
A71
B82
B71
B71
B82
B82
B71
B82
B82
B82
B82
B71
A71
B82
B82
B82
B82
A81
982
671
570
481
390
481
480
000
000
B82
B82
B82
A81
A72
B82
A72
A71
A71
B82
B82
B72
B82
B82
B82
B82
A71
B82
B93
B83
B82
B82
A81
A82
982
681
460
360
490
490
000
000
B83
B82
B83
A81
A71
A71
B82
A71
A71
B82
B82
B82
B82
A72
A72
B83
B82
A72
B82
B82
B82
B83
A81
A71
960
470
580
480
370
280
000
000
B82
B82
A81
B83
B82
A72
C93
B82
A72
B82
B82
B83
B83
B82
A71
B82
B82
A81
A81
A71
B82
B82
A81
B82
450
460
580
580
490
270
000
000
B82
B82
A81
B83
B82
B82
B82
B83
B83
A82
B82
B82
B83
B82
A71
B82
B82
B83
A81
A81
A82
A71
A81
B82
761
660
770
691
270
270
000
000
B83
B83
A81
B82
B82
B82
A72
B83
B82
A72
C83
C83
B82
B82
A71
961
B82
B83
A81
A81
A71
B82
A81
B82
972
661
450
680
380
280
000
000
C93
C93
A81
B82
B82
B83
A82
B83
B82
B82
C93
B83
B82
B82
A72
A71
B82
B82
A81
A72
A81
C93
A81
A82
972
761
650
570
491
390
000
000
B93
B83
A81
B82
B83
B82
B82
B83
C93
B82
B82
B82
A71
A72
A72
B82
B82
A82
A71
A81
A81
A81
A81
A82
972
450
661
490
380
490
000
000
B83
A81
B83
B83
B82
B82
B82
B83
C93
B82
A72
A71
A71
A82
A71
B82
B82
A71
A71
A71
A81
A81
B82
B82
A82
661
460
490
470
380
000
000
A82
A81
A82
B82
B82
C82
B82
B82
B83
B83
B82
A71
B82
B82
A72
A72
B82
B82
A71
A71
A71
A81
B83
C93
B82
781
661
670
490
480
000
000
B82
A81
B82
B82
B82
C82
A72
A72
B82
B82
B82
B82
B82
B83
B82
A72
B82
B82
A71
B71
B82
B83
A81
B82
A71
770
560
670
480
491
000
000
B82
A81
B82
B82
B82
B82
A82
B82
B82
A71
A82
B82
B93
B83
B83
B82
B82
B72
B82
A71
B82
B82
A81
972
A82
450
470
490
380
380
000
000
B82
A81
B82
B82
A71
A71
A72
A71
A71
A72
B82
B83
B93
B83
B82
B82
A71
B82
B82
B82
A71
A71
A71
A81
761
791
5A1
390
480
480
000
000
B83
A81
B83
B82
A71
A71
B82
B82
B82
A71
A71
B82
B83
C83
B82
B82
A72
A72
B82
B82
B71
B82
B82
B82
761
491
490
381
481
491
000
000
B83
A81
B83
A82
A71
A71
A72
B83
B82
A71
B82
B82
A71
A71
A72
B82
B82
B82
B82
B82
B71
A71
A71
B83
450
370
491
5A0
581
481
000
000
B82
B82
A81
A81
A81
A81
B82
B82
A71
A71
A71
A81
A81
B83
B82
A81
A81
A81
A81
A81
A81
B83
B82
A71
470
480
481
490
481
380
000
000
A71
B82
B82
A81
B82
A72
A71
A81
B82
A81
A81
972
B82
C93
B82
A82
A82
B82
B82
B82
A71
A71
761
791
580
481
370
481
481
380
000
000
961
A71
A71
A71
B82
B82
A71
A81
A81
A81
761
A82
A71
B82
A82
972
972
972
761
450
960
470
791
470
470
481
380
591
490
380
000
000
760
870
971
971
971
971
870
760
570
560
791
450
770
781
661
450
761
661
660
460
470
490
380
490
370
491
491
380
380
491
000
000
591
661
450
760
680
450
671
450
560
691
5A1
470
560
661
460
661
650
450
770
580
580
481
490
390
280
5A0
491
370
380
491
000
000
681
480
380
691
480
5A1
591
460
680
591
390
490
670
670
490
490
570
680
691
580
480
590
380
380
390
5A0
480
471
280
491
000
000
380
570
491
581
380
490
491
490
480
390
480
380
480
490
470
380
491
380
270
490
370
490
380
490
380
380
270
380
490
381
000
000
490
280
370
481
370
380
490
380
380
380
480
380
491
480
380
490
390
280
270
270
280
380
481
491
490
380
490
280
490
380
000
000
000
000
000
000
000
000
000
000
000
000
000
000
000
000
000
000
000
000
000
000
000
000
000
000
000
000
000
000
000
000
000
000
000
000
000
000
000
000
000
000
000
000
000
000
000
000
000
000
000
000
000
000
000
000
000
000
000
000
000
000
000
000
000
000
