memory_initialization_radix=2;
memory_initialization_vector=
10000,
110,
100010,
11000,
100101,
101110,
110011,
111010,
111011,
111011,
111010,
111010,
111010,
110110,
111011,
111100,
111111,
111011,
111010,
111010,
111011,
111010,
110111,
110011,
110100,
101010,
11101,
1110,
1110,
10000,
0,
0,
10,
10011,
1110,
11110,
101011,
110011,
111010,
111010,
111010,
111010,
111010,
110011,
111010,
111010,
111010,
111011,
111111,
111011,
111010,
111010,
111010,
111010,
110111,
111010,
110110,
1001,
11000,
1110,
1110,
10000,
0,
0,
101,
10001,
110,
1001,
101111,
110011,
111010,
111010,
110011,
110011,
110100,
110011,
111010,
110100,
111101,
111010,
111010,
111010,
111010,
111010,
110100,
110011,
110111,
110110,
11101,
11101,
100111,
11000,
110,
1110,
0,
0,
1111,
10110,
100100,
100101,
101111,
110011,
110101,
110111,
110011,
110011,
110011,
111010,
111011,
111010,
111010,
110111,
111010,
111010,
111010,
111010,
110100,
110011,
110111,
110100,
101010,
11100,
100101,
10000,
1110,
10,
0,
0,
101,
110,
1110,
100001,
101111,
111010,
111010,
111010,
111010,
110110,
101111,
111010,
111011,
110100,
111010,
110011,
111010,
111111,
111111,
111010,
110110,
110011,
111010,
111010,
100110,
11011,
11110,
10011,
10,
110,
0,
0,
110,
10000,
11010,
1001,
101111,
111010,
110100,
111010,
111010,
111010,
110011,
110011,
110111,
110111,
110100,
110011,
111010,
111011,
111010,
111010,
110100,
111010,
111010,
111010,
110100,
101101,
10110,
1100,
10101,
10001,
0,
0,
10000,
10001,
11000,
100000,
101011,
110011,
110011,
111010,
111010,
110110,
111010,
111010,
111001,
110111,
110011,
110110,
110011,
110011,
110110,
110100,
111010,
111010,
110110,
110110,
101100,
101010,
10100,
10011,
110,
1,
0,
0,
110,
10000,
1010,
1001,
100101,
110101,
110101,
111010,
111010,
111010,
111010,
111010,
110111,
110111,
110011,
110011,
110011,
110100,
111010,
111011,
111010,
110110,
111011,
110110,
100001,
100001,
100011,
11010,
10000,
10,
0,
0,
110,
1110,
100001,
10010,
10011,
110101,
111010,
110011,
111010,
110111,
111010,
111010,
111010,
111010,
111010,
110100,
110011,
110011,
111010,
111010,
110011,
111010,
111011,
110001,
11101,
100,
100,
110,
10000,
10000,
0,
0,
110,
1000,
11000,
100100,
10010,
110101,
110101,
110011,
110111,
110111,
111010,
111010,
110100,
110100,
111010,
111010,
111110,
111011,
111010,
110011,
110011,
111010,
111010,
111010,
100101,
1011,
11,
1110,
10000,
110,
0,
0,
1110,
1110,
1000,
11010,
101001,
100110,
110101,
110011,
110011,
110011,
111010,
111010,
111010,
110011,
111010,
111010,
111011,
111100,
111011,
111010,
110100,
110011,
110011,
110010,
100000,
10011,
1111,
1000,
1111,
1110,
0,
0,
110,
110,
10000,
1100,
1001,
110110,
110000,
110101,
111010,
111010,
110011,
111010,
111000,
111010,
111010,
111011,
111011,
111100,
111010,
110110,
110011,
111010,
111010,
110110,
110010,
100010,
1010,
100,
10000,
10000,
0,
0,
10001,
1110,
11111,
10010,
100111,
110011,
111010,
110101,
111011,
111010,
110111,
110011,
111010,
111010,
110100,
111010,
111011,
111010,
111010,
111010,
111010,
111010,
111010,
110011,
101101,
1100,
10101,
1110,
101,
10,
0,
0,
1110,
10000,
11111,
11110,
101000,
111010,
111111,
111011,
110101,
110011,
110011,
110011,
111010,
111010,
110100,
110100,
111010,
111010,
110011,
111010,
111011,
111011,
111010,
111010,
1001,
1010,
10101,
10101,
10000,
1,
0,
0,
110,
1100,
10000,
1010,
11110,
110110,
111010,
111010,
110101,
110101,
110011,
110011,
110011,
111010,
111010,
110011,
110110,
110011,
110011,
110100,
111010,
111111,
111011,
111010,
100110,
11101,
100111,
100100,
1,
1,
0,
0,
10000,
110,
10000,
11110,
1001,
110000,
110110,
110101,
110101,
110101,
110101,
110011,
110110,
111010,
111010,
110100,
110100,
110011,
111010,
111010,
111010,
111111,
111011,
111010,
110000,
11110,
1001,
100001,
110,
10,
0,
0,
1000,
10001,
10011,
11011,
100110,
110000,
110110,
110101,
111111,
110101,
110100,
110101,
111010,
111010,
110011,
110100,
111010,
111010,
111011,
111111,
111010,
111010,
111011,
110110,
110000,
100110,
11011,
10011,
10001,
1000,
0,
0,
10,
110,
100001,
1001,
11110,
110000,
111010,
110101,
111010,
110011,
110101,
110101,
111011,
111010,
101110,
110011,
111010,
111010,
111110,
111110,
110100,
111010,
111011,
110110,
110000,
1001,
11110,
10000,
110,
10000,
0,
0,
1,
1,
100100,
100111,
11101,
100110,
111010,
110101,
110011,
110110,
110101,
110101,
111011,
111010,
111010,
110011,
111010,
111011,
111010,
111010,
110110,
111011,
111011,
111010,
110110,
11110,
1010,
10011,
1100,
110,
0,
0,
1,
10000,
10101,
10101,
1010,
1001,
111010,
110101,
111010,
111010,
110011,
110101,
110101,
111010,
111010,
110011,
111010,
111011,
111011,
111010,
111010,
110100,
111010,
111111,
111010,
101000,
11110,
11111,
10000,
1110,
0,
0,
10,
101,
1110,
10101,
1100,
101101,
110011,
110101,
111011,
111010,
111010,
111010,
110100,
111010,
111011,
110100,
110100,
111010,
111010,
111010,
111010,
110011,
110011,
111010,
110011,
100111,
10010,
11111,
1110,
10001,
0,
0,
10000,
10000,
100,
1010,
100010,
110010,
110110,
110101,
111010,
111010,
111011,
111100,
111010,
110011,
111010,
111010,
111010,
111010,
111000,
111010,
111010,
110011,
110011,
110000,
110110,
1001,
1100,
10000,
110,
110,
0,
0,
1110,
1111,
1000,
1111,
10011,
100000,
110010,
110101,
111010,
111010,
111010,
111010,
110011,
110111,
111010,
111010,
111010,
111010,
110111,
111010,
111010,
110111,
110111,
111010,
100110,
101001,
11010,
1000,
1110,
1110,
0,
0,
110,
10000,
1110,
11,
1011,
100101,
111010,
110101,
111010,
111010,
110011,
110011,
111010,
111010,
111010,
111011,
111010,
111010,
111010,
111010,
110111,
110111,
111010,
111010,
110011,
10010,
100100,
11000,
1000,
110,
0,
0,
10000,
10000,
110,
100,
100,
11101,
110001,
110101,
110011,
110011,
110011,
111010,
111101,
111101,
111010,
111010,
111011,
111010,
111010,
110100,
110011,
111010,
110011,
111010,
100010,
10011,
10010,
100001,
1110,
110,
0,
0,
10,
10000,
11010,
100011,
100001,
100001,
110110,
110101,
110011,
110011,
110011,
111010,
111010,
111010,
111010,
111011,
111010,
111010,
111010,
111010,
110011,
110100,
110011,
110101,
110101,
100101,
1001,
1010,
10000,
110,
0,
0,
1,
110,
10011,
10100,
101010,
101100,
110110,
110101,
110110,
111010,
111010,
111010,
111010,
111010,
111011,
111010,
111010,
111010,
111011,
111011,
110101,
110101,
110101,
110101,
110011,
101011,
100000,
11000,
10001,
10000,
0,
0,
10000,
110,
100010,
11000,
100101,
101110,
110011,
110101,
111011,
111011,
111010,
111010,
111010,
110110,
111011,
110101,
110101,
110101,
110101,
110101,
111011,
111010,
110111,
110011,
110100,
101010,
11101,
1110,
1110,
10000,
0,
0,
10,
10011,
1110,
11110,
101011,
110011,
111010,
111010,
110101,
110101,
110101,
110101,
110101,
110101,
110101,
111011,
111111,
111011,
111010,
111010,
111010,
111010,
110111,
111010,
110110,
1001,
11000,
1110,
1110,
10000,
0,
0,
10000,
110,
100010,
11000,
100101,
101110,
110011,
111010,
111011,
111011,
111010,
111010,
111010,
110110,
111011,
111100,
111111,
111011,
111010,
111010,
111011,
111010,
110111,
110011,
110100,
101010,
11101,
1110,
1110,
10000,
0,
0,
0,
0,
0,
0,
0,
0,
0,
0,
0,
0,
0,
0,
0,
0,
0,
0,
0,
0,
0,
0,
0,
0,
0,
0,
0,
0,
0,
0,
0,
0,
0,
0,
0,
0,
0,
0,
0,
0,
0,
0,
0,
0,
0,
0,
0,
0,
0,
0,
0,
0,
0,
0,
0,
0,
0,
0,
0,
0,
0,
0,
0,
0,
0,
0;
