380
490
280
490
380
490
491
481
380
490
9A5
CC7
665
565
472
490
591
AA7
BA7
8A5
491
390
380
380
490
390
591
481
481
270
000
000
381
490
380
270
380
380
490
380
490
591
FE8
EE8
CC7
886
565
381
451
774
985
A96
A96
390
280
280
490
380
481
380
491
380
000
000
491
280
471
480
5A0
390
380
380
591
FE9
EE8
874
763
442
565
795
7B5
573
432
764
A85
672
380
390
381
492
481
380
490
380
000
000
481
271
261
262
372
270
593
592
481
FE9
DC7
874
321
231
153
431
8C5
8D5
663
542
B96
461
490
280
381
481
490
380
490
380
000
000
491
380
380
381
253
143
9D6
8D6
6B4
974
DC7
764
221
022
143
242
572
7B4
773
432
985
462
490
380
5A3
7B4
593
451
380
490
000
000
380
490
591
380
471
143
573
7B4
8C5
783
CA6
653
121
022
143
154
131
341
CA7
B96
CB7
553
553
6B4
8D6
593
441
370
380
380
000
000
380
481
481
370
481
262
154
221
331
763
BA5
BA6
432
122
143
154
011
221
874
653
653
A96
CB7
683
583
441
490
4A0
481
381
000
000
380
481
490
481
480
381
164
010
011
111
974
CB6
331
132
133
133
010
874
EC7
CA6
643
653
764
673
441
240
280
490
481
480
000
000
481
581
5A0
491
370
380
373
000
010
011
652
BA6
642
332
232
432
B95
EC7
C95
642
121
443
653
975
543
380
490
270
481
481
000
000
491
481
381
490
491
380
371
000
011
011
542
A84
974
431
321
DC7
B95
974
652
322
542
542
653
864
442
480
481
380
481
471
000
000
490
381
370
240
380
481
372
000
010
011
653
863
A85
763
CB7
863
542
542
542
542
653
985
B96
653
321
131
253
153
153
481
000
000
591
260
120
111
331
250
251
000
010
764
653
432
753
BA6
763
432
321
542
543
653
653
643
542
111
000
132
264
153
153
581
000
000
380
490
380
121
221
221
221
000
774
553
221
321
985
864
432
543
331
221
321
321
331
221
110
010
011
164
274
254
143
481
000
000
380
490
380
131
352
583
594
352
885
331
000
432
763
321
221
432
542
321
211
011
000
011
000
132
122
164
374
264
143
372
000
000
380
380
370
221
211
352
573
473
764
221
000
542
432
221
111
221
332
542
542
221
011
121
010
132
132
154
264
264
133
153
000
000
390
380
240
221
010
221
231
231
553
321
000
542
221
211
000
111
321
542
663
875
995
553
332
111
021
011
153
154
122
132
000
000
380
380
221
211
000
221
221
000
431
221
100
432
221
000
110
000
000
321
321
221
332
885
885
542
221
000
122
143
122
132
000
000
380
341
221
211
000
211
221
000
321
321
211
332
231
131
111
000
000
000
321
332
321
221
221
774
321
000
000
122
022
132
000
000
140
211
221
211
000
100
211
000
221
321
221
231
231
121
000
000
000
000
221
321
321
221
221
553
432
000
000
122
122
133
000
000
110
211
221
111
000
000
111
000
000
221
221
221
121
110
000
000
000
110
211
321
221
221
221
221
111
000
000
022
122
261
000
000
120
111
221
110
000
000
000
000
000
111
221
110
100
000
000
100
110
110
111
221
221
111
211
111
000
000
011
122
361
490
000
000
130
111
221
110
000
000
000
000
000
000
111
111
110
000
100
110
110
110
111
221
211
211
110
000
000
000
021
251
390
490
000
000
360
241
351
110
000
000
000
000
000
000
110
110
110
000
000
000
000
000
110
221
211
100
000
010
000
010
011
130
280
380
000
000
4A0
481
591
370
000
010
000
000
000
000
000
100
100
000
000
000
000
000
110
111
111
121
231
131
110
011
000
000
370
490
000
000
591
491
481
371
240
380
250
000
000
000
000
000
000
000
000
000
000
000
100
110
111
221
121
110
000
000
000
000
130
481
000
000
481
581
481
481
590
380
370
000
000
000
000
000
000
000
000
000
000
000
000
110
100
110
110
000
000
000
000
000
000
370
000
000
481
381
491
380
481
370
490
010
000
000
000
000
000
000
000
000
000
000
000
110
111
000
000
000
000
000
010
240
370
490
000
000
490
280
390
280
380
380
280
140
250
260
250
140
010
000
000
000
000
000
000
110
110
010
120
140
471
371
280
481
490
380
000
000
490
380
490
270
380
4A0
390
490
490
280
491
380
270
140
120
000
000
000
000
120
370
390
490
280
591
481
370
491
490
280
000
000
481
380
490
371
481
490
390
380
480
380
490
4A0
481
371
380
361
010
000
120
380
380
380
490
380
490
491
380
490
380
380
000
000
000
000
000
000
000
000
000
000
000
000
000
000
000
000
000
000
000
000
000
000
000
000
000
000
000
000
000
000
000
000
000
000
000
000
000
000
000
000
000
000
000
000
000
000
000
000
000
000
000
000
000
000
000
000
000
000
000
000
000
000
000
000
000
000
