380
490
280
490
380
490
491
481
380
490
481
380
481
471
481
490
491
481
390
381
491
390
380
380
490
390
591
481
481
270
000
000
381
490
380
270
380
380
490
380
490
390
481
481
270
481
370
380
490
380
490
380
481
390
280
280
490
380
481
380
491
380
000
000
491
280
471
480
5A0
390
380
380
590
280
380
591
380
581
481
380
591
380
490
380
380
491
380
390
381
492
481
380
490
380
000
000
491
380
370
491
5A0
280
390
490
481
381
380
380
280
591
370
370
380
490
380
491
280
490
490
280
381
481
490
380
490
380
000
000
693
472
481
491
491
370
490
380
490
481
481
380
490
490
280
481
380
490
380
390
280
390
490
380
380
270
490
480
380
490
000
000
9B3
7A3
8A3
693
573
472
371
380
490
591
591
5A0
380
380
490
4A0
380
380
380
380
280
481
380
380
380
280
490
380
380
380
000
000
9C3
9C3
9C3
8A3
793
674
463
371
491
5A1
581
491
581
490
380
490
390
380
380
490
390
280
381
380
380
380
490
4A0
481
381
000
000
AC3
9C3
9C3
9B3
8A3
7A3
793
573
472
491
481
380
280
490
380
380
380
380
280
491
490
280
380
491
280
380
280
490
481
480
000
000
AC3
AC3
9B3
9B3
8B3
7A3
9B3
8A3
463
472
491
490
280
280
280
380
380
490
490
490
380
491
390
490
390
490
490
270
481
481
000
000
AD3
9C3
9B3
9B3
9B3
8A3
8A3
793
453
352
371
490
491
390
380
380
280
490
591
491
380
380
491
490
490
480
481
380
481
471
000
000
AD3
AC3
9B3
AC3
9B3
8B3
792
7A3
573
343
352
481
481
490
591
280
380
380
481
592
490
280
491
380
490
481
481
481
270
481
000
000
AC3
9B3
9B3
9B3
8A3
7A3
682
683
453
343
242
362
381
490
491
280
491
380
280
380
591
390
390
380
480
380
380
591
380
581
000
000
9B3
8A3
8A3
7A3
8A3
793
683
463
343
242
342
343
352
481
481
380
380
481
380
380
591
490
380
490
380
270
490
380
280
591
000
000
9C3
8A3
8A3
793
683
684
793
683
243
342
343
343
342
462
371
381
490
380
481
490
490
490
280
380
380
390
380
270
490
490
000
000
8A3
9B3
794
683
673
564
352
342
232
342
354
463
453
463
463
463
582
481
491
481
381
390
380
390
380
490
280
390
380
380
000
000
7A3
8A3
793
683
8A3
462
453
343
352
452
573
574
463
573
463
463
462
481
491
581
491
380
490
280
390
490
490
490
270
390
000
000
672
793
8A3
683
572
463
575
464
353
463
573
574
573
684
573
353
352
380
490
480
490
280
490
390
490
380
380
390
380
490
000
000
563
682
682
462
453
463
464
464
575
574
574
563
573
684
584
573
342
371
490
390
491
280
490
390
390
380
380
481
380
490
000
000
684
682
462
352
462
463
463
794
684
464
463
453
453
574
573
463
353
252
480
380
490
490
380
380
490
490
380
491
491
380
000
000
9B3
9B3
682
793
792
793
573
684
574
454
463
463
463
463
343
343
343
232
361
380
490
490
390
380
380
490
490
481
380
490
000
000
9B3
9B3
8A3
7A4
8B3
8A3
8A3
584
574
463
584
684
463
342
353
354
353
343
342
471
480
490
280
490
380
490
390
491
490
490
000
000
9B3
9B3
9B3
8A3
9B3
8A3
8A3
574
464
463
463
573
463
353
354
354
354
354
342
242
241
481
380
490
481
490
270
491
390
490
000
000
8A4
7A4
9B3
8A3
8B3
682
572
573
463
584
684
573
463
354
354
354
353
343
232
231
221
351
481
381
590
481
481
5A0
280
380
000
000
7A4
794
8A3
793
793
572
462
463
453
575
685
464
353
353
353
354
343
232
232
232
231
241
380
380
5A0
490
491
490
390
490
000
000
794
8B3
8A3
464
464
452
352
463
684
465
464
464
464
354
343
343
342
342
342
343
343
231
241
591
481
490
380
480
490
481
000
000
795
7A4
8A4
695
574
351
342
574
685
575
464
464
464
354
232
342
452
453
353
343
343
231
232
471
481
591
490
381
280
490
000
000
8A4
695
795
694
462
452
685
575
575
575
575
464
353
342
231
342
463
463
453
343
352
232
241
351
380
490
380
481
380
490
000
000
9C3
9B3
8B4
794
684
564
585
575
585
575
575
574
353
453
452
452
462
563
463
453
462
342
241
251
591
481
280
481
490
380
000
000
8B3
8A4
9B4
7A5
685
574
574
564
685
575
454
464
464
463
462
462
462
462
462
462
462
343
232
241
481
481
370
491
490
280
000
000
8A4
7A5
7A5
696
685
574
685
574
353
464
464
464
573
462
452
462
462
462
462
462
462
463
343
232
361
491
380
490
380
380
000
000
000
000
000
000
000
000
000
000
000
000
000
000
000
000
000
000
000
000
000
000
000
000
000
000
000
000
000
000
000
000
000
000
000
000
000
000
000
000
000
000
000
000
000
000
000
000
000
000
000
000
000
000
000
000
000
000
000
000
000
000
000
000
000
000
