memory_initialization_radix=2;
memory_initialization_vector=
11100,
101001,
10001,
101001,
11100,
101001,
101010,
101000,
11100,
101001,
101000,
11100,
101000,
100110,
101000,
101001,
101010,
101000,
11110,
11101,
101010,
11110,
11100,
11100,
101001,
11110,
110010,
101000,
101000,
10000,
0,
0,
11101,
101001,
1101000,
1101001,
1100111,
1101000,
1101001,
1101010,
1101010,
1101001,
1101000,
1101001,
1101001,
1101001,
1101000,
1101000,
1101000,
1101000,
1101000,
1100101,
1100111,
1100111,
1101000,
1101000,
1101000,
1001011,
101111,
11100,
101010,
11100,
0,
0,
101010,
10001,
1101010,
111101,
111000,
111100,
111111,
111001,
111001,
111101,
111111,
111111,
111100,
111100,
111001,
111101,
111101,
111001,
111001,
111001,
111001,
111001,
111100,
111101,
1010001,
1001011,
110000,
11100,
101001,
11100,
0,
0,
101010,
11100,
1101010,
100000,
10010,
101100,
111000,
111000,
111000,
111000,
111000,
111100,
111101,
111100,
111100,
111001,
111100,
111101,
111101,
111101,
111101,
111101,
111101,
111000,
1010010,
1001001,
100110,
11100,
101001,
11100,
0,
0,
101010,
11100,
1101001,
100000,
101100,
1000011,
1001001,
1001001,
1010000,
1010000,
1010000,
1010010,
1010010,
1010010,
1010010,
1010000,
1001001,
1010010,
1011101,
1011101,
1011010,
1010111,
1011000,
1010000,
1011101,
1000100,
100110,
100111,
11100,
101001,
0,
0,
11100,
101001,
1101010,
10011,
101100,
1010010,
1010111,
1010010,
1010010,
1011101,
1011010,
1010000,
1010000,
1011010,
1100000,
1011010,
1010010,
1011010,
1100000,
1100000,
1011101,
1100000,
1100011,
1011101,
1100011,
1000100,
100110,
11100,
11100,
11100,
0,
0,
11100,
101000,
1101001,
10010,
101101,
1011101,
1011101,
1010000,
1010010,
1011101,
1011010,
1010010,
1010010,
1011101,
1100000,
1011101,
1011101,
1100011,
1011101,
1011010,
1011101,
1011110,
1100000,
1011101,
1100101,
1000100,
10111,
101001,
101000,
11101,
0,
0,
11100,
101000,
1101001,
10011,
101101,
1011000,
1011010,
1010010,
1010111,
1011010,
1011000,
1010111,
1010000,
1010010,
1011000,
1011010,
1011010,
1100000,
1011101,
1100000,
1011101,
1010111,
1011010,
1011010,
1100101,
1000100,
1010,
1101,
11011,
100111,
0,
0,
101000,
110001,
1101001,
11111,
101101,
1010010,
1010111,
1011010,
1010010,
1011010,
1011101,
1011110,
1010111,
1010010,
1011101,
1011101,
1011010,
1011101,
1011101,
1100011,
1011101,
1011010,
1011010,
1010111,
1100101,
1000100,
1011,
100,
11001,
101000,
0,
0,
101010,
101000,
1101011,
10011,
110100,
1010010,
1010111,
1011010,
1011010,
1011110,
1100011,
1011010,
1011101,
1100011,
1100000,
1011101,
1100011,
1100011,
1011101,
1011101,
1100000,
1100011,
1100011,
1011000,
1100101,
1010010,
10110,
101,
1110,
100110,
0,
0,
101001,
11101,
1101100,
100000,
111000,
1010111,
1010111,
1011000,
1010111,
1011010,
1011101,
1011000,
1011010,
1100000,
1011101,
1011010,
1100000,
1100000,
1011010,
1011101,
1100011,
1100000,
1011101,
1011010,
1100101,
1010010,
10110,
1011,
101,
101000,
0,
0,
110010,
11100,
1101100,
111111,
1000010,
1001001,
1010010,
1010010,
1010010,
1010010,
1010010,
1010010,
1010111,
1011111,
1011010,
1011010,
1011111,
1011010,
1011010,
1011111,
1011010,
1011001,
1011010,
1001001,
1100000,
1010011,
10110,
1100,
101,
110001,
0,
0,
11100,
101001,
1101001,
1101001,
1100110,
1100101,
1100110,
1100101,
1101000,
1101001,
1101001,
1100101,
1100110,
1101001,
1100110,
1100101,
1100110,
1100101,
1100101,
1100101,
1100110,
1100101,
1100101,
1100110,
1100110,
1001001,
10110,
101,
101,
110010,
0,
0,
11100,
101001,
111100,
111100,
111100,
111001,
111001,
111001,
111100,
111100,
111100,
111001,
111100,
111100,
111001,
111000,
111000,
111000,
111000,
111000,
111000,
111000,
111000,
111000,
111001,
110101,
1011,
101,
1011,
101001,
0,
0,
11100,
11100,
110110,
110101,
110110,
110110,
110110,
110110,
110110,
110110,
110110,
110110,
110110,
111000,
110110,
110110,
110110,
111000,
111000,
111000,
111000,
110110,
110110,
111000,
111000,
101100,
1010,
1011,
101,
11100,
0,
0,
11110,
11100,
111001,
111101,
111001,
111100,
1000000,
111100,
111001,
111000,
111100,
111100,
111100,
111001,
111001,
111100,
111100,
111001,
111000,
111001,
111100,
111001,
110110,
110101,
111000,
110110,
10110,
1011,
101,
11110,
0,
0,
11100,
11100,
1011111,
1100010,
1001110,
1000010,
101101,
111001,
1001110,
1001110,
110110,
101101,
111000,
1001110,
1000111,
110110,
100010,
1000010,
1001110,
1000001,
100001,
100001,
111100,
1001111,
1100001,
1001011,
100100,
1011,
101,
101001,
0,
0,
11100,
101001,
1000010,
1010101,
1001110,
110110,
0,
100001,
1000111,
1001110,
1001,
0,
10100,
1001110,
1000000,
1000,
0,
111000,
1001110,
111000,
0,
11,
1000000,
1000010,
1000010,
111101,
10101,
1100,
101,
101001,
0,
0,
10001,
101001,
1101001,
1100110,
1000111,
110011,
0,
10100,
111100,
1000000,
111,
0,
111,
1000000,
111000,
11,
0,
110011,
1000000,
101100,
0,
0,
110111,
1001111,
1101001,
1000100,
10101,
1011,
1011,
11100,
0,
0,
11100,
11100,
1010011,
1001001,
1000010,
111100,
1000010,
1000010,
1000010,
1010001,
1010001,
1010001,
1001001,
1001001,
1010001,
1010001,
1010010,
1011001,
1011001,
1010010,
1011001,
1011001,
1001000,
1001000,
1010010,
111001,
10101,
1011,
101,
101001,
0,
0,
101010,
11100,
1011111,
1101010,
1101010,
1100101,
1101010,
1101000,
1100101,
1101000,
1101000,
1101000,
1101000,
1101000,
1101000,
1101000,
1101000,
1101000,
1100101,
1100100,
1100101,
1101000,
1100101,
1100101,
1011011,
1000100,
10110,
1011,
1101,
101001,
0,
0,
11100,
101000,
111100,
1100100,
1011111,
101100,
100010,
110110,
111100,
111101,
1001000,
1010001,
1010001,
1001110,
1001000,
1001000,
1001111,
1000010,
1000000,
111100,
101101,
110110,
1100101,
1011010,
10100,
101110,
1100,
1011,
1101,
101001,
0,
0,
101001,
11100,
111100,
1010110,
1010001,
10100,
0,
100001,
1000000,
1000000,
101100,
1100101,
1011100,
1011011,
1011011,
1001100,
1100110,
1001001,
1000000,
1000001,
0,
0,
1001001,
1001001,
110110,
111000,
10110,
1101,
110,
11100,
0,
0,
101011,
101000,
111100,
1001111,
1001000,
10100,
0,
100001,
111100,
111000,
110101,
1101010,
0,
11,
11,
0,
1001101,
1000100,
111000,
111100,
0,
10,
1000111,
1000111,
111001,
111100,
100011,
1101,
1111,
101001,
0,
0,
110010,
101010,
111100,
1001111,
1001000,
101100,
100001,
110101,
1000100,
1001100,
111111,
1101011,
0,
0,
1,
0,
1000110,
1010100,
1001010,
111010,
100001,
100001,
1001000,
1000010,
110110,
111100,
10101,
1011,
11010,
101000,
0,
0,
101000,
110001,
101100,
1001000,
1001111,
101100,
101100,
101100,
1011011,
1101001,
111111,
1101001,
111,
1000,
11,
11,
1000101,
1100110,
1101001,
111101,
111000,
110011,
1000111,
1000010,
100001,
101100,
10101,
1101,
10000,
101001,
0,
0,
101000,
11101,
101000,
11000,
10110,
1010,
1011,
100,
111111,
1010010,
110110,
100101,
1011,
1011,
1011,
100,
11000,
111111,
1001000,
111000,
10101,
10101,
10110,
10110,
1011,
10111,
11010,
101000,
11100,
101001,
0,
0,
101001,
10001,
11100,
1111,
1111,
1111,
1111,
1111,
111001,
1000001,
110011,
1011,
101,
101,
1101,
1110,
1110,
111001,
1000000,
111000,
1101,
1011,
1111,
10000,
110010,
101000,
10001,
101000,
101001,
11100,
0,
0,
101001,
11100,
101001,
10000,
11100,
101011,
11110,
101001,
111110,
1000001,
110101,
1011,
1111,
10000,
11100,
110010,
11100,
111011,
1000000,
111000,
1101,
11100,
101001,
10001,
110010,
101000,
11010,
101010,
101001,
10001,
0,
0,
101000,
11100,
101001,
11011,
101000,
101001,
11110,
11100,
111011,
1000001,
101100,
101001,
101000,
11101,
11100,
110010,
11100,
111011,
1000001,
101100,
11100,
11100,
101001,
11100,
101001,
101010,
11100,
101001,
11100,
11100,
0,
0,
0,
0,
0,
0,
0,
0,
0,
0,
0,
0,
0,
0,
0,
0,
0,
0,
0,
0,
0,
0,
0,
0,
0,
0,
0,
0,
0,
0,
0,
0,
0,
0,
0,
0,
0,
0,
0,
0,
0,
0,
0,
0,
0,
0,
0,
0,
0,
0,
0,
0,
0,
0,
0,
0,
0,
0,
0,
0,
0,
0,
0,
0,
0,
0;
