0000110
0010101
0000110
0001111
0000111
0001100
0011011
0011001
0010000
0010011
0010011
0001100
0010011
0001010
0001001
0010011
0011011
0010000
0010011
0010001
0010011
0001100
0000111
0001100
0010101
0001100
0010101
0001100
0001100
0000001
0000000
0000000
0000111
0001110
0000110
0000010
0001100
0001101
0011010
0100111
0011110
0011001
0011000
0010000
0001010
0011001
0010000
0011000
0100100
0011101
0100001
0011110
0011001
0010011
0001010
0010000
0011010
0001101
0001101
0000111
0001111
0000110
0000000
0000000
0010101
0000110
0001001
0001100
0011100
0011001
0011110
0100111
0101001
0100100
0011110
0011110
0100001
0100001
0010111
0100100
0101010
0100111
0101001
0101000
0011101
0011110
0100001
0100001
0011110
0011011
0010011
0000111
0001111
0001100
0000000
0000000
0010101
0000111
0000101
0010011
0011010
0011110
0100100
0101001
0110100
0101011
0100100
0100011
0100101
0101001
0011101
0101001
0101111
0101011
0110100
0101011
0011101
0100001
0101001
0100111
0100011
0011001
0010011
0001100
0010101
0000110
0000000
0000000
0001100
0000111
0001100
0010011
0011001
0011101
0101001
0101111
1000010
0111101
0110000
0101011
0110000
0110000
0100101
0110100
0111100
0111110
1000100
0110000
0100101
0101011
0110100
0101011
0100111
0010111
0011010
0010000
0000111
0001111
0000000
0000000
0000110
0001100
0010110
0011001
0100000
0100011
0100111
0110101
1001001
1001111
1001000
0111101
0111110
0111110
0101110
1000011
1001000
1001110
1001001
0110110
0110101
1000010
1000011
0110000
0100111
0100010
0011001
0001100
0000111
0000110
0000000
0000000
0000110
0010011
0010011
0010000
0100100
0101101
0101111
0110011
1001001
1001001
1001110
1001110
1001111
1001101
0111110
1001111
1001110
1001001
1001000
1000011
1001111
1010000
1001010
0110110
0101110
0100001
0011010
0010101
0001101
0001100
0000000
0000000
0000111
0010011
0010101
0010001
0011110
0101001
0110011
0110110
1001000
1001000
1001001
1001110
1010000
1001010
1001110
1010000
1001111
1000111
1000111
1001111
1010000
1010000
1001010
0110101
0101001
0100000
0010000
0001100
0001100
0001011
0000000
0000000
0001100
0010011
0010101
0010011
0011001
0100111
0101011
1000011
1001001
1001111
1001001
1000010
1001000
1000111
1010000
1001110
1000011
1000001
1001110
1000111
1001101
1000100
1001000
0110110
0101011
0100001
0011010
0000101
0001101
0001100
0000000
0000000
0010101
0001101
0001010
0010011
0011000
0100000
0101001
0110111
1001010
1001111
1001110
0111011
0111001
0110011
1001001
1000011
1000001
0111100
1000001
0110110
1001001
1001001
1000011
0110000
0101001
0100000
0011110
0010000
0010011
0001010
0000000
0000000
0010011
0010000
0010000
0011000
0011110
0100000
0101000
0110010
1001101
1001111
1000110
0111100
0111100
0110011
0110110
0110110
1001001
0111100
0110110
0111101
1001111
1001001
0110110
0110000
0110000
0110000
0101000
0011001
0000101
0001101
0000000
0000000
0011110
0011110
0011110
0100001
0101000
0101001
0101100
0110100
1001001
1001010
0111110
0111101
1000001
0111101
0110011
0110110
1001000
1000010
0110011
1001001
1001010
1001111
1001000
1000100
1000100
0110000
0100000
0011011
0001010
0010011
0000000
0000000
0010000
0100001
0101001
0110000
0110101
0110110
0111110
1001010
1001111
1001111
1000000
1001000
0110110
1001011
0111101
1000100
1000100
1001010
0111101
1000111
0110111
0111001
1001110
1001010
0110111
0101011
0100111
0100001
0011110
0011010
0000000
0000000
0010000
0100001
0101000
0110000
1000010
1001001
1001000
1001000
1000111
1000010
0110110
1000010
1010000
1001110
1010000
1010001
1010001
1000011
0110011
0111100
0111100
0111100
1001000
1001111
1001110
0110111
0101001
0011101
0011001
0010110
0000000
0000000
0001100
0010000
0011001
0100100
0101011
1000010
1001110
1000010
0110011
0111100
1000100
1000011
1001010
1010001
1010001
1010001
1010001
1010000
1010000
0111100
0110111
1000100
1001111
1010000
1001001
0110100
0101001
0100001
0011000
0001100
0000000
0000000
0001100
0011001
0100000
0101011
0110100
1001000
1001001
1001001
1000111
0111101
0111001
1001101
1001111
1010001
1010001
1010001
1010001
1010001
1000011
1000010
1001110
1001110
1001010
1001010
0111111
0110001
0101000
0011110
0001010
0001100
0000000
0000000
0001100
0010000
0011001
0101000
0110000
1000010
1001001
1000111
0110110
0110110
0111100
1001000
1010001
1010001
1010001
1010001
1010001
1010001
1001010
1000010
1001000
1001110
1001001
1000011
0110110
0101001
0011110
0010011
0001100
0001100
0000000
0000000
0001100
0010011
0010011
0011110
0100100
0110000
0111101
1001110
1001110
1001000
0111101
1001110
1001011
1001111
1001110
1010001
1001100
1001110
1001111
1000101
0110110
0110011
1000011
1000111
0110110
0101001
0011110
0010100
0001100
0001100
0000000
0000000
0000110
0001111
0010011
0011001
0100001
0101011
0110111
1001101
1000011
0111101
1001001
0111110
0111101
1001010
0111010
1010000
1001001
1000001
0111100
0110110
1000001
1000111
1001110
1001010
1001010
0110111
0101000
0011110
0010011
0001100
0000000
0000000
0001011
0001101
0011001
0100100
0101011
1000010
1001000
1001110
1000011
1000010
0111101
1000111
0111101
1000100
0110011
1001001
1000010
0110110
1001110
1000010
1001001
1001110
1001111
1001101
1000011
0111000
0110000
0101000
0011110
0010011
0000000
0000000
0001100
0001010
0011001
0101000
0110000
1000010
1000100
1001010
1001101
1000001
1001001
1001000
1000001
0111101
0110011
1000010
0111101
1000001
1001000
1001110
1001000
1001110
1001111
1001111
1000100
0101010
0100100
0100001
0011110
0010011
0000000
0000000
0000101
0010001
0011110
0100111
0101001
0110000
1001000
1001101
1001010
1001111
1001010
1001101
1000010
0110110
0111101
0110110
1001001
1001001
1001110
1010000
1001111
1001111
1001001
1001000
0110111
0110000
0100001
0011011
0010011
0001100
0000000
0000000
0010010
0010000
0011001
0011110
0101001
0110011
0110100
1001101
1000011
1000100
1000011
1001010
1001001
1000011
1001001
0110110
1001111
1001110
1001001
1000100
0111000
1000010
0111110
0110000
0110110
0100110
0100001
0011011
0000101
0000111
0000000
0000000
0010101
0010011
0011010
0011110
0100101
0101011
0110111
0110001
0110000
0101011
0110110
0110110
1001001
1001010
1001111
1000111
1010000
1001110
0110100
0110100
0100111
0101010
0101110
0100111
0100100
0101001
0011110
0010011
0001100
0001100
0000000
0000000
0010101
0010011
0010011
0011110
0100001
0101111
0101011
0101001
0100111
0101000
0101011
0101110
1000010
1001010
1001111
1001110
1001110
1001000
0101011
0101010
0100100
0100001
0101000
0101001
0011101
0011110
0011001
0001101
0001111
0001100
0000000
0000000
0001101
0010000
0010000
0011011
0100111
0100001
0011110
0100001
0011110
0100000
0100000
0101000
0111000
1001001
0111110
1001110
0111101
0110110
0101000
0011110
0011111
0011000
0011000
0100001
0011110
0011010
0010011
0001010
0000111
0001111
0000000
0000000
0001100
0000101
0010011
0011000
0011001
0010000
0010011
0001010
0010011
0010001
0011010
0100001
0110101
0111010
0101011
1000011
0110000
0101011
0100001
0010000
0010011
0010011
0001100
0010000
0010000
0010011
0000111
0001100
0000101
0001111
0000000
0000000
0001110
0000111
0001100
0000111
0001100
0001100
0000111
0000111
0010101
0000111
0001101
0011110
0101010
0101001
0100011
0110100
0101001
0100000
0011110
0001100
0010101
0001100
0000110
0000111
0010110
0001100
0000111
0001100
0001011
0000110
0000000
0000000
0001110
0000111
0001111
0000001
0000110
0010101
0001000
0001110
0001111
0000011
0001101
0011001
0100001
0010111
0011001
0101001
0011110
0011001
0011010
0000101
0001011
0001110
0001110
0000011
0010101
0001100
0000100
0001111
0001110
0000011
0000000
0000000
0001100
0001011
0001111
0000101
0001100
0001110
0001110
0000111
0001100
0000110
0001100
0011010
0011110
0010000
0010000
0100100
0011001
0011001
0001001
0000111
0000110
0000110
0001110
0000110
0001110
0001111
0000110
0001110
0000110
0000110
0000000
0000000
0000000
0000000
0000000
0000000
0000000
0000000
0000000
0000000
0000000
0000000
0000000
0000000
0000000
0000000
0000000
0000000
0000000
0000000
0000000
0000000
0000000
0000000
0000000
0000000
0000000
0000000
0000000
0000000
0000000
0000000
0000000
0000000
0000000
0000000
0000000
0000000
0000000
0000000
0000000
0000000
0000000
0000000
0000000
0000000
0000000
0000000
0000000
0000000
0000000
0000000
0000000
0000000
0000000
0000000
0000000
0000000
0000000
0000000
0000000
0000000
0000000
0000000
0000000
0000000
