0010001
0100000
0000111
0100000
0010001
0100000
0100001
0011110
0010001
0100000
0011110
0010001
0011110
0011011
0011110
0100000
0100001
0011110
0010011
0010010
0100001
0010011
0010001
0010001
0100000
0010011
0101011
0011110
0011110
0000110
0000000
0000000
0010010
0100000
0010001
0000110
0010001
0010001
0100000
0010001
0100000
0010011
0011110
0011110
0000110
0011110
0001111
0010001
0100000
0010001
0100000
0010001
0011110
0010011
0000111
0000111
0100000
0010001
0011110
0010001
0100001
0010001
0000000
0000000
0100001
0000111
0011011
0011101
0101101
0010011
0010001
0010001
0101010
0000111
0101001
0111001
0011110
0101000
0011110
0010001
0101011
0010001
0100000
0010001
0010001
0100001
0010001
0010011
0010010
0100010
0011110
0010001
0100000
0010001
0000000
0000000
0100001
0010001
0001111
0100001
0101101
0000111
0010011
0100000
0011110
0110010
0111000
1000111
0111111
0101011
0001111
0001111
0010001
0100000
0010001
0100001
0000111
0100000
0100000
0000111
0010010
0011110
0100000
0010001
0100000
0010001
0000000
0000000
0100001
0010001
0010001
0100001
0100001
0001111
0100000
0011110
0111110
1001011
1000100
0111101
1000111
0110111
0011111
0011110
0011110
0101011
0011111
0011110
0000111
0010011
0100000
0010001
0010001
0000110
0100000
0011101
0010001
0100000
0000000
0000000
0010001
0100000
0101011
0010001
0011110
0011110
0011110
1000000
1001110
1010000
1000111
0110000
0111101
1000011
1000110
1000011
0110101
0111100
1001000
1000001
0010000
0011110
0010010
0010001
0010001
0000111
0100000
0010001
0010001
0010001
0000000
0000000
0010001
0011110
0011110
0010000
0011110
0010001
0101011
1000001
1001110
1001110
0111100
0110000
1000100
1000111
1000111
1000111
1000100
1000011
1001011
1001011
0111010
0010000
0010010
0010001
0010001
0010001
0100000
0100011
0011110
0010010
0000000
0000000
0010001
0011110
0100000
0011110
0011101
0010011
0101001
0111100
1001011
1000111
0100110
0111011
1001011
1001011
1000101
1000100
1000111
1000111
0111101
1000010
1000111
0111110
0011110
0100001
0000111
0010001
0000111
0100000
0011110
0011101
0000000
0000000
0011110
0101000
0101101
0100001
0001111
0011110
0111000
0111101
1000100
0110110
0100100
0110110
0111101
0111101
1001011
1001110
1001100
1000100
0111100
1000100
1000111
1001001
0110011
0101011
0010011
0100000
0100000
0000110
0011110
0011110
0000000
0000000
0100001
0011110
0010010
0100000
0101100
1000111
1001011
1000010
0111101
0101110
0100101
0110100
0110100
0111011
0111101
1000010
1000111
0111101
1000100
1000111
1001011
1000111
0110101
0101001
0100000
0011101
0011110
0010001
0011110
0011011
0000000
0000000
0100000
0010010
0010001
0100000
1000111
1001111
1001011
0111101
0101111
0100100
0100100
0110000
0101110
0111011
0111011
0111101
0110110
0111101
1000111
1001110
1001110
0110110
0110100
0100111
0100000
0011110
0011110
0011110
0000110
0011110
0000000
0000000
0101011
0010001
0100000
0010010
1000111
1001110
1000100
0111011
0110110
0110000
0101110
0101111
0110000
0110110
0110110
0110100
0100110
0110100
1000100
1000111
1000100
0110000
0110000
0100111
0011110
0010001
0010001
0101011
0010001
0101000
0000000
0000000
0010001
0100000
0010001
0100000
1000100
1000100
1000010
1001011
1001110
1001011
1000100
0110110
0110110
0110100
0100110
0100100
0100100
0110110
1000100
1000110
0111101
0101110
0100110
0100101
0010000
0000110
0100000
0010001
0000111
0101011
0000000
0000000
0010001
0100000
0010001
0010001
0111101
0111101
1000100
1001011
1001011
1000111
1000010
0111101
1000100
0111101
0110101
0101110
0010110
0110101
1000100
1000100
0110000
0100100
0100100
0010110
0011001
0100000
0010001
0000110
0100000
0100000
0000000
0000000
0010001
0010001
0010001
0011110
0110110
0111011
1000100
1000111
1000111
1000100
0110110
1000100
1001011
1000111
1000111
0111101
0100110
0110100
0111011
0110110
0101110
0010110
0010100
0001000
0001010
0001111
0000110
0010011
0010001
0010001
0000000
0000000
0010011
0010001
0010001
0110001
0111100
1000111
1000111
1000111
1000101
0111101
1000100
1001011
1000111
1000111
1001010
1000100
0110000
0101110
0100110
0110110
0111101
0101111
0101111
0111100
0100101
0000100
0001111
0100000
0000110
0010011
0000000
0000000
0010001
0010001
0010000
1000011
1001011
1001110
1000111
1000100
0111101
0111011
1001011
1001101
1000111
1000111
1001011
1000011
0110000
0101110
0101111
1000010
1000100
0110110
1001011
1001101
1000100
0011000
0000100
0001111
0010001
0100000
0000000
0000000
0010001
0100000
0110111
1001100
1001011
1000100
1000011
1000100
1000010
1000100
0111100
1000111
1001101
1001011
1000111
0110110
0110100
0110100
0110100
1000100
0111101
0110101
1000111
1000100
0111101
0101111
0000011
0001110
0010001
0100000
0000000
0000000
0000111
0100000
0110101
1001110
1000111
0111101
1000100
1000100
1001011
1001011
0110000
0100110
1001011
1001110
1000111
0110100
0110101
0110110
0101110
0111100
0110000
0110000
1000100
0111101
0101110
0100100
0010101
0010000
0100001
0010001
0000000
0000000
0010001
0010001
0100101
0110000
0111101
1000011
1000100
1001001
1010000
1001011
0101111
0010101
0111100
1001110
1000100
0110100
0110100
0110100
0100110
0100100
0100100
0010110
0110110
0110100
0010100
0100101
0011000
0001110
0010001
0100000
0000000
0000000
0100001
0010001
0010000
0101111
0110100
0110110
1000100
1001110
1010000
1001011
0110000
0100110
0110000
1001001
1000101
0110100
0100110
0100110
0110000
0100110
0010101
0100110
0101111
0100110
0010101
0100100
0010110
0011001
0100000
0100000
0000000
0000000
0010001
0011110
0010001
0001100
0010101
0101110
0111101
1001011
1001110
1000101
0110100
0101110
0101111
1000101
1000010
0110100
0101110
0100100
0100110
0100100
0010101
0100110
0101111
0100110
0010101
0010101
0001001
0011011
0010011
0100000
0000000
0000000
0100000
0010001
0011110
0011010
0001010
0011000
0110110
1000101
1000100
0110110
0110110
0110000
0100100
0110110
0110110
0111101
0111101
0100110
0010110
0010100
0010100
0010101
0100101
0100101
0010101
0001000
0000011
0011101
0000111
0010001
0000000
0000000
0100011
0011110
0101011
0100000
0010000
0011000
0110100
0110000
0100110
0110000
0110100
0100110
0010100
0100100
0111101
1000100
0110110
0101110
0010101
0001000
0001000
0001010
0001010
0010101
0001010
0000010
0011011
0100000
0010011
0100000
0000000
0000000
0101011
0100001
0011110
0011110
0100000
0011011
0100111
0100101
0100100
0101110
0100101
0010101
0001000
0100100
0111101
0110110
0101110
0010101
0010101
0000011
0000010
0000101
0000001
0000011
0000011
0001111
0010001
0011101
0100000
0011110
0000000
0000000
0011110
0101000
0011110
0101011
0101010
0010001
0010010
0011100
0010111
0001010
0000011
0001010
0000011
0001011
0100101
0100110
0100100
0001010
0000011
0000001
0000010
0000010
0000001
0001101
0011011
0100001
0100000
0010010
0000111
0100000
0000000
0000000
0011110
0010010
0100001
0010001
0011110
0001111
0100000
0010001
0011110
0010010
0001111
0000100
0000100
0000010
0001100
0010111
0011001
0000100
0000010
0000100
0001111
0010000
0001111
0010001
0010001
0100000
0010001
0011110
0010001
0100000
0000000
0000000
0100000
0000111
0010011
0000111
0010001
0010001
0000111
0010001
0100011
0010011
0010011
0010001
0000111
0000111
0011110
0100001
0100001
0010001
0010001
0010011
0100000
0011101
0010001
0000111
0101011
0011110
0000111
0011110
0100000
0010001
0000000
0000000
0100000
0010001
0100000
0000110
0010001
0100011
0010011
0100000
0100000
0000111
0100001
0010001
0000110
0000110
0010001
0101011
0010001
0100000
0100000
0000111
0010011
0010011
0100000
0000111
0101011
0011110
0001111
0100001
0100000
0000111
0000000
0000000
0011110
0010001
0100000
0010000
0011110
0100000
0010011
0010001
0011101
0010001
0100000
0100011
0011110
0010010
0010001
0101011
0010001
0011110
0010001
0010001
0010001
0010001
0100000
0010001
0100000
0100001
0010001
0100000
0010001
0010001
0000000
0000000
0000000
0000000
0000000
0000000
0000000
0000000
0000000
0000000
0000000
0000000
0000000
0000000
0000000
0000000
0000000
0000000
0000000
0000000
0000000
0000000
0000000
0000000
0000000
0000000
0000000
0000000
0000000
0000000
0000000
0000000
0000000
0000000
0000000
0000000
0000000
0000000
0000000
0000000
0000000
0000000
0000000
0000000
0000000
0000000
0000000
0000000
0000000
0000000
0000000
0000000
0000000
0000000
0000000
0000000
0000000
0000000
0000000
0000000
0000000
0000000
0000000
0000000
0000000
0000000
