010000
001110
001110
011101
101010
110100
110011
110111
111010
111011
111010
111010
111011
111111
111100
111011
110110
111010
111010
111010
111011
111011
111010
110011
101110
100101
011000
100010
000110
010000
000000
000000
001110
001110
001110
011000
001001
110110
111010
110111
111010
111010
111010
111010
111011
111111
111011
110101
110101
110101
110101
110101
110101
110101
111010
111010
110011
101011
011110
001110
010011
000010
000000
000000
001110
001110
001110
011101
101010
110100
110011
110111
111010
111011
110101
110101
110101
110101
110101
111011
110110
111010
111010
111010
111011
111011
110101
110011
101110
100101
011000
100010
000110
010000
000000
000000
011101
011000
011101
100000
110100
111010
110101
110101
110101
110101
111011
111011
111010
111010
111010
111011
111010
111010
111010
111010
111010
110110
110101
110110
101100
101010
010100
010011
000110
000001
000000
000000
101010
001001
101010
110100
110100
110101
110101
110011
110100
110011
111010
111010
111010
111010
111011
111010
111010
111010
111010
110011
110011
110011
110101
110110
100001
100001
100011
011010
010000
000010
000000
000000
110100
110110
110100
111010
110101
111010
111010
110011
111010
110011
110100
111010
111010
111011
111010
111010
111101
111101
111010
110011
110011
110011
110101
110001
011101
000100
000100
000110
010000
010000
000000
000000
110011
111010
110011
110101
110101
111010
111010
111010
110111
110111
111010
111010
111010
111010
111011
111010
111010
111010
110011
110011
111010
111010
110101
111010
100101
001011
000011
001110
010000
000110
000000
000000
110111
110111
110111
110101
110011
110011
111010
110111
110111
111010
111010
110111
111010
111010
111010
111010
110111
110011
111010
111010
111010
111010
110101
110010
100000
010011
001111
001000
001111
001110
000000
000000
111010
111010
111010
110101
110100
111010
110100
110011
110011
111010
111010
111000
111010
111010
111010
111010
110011
111010
111100
111011
111010
111010
110101
110110
110010
100010
001010
000100
010000
010000
000000
000000
111011
111010
111011
110101
110011
110011
111010
110011
110011
111010
111010
111010
111010
110100
110100
111011
111010
110100
111010
111010
111010
111011
110101
110011
101101
001100
010101
001110
000101
000010
000000
000000
111010
111010
110101
111011
111010
110100
111111
111010
110100
111010
111010
111011
111011
111010
110011
111010
111010
110101
110101
110011
111010
111010
110101
111010
001001
001010
010101
010101
010000
000001
000000
000000
111010
111010
110101
111011
111010
111010
111010
111011
111011
110110
111010
111010
111011
111010
110011
111010
111010
111011
110101
110101
110110
110011
110101
111010
100110
011101
100111
100100
000001
000001
000000
000000
111011
111011
110101
111010
111010
111010
110100
111011
111010
110100
111110
111110
111010
111010
110011
101110
111010
111011
110101
110101
110011
111010
110101
111010
110000
011110
001001
100001
000110
000010
000000
000000
111111
111111
110101
111010
111010
111011
110110
111011
111010
111010
111111
111011
111010
111010
110100
110011
111010
111010
110101
110100
110101
111111
110101
110110
110000
100110
011011
010011
010001
001000
000000
000000
111100
111011
110101
111010
111011
111010
111010
111011
111111
111010
111010
111010
110011
110100
110100
111010
111010
110110
110011
110101
110101
110101
110101
110110
110000
001001
011110
010000
000110
010000
000000
000000
111011
110101
111011
111011
111010
111010
111010
111011
111111
111010
110100
110011
110011
110110
110011
111010
111010
110011
110011
110011
110101
110101
111010
111010
110110
011110
001010
010000
001100
000110
000000
000000
110110
110101
110110
111010
111010
111101
111010
111010
111011
111011
111010
110011
111010
111010
110100
110100
111010
111010
110011
110011
110011
110101
111011
111111
111010
101000
011110
011111
010000
001110
000000
000000
111010
110101
111010
111010
111010
111101
110100
110100
111010
111010
111010
111010
111010
111011
111010
110100
111010
111010
110011
110111
111010
111011
110101
111010
110011
100111
010010
011111
001110
010001
000000
000000
111010
110101
111010
111010
111010
111010
110110
111010
111010
110011
110110
111010
111100
111011
111011
111010
111010
111000
111010
110011
111010
111010
110101
110000
110110
001001
001100
010000
000110
000110
000000
000000
111010
110101
111010
111010
110011
110011
110100
110011
110011
110100
111010
111011
111100
111011
111010
111010
110011
111010
111010
111010
110011
110011
110011
110101
100110
101001
011010
001000
001110
001110
000000
000000
111011
110101
111011
111010
110011
110011
111010
111010
111010
110011
110011
111010
111011
111110
111010
111010
110100
110100
111010
111010
110111
111010
111010
111010
100110
010001
010000
000111
001111
010001
000000
000000
111011
110101
111011
110110
110011
110011
110100
111011
111010
110011
111010
111010
110011
110011
110100
111010
111010
111010
111010
111010
110111
110011
110011
111011
001001
000101
010001
011001
010110
001111
000000
000000
111010
111010
110101
110101
110101
110101
111010
111010
110011
110011
110011
110101
110101
111011
111010
110101
110101
110101
110101
110101
110101
111011
111010
110011
001100
001110
001111
010000
001111
000110
000000
000000
110011
111010
111010
110101
111010
110100
110011
110101
111010
110101
110101
110000
111010
111111
111010
110110
110110
111010
111010
111010
110011
110011
100110
101001
010101
001111
000101
001111
001111
000110
000000
000000
101110
110011
110011
110011
111010
111010
110011
110101
110101
110101
100110
110110
110011
111010
110110
110000
110000
110000
100110
001001
101101
001100
101001
001100
001100
001111
000110
011000
010000
000110
000000
000000
100101
101011
101111
101111
101111
101111
101011
100101
010011
010010
101001
001001
100111
101000
011110
001001
100110
011110
011101
001010
001100
010000
000110
010000
000101
010001
010001
000110
000110
010001
000000
000000
011000
011110
001001
100101
100001
001001
100000
001001
010010
100100
011010
001100
010010
011110
001010
011110
011011
001001
100111
010101
010101
001111
010000
001000
000010
011001
010001
000101
000110
010001
000000
000000
100010
001110
000110
100100
001110
011010
011000
001010
100001
011000
001000
010000
011111
011111
010000
010000
010011
100001
100100
010101
001110
010111
000110
000110
001000
011001
001110
001101
000010
010001
000000
000000
000110
010011
010001
010110
000110
010000
010001
010000
001110
001000
001110
000110
001110
010000
001100
000110
010001
000110
000001
010000
000101
010000
000110
010000
000110
000110
000001
000110
010000
000111
000000
000000
010000
000010
000101
001111
000101
000110
010000
000110
000110
000110
001110
000110
010001
001110
000110
010000
001000
000010
000001
000001
000010
000110
001111
010001
010000
000110
010000
000010
010000
000110
000000
000000
000000
000000
000000
000000
000000
000000
000000
000000
000000
000000
000000
000000
000000
000000
000000
000000
000000
000000
000000
000000
000000
000000
000000
000000
000000
000000
000000
000000
000000
000000
000000
000000
000000
000000
000000
000000
000000
000000
000000
000000
000000
000000
000000
000000
000000
000000
000000
000000
000000
000000
000000
000000
000000
000000
000000
000000
000000
000000
000000
000000
000000
000000
000000
000000
