001010000000
011010010001
010110010001
011010000001
010010000000
010010010000
010010000000
001110010000
011001110000
011010010001
010010000000
010010010000
010110100001
010110100001
010101110000
010110010001
011010000001
011010000000
010110100000
001010000000
001110000000
001110000000
001110000000
010110010000
010010010000
001110000000
001110000000
010110010001
010010010010
001110010000
010010000001
001110000001
010010000000
010101110000
010001100000
011010000001
011010010001
010110010001
011010000001
010010000000
001110010000
010010000000
001101100000
011001110000
011010010001
010010000000
010010010000
010010000000
010110100001
010010010000
010010000001
010010000000
001110000000
010010010001
001010000000
001110000000
001110000000
001110000000
001010000000
010010010000
001110000000
001110000000
010110010001
010010000001
010010000000
101001110001
101110000010
101110000010
101001110010
101101110010
101110000010
101001110001
101110000010
101110000011
101110000010
101001110001
101101110001
101110000010
101110000010
101110000001
101110000010
101110000011
101110000010
010010010000
010010010000
100010100011
100110110011
001101000011
001110000000
001110000000
001110000000
001110000000
001001110000
010010010000
010010000001
001110000000
010101100000
101110000010
101001110010
101110000010
101110000011
101001110010
101110000010
101001110010
101110000010
101110000010
101110000010
101110000010
101110000011
101110000010
101001110001
101110000011
101110000010
101010000010
101110000010
010010010000
001001110000
010010010000
010010010000
010010010000
010110010001
010110010001
001110000000
011110010011
100110110011
010001100011
001110000000
010010010000
010010010000
101110010011
101110000010
101110000010
101001110001
101110000010
101110000010
101101110001
101110000010
101001110001
101101110001
110010010011
101110000010
101001110010
101110000010
101110000010
101110000010
101110000010
101110000010
010010000001
010101110100
100010100011
100110110011
010001100100
001101000010
010010010001
001110000000
001110000000
010010010000
010010010000
010010010001
010010000001
010001100000
101001110001
101001110001
101110000010
101110000011
101110000010
101110000010
101001110001
101001110001
101110000010
101001110001
101110000010
101001110001
101101110001
110010010011
101001110001
101001110010
110010010011
101110000010
001110000000
010010010001
010010000001
010010000001
001110000000
001110000000
010010010000
010110000010
101011000011
100010100011
010101110100
001101010100
001001110000
001110000000
101110000010
101110000011
001110000000
010010010000
001110010000
010010000001
010010000001
010010000001
010110010001
010010010001
010010010000
010010010000
001110000000
010001110001
001110000000
011010000001
101110000010
101110000010
010010010000
011001110011
010101110011
100010100011
010001010010
010101110011
010010000001
010010000001
010010010001
001110010000
010010010000
010010000001
010010010000
010110010001
101010000010
101101110001
001010000000
001110000000
010010010001
001110000000
010010010000
001110000001
010010000001
001110000000
010010000001
010110010001
010010010001
010010010000
001110010000
011101100000
101110000011
101001110001
010010010000
010010000001
001110010000
010010010000
010010000001
010010010001
001001110000
011110010100
010101100011
100010100011
010001100011
010001100010
010110010001
010010000000
101110000010
101001110010
010010010000
010101000011
101010101001
001001110000
001110000000
001110000000
010010000001
010010010001
001010000000
010010010000
001110010000
010010010000
001110000000
001110010000
101110000010
101001110001
001110000001
010101110101
010101110010
011110010010
010001010010
001000110001
010010000001
001110000000
001110000000
010010000001
010010000001
010110010001
010010010000
010110100001
101001110001
101001110001
001110000000
010010010001
010010010000
010010010000
001010000000
100010110011
101011000011
010101110011
001110000000
010010000001
010010010001
001010000000
010010000001
011110010001
101110000010
100110000010
001110010000
010010000001
001010000000
001110000001
001110000000
010010010000
010010000001
001101010011
011010000010
100010100010
010101110100
001101000000
010010000001
010010010000
101010000001
101110000010
001110000000
101110111010
010101010100
001110000000
010010010001
001110000000
010010010000
010110010001
010110010001
001110000000
010010010000
001110000000
001110000000
010110000000
101010000001
101001110010
001110000000
010010010000
001001000000
011001010010
001001000000
001001000000
010010000001
010010010001
010010010001
010010010000
001010000000
001110000000
001110000000
010110000000
101110000010
101110000010
010010000001
001010000000
010010010000
001110000000
001010000000
100010100011
011110010010
010101110100
001000110010
010010010000
010110010001
010110010001
010010010000
010001100000
101110000010
110010010011
010110010010
010010010000
010010010000
001110000000
010010010000
010010010000
010010010000
001010000000
001001000000
010101000010
001001010000
001001000000
010010010000
001110000000
101110000010
101110000011
010010000001
001110000000
001110000000
001110000000
001110000000
010010000001
001110000000
001110010000
010110010001
010010010000
010010000001
001110000001
001110000000
011010000001
101110000010
101110000010
001110000000
010010010000
001110000000
001110000000
010010000000
001110000000
010010010000
001110000000
001110000000
010010010001
010010010000
001110000000
010010010000
010110010001
101010000010
101101110001
010010010000
010010100000
001110000000
010010000001
011110010100
011010000100
100110110011
001101010011
010001100010
001110000000
001110010000
010110010001
010010010001
011101100000
101110000011
101001110001
001101110001
010010000001
001110000000
001110000000
010010010000
001110000000
001110000000
001110000000
001110000000
010010010000
001110000000
001110000000
001110000000
010010000000
101110000010
101001110001
010010000001
010010010000
010010010000
010010000001
001101110001
010010010000
101011000011
100110110011
001110000000
001110010000
001101110000
001010000000
010010010000
011010000000
101110000010
101110000010
010110000001
010010010001
010010010000
010010000001
010010010000
010010010000
001001110000
001101110001
001110000000
010010010000
001110000000
001010000000
001110010000
010101100000
101110000010
101110000011
010110100000
010010010000
001110000000
010010000001
010101110100
100110110011
010101110011
010101110100
001000110001
010010010000
010010000001
001110000000
010010010000
010101110000
110010010011
101101110001
101010000010
101110000010
101110000010
101010000001
101110000010
101101110001
101110000011
101110000011
101110000010
101001110001
101110000010
101010000001
101001110001
001110000000
101010000001
101001110010
001110000000
010010000001
010010010000
001110000000
001110000000
101011010011
011110100011
010001100100
010101110011
001110010000
001110000000
001110000000
001110010000
011010000000
101110000011
101110000010
010010010000
001110000000
001110010000
010010010000
001110000000
010010010000
010010000001
001110000000
010010000001
001110000000
010010010001
010010000000
001110010000
010001010000
101110000010
101110000011
010010010000
010010010001
010010010001
001110000000
010010000001
001101000010
010001100100
000100100001
001001000000
001110000000
001110010000
001110000000
001110000000
011001100001
101001110001
101110000010
101110000010
101110000010
101001110001
101110000011
101110000011
101110000011
101110000011
101110000010
101110010011
101110000010
101110000010
101110000010
101110000010
001110000000
101110000010
101110000011
010010010000
001110010000
001110000000
010010010000
100110110011
100110110011
101011000011
010110000101
010001010010
010110010001
001110000000
001010000000
001010000000
011010000001
101110000010
101110000010
001010000000
001110010000
001110010000
001110000000
010010100000
001110000000
010010000001
001110000000
010010010001
010010000001
001110000000
010010000001
010110010001
010110010001
101010000010
101101110001
001110010000
001110000000
010010010000
010010010000
001110010000
001110010000
010010000000
010010100000
001110000000
001010000000
001010000000
010010010001
010010000001
001110000000
010010010000
010010000000
010110010001
010010010000
001110000000
010010000000
011001110000
010010000000
010010000000
011001110000
001101100000
010110010001
001110010000
010110000000
010010010000
010010010001
101110000010
101110000010
001110000000
010110100001
001110000000
010010000001
010001010011
101011000010
011110100011
100111000011
001101000010
001000110001
010010000001
101010101001
001110000000
010110010001
101110000001
101110000010
010010000001
010110000001
010010010000
001110000001
010010010001
001110000000
010010100000
001010000000
001110010000
100110110011
011001110100
001110000000
001110000000
011001110001
101101110001
101010000010
010010000001
010010010001
001110010000
001110000000
010110100001
010010010000
010010000001
110011001011
100110010111
010010010000
010010010001
010010010000
001110000000
010010000001
001110000000
001110000000
001101110000
010110000001
001010000000
010010000001
010110000001
001110010000
001110000001
010110100001
001110000000
010010100000
001000100001
000000010001
010010010000
010010010001
101010000001
101110000010
001110000000
010010010001
010010010000
001110000000
001110000000
001001000010
010001010010
001101000001
001000110001
010010010000
101110111010
101010101001
110010111011
010101110000
101110000010
101110000010
001110000000
001010000000
010010000000
010010010000
010010000001
010010010000
001110010000
001110000000
101011000011
011110010011
010001100011
010101110011
010010010000
011001010000
101110000010
101110000011
001010000000
010010000001
010010010000
001110000000
010010010001
010010000000
001110000000
100010000111
011001010100
001001010000
001110000000
010010010000
001110000000
010010010000
001110000000
001110010000
010010010001
001110000000
001010000000
001110000000
001010000000
010010010000
010010010000
010010010001
010010010000
001110010000
000000000000
000000000000
000100100010
010010010000
101110000010
101001110001
010010000001
010110000001
001110000001
001010000000
010010010001
010010010001
001101110000
001001010000
010010000001
010010000001
010110010000
001101000010
001101100000
010110100001
101110000010
101001110010
010110000001
001110000000
001110000000
010010010000
010110000001
001110000001
001110000001
101011010011
011110100100
101011000011
001101010001
001000110010
010010000001
011010010000
101110000010
101001110001
010010000001
010010010000
010010010000
010010000001
010110000001
001110000000
001010000000
010001010010
001101000001
010010010000
001110000000
010010000001
010110010001
010110010000
010110010001
010010010001
010110010001
010010000001
010010000001
010110000001
001110000000
010010010000
010010010000
010110000001
001110000001
001110000001
000000000000
000000000000
000000000000
001110000000
101110000010
101010000010
010010010001
010010000001
001110000000
001110000000
010010000001
010110010001
010010010000
010010010000
010010000001
001110000000
010010010001
010010010000
001110000000
010010000000
101110000011
101001110001
001110000000
010010000001
001110010000
010010010000
010010010000
001110000000
010010000000
010001100100
101011000011
010101110011
011010000011
001101000011
001001000001
011010000000
101001110010
101110000010
001110000000
001110000000
001010000000
010010010001
010010000001
001110010000
001110000000
010010010000
010010010000
010010010000
010010010000
010010000001
001001110000
010010010001
001010000000
001110000000
010010010001
101010101001
001110010000
001110000000
010010000001
001010000000
010010010000
010010000001
001110000000
010010000000
001110000000
001110000000
010010010000
010001110000
101001110001
101110000010
001110000000
010110010001
010010010001
001110000000
101010101001
011101100101
001001110000
000101110000
010010000001
001110000000
001010000000
010010010001
001110010000
010010010000
101001110001
110010010011
001110000000
001110000001
010010000001
001110000000
010010010000
010010010001
001110010000
001110000000
001101000010
011010010100
001101000010
001000110001
001001010000
010001100000
101110000010
101110000011
001110000000
010010010000
001110000001
001110000000
010110010001
010010000001
001110000000
010010010000
010010000001
001010000000
000101110000
010010000001
010010010000
001010000000
010010000001
001110010000
010010000001
101110111010
010001000011
001110000000
001110000001
001110000001
001110000000
010110010001
010010010001
001110010000
001110000000
010110000001
001010000000
010010010000
101001110001
101101110001
010010100000
010010010001
010010010000
001110010000
011001100101
011001010100
010001110001
001110000000
010010010001
010110100000
010010000001
001110000000
001110000000
010010000000
101110000010
101101110001
010010000001
001110000000
010010010000
010010010000
001110000000
010010010000
010010010000
001110000000
010010000001
001000110001
001101000001
001001010000
010110100000
001101010000
101110000010
101110000010
010110010001
001001110000
001110000000
010010100000
010010010001
010010010000
001110010000
001110000000
010010010001
010010010001
001110000000
010010010001
010010010000
010010000001
001110000000
001110000000
010010010000
010000110010
001101000001
010010000001
001110000000
001110000000
010010010000
010010010001
010010010000
010010010000
001110000000
010010000001
010010010001
010110000001
101110000010
101010000001
010110010001
010110000000
010001110000
011001100001
010010000001
010101100000
011101100000
001101010000
010001100000
010001010000
011010010000
011001010000
011001110001
011001100000
101110000010
101010000010
011001100001
010110000000
010110100001
010110010001
010001100000
010001110000
010001010000
010010000001
011001100001
011010000000
001101100000
011001100001
010001010000
011001110001
101110000010
101010000001
001101110000
001110000000
001010000000
010010010001
001110000001
010010010001
010010010000
010010000001
010010010000
010010010000
001110010000
001101110000
010010000001
010110100000
001101110000
001010000000
010010010001
001010000000
010010010000
001110000000
001110000000
001010000000
001110000000
001110000001
001110000000
001110000000
010010010000
001110000000
010010010000
010010000000
101110010011
101110000010
101110000010
101001110010
101101110010
101110000010
101001110001
101110000010
101110000011
101110000010
101001110001
101101110001
101110000010
101110000010
101110000001
101010000001
101110000010
101110000010
101010000001
101010000001
101110000010
101110000010
101110000010
101101110010
101110000010
101001110001
101110000010
101110000011
110010000010
101010000010
101101110001
101110000010
101110000010
101010000001
001110000000
010010010001
010110010001
001110000000
001110000000
001110000000
001010000000
001110000000
010110000011
100110110011
011010000011
001110000000
001001110000
010010010000
010010000001
010010010000
010010010000
001001110000
010010010000
010010010000
010010010000
010110010001
010110010001
001110000000
011110010011
100110110011
010001100011
001110000000
010010010000
001110000000
101010000001
101010000001
101101110001
101001110001
101110000010
101101110001
101101110001
101110000010
101101110001
101110000010
101110000011
101110000010
101001110001
101110000011
101010000010
101101110001
101001110001
101101110001
101101110001
101110000010
101001110001
101101110001
101001110001
101110000010
101101110001
101101110001
101110000010
101110000010
101001110001
101110000011
101110000010
101010000001
101110000011
101110000010
010010000001
001110000000
010010000000
010010010000
010010010000
001110000000
001010000000
011010010011
011110010011
010101110010
010101110010
001101010100
010010000001
010010010000
001110000000
001110000001
010010010000
001110000000
010010000001
001110000000
001110000000
010010000000
001110000000
100010110011
100010100100
011001110011
010101110011
001101010011
010010000001
010010010000
010010000001
010010000001
001110000001
001110010000
010010010000
010010010001
001110000000
001110000000
010010000001
010010010000
001110000000
010010010000
001110000000
010010000001
001010000000
010010000000
101110000010
101110000010
010010010000
010010000001
001110000000
001110000000
010010010000
010010010000
001110000000
001110000000
010010010000
001110000000
001110000000
001101110000
010010010000
001001110000
010010000001
001010000000
001110000000
010010000001
010010000001
001110000001
001110010000
001110000000
010010010001
010101110101
001101010100
100110110011
001101000010
010001010010
001101110000
001110000000
001101110000
001010000000
001001110000
001001110000
001110010000
010010010000
010010000001
010010000001
001110000000
010101110101
011010000100
100110110011
010101110010
010001010010
010010000001
001110000001
010010010001
100010110011
101011010011
001101000011
010010000001
001001110000
001110000000
001110000000
010010000001
101110111010
100010000111
010010010000
001110010000
010010010000
001110000000
001110010000
101110000010
101001110001
001110000001
001110000000
010110010010
010010000001
001110000000
010010000001
010010000001
001110000000
001110000000
010010000001
010010000001
010110010001
010010010000
001110010000
010010010000
010010010001
001110000000
010010010001
010010010000
010010010000
001010000000
010110010010
001001110000
010001010011
011110010011
100110110011
011010000011
001101000010
001101010000
001110010000
010110010001
001110000000
001110010000
010010000001
001010000000
001110000001
001110000000
010010010000
010010000001
001101010011
011010000010
100010100010
010101110100
001101000000
010010000001
001110000000
011010000101
100010100011
100110110011
010001100011
001101000010
010010010000
001110000000
001110000000
001110010000
100110011000
011101100101
010001000010
010110010001
001110000000
010010010000
010010000000
101001110010
101001110001
001110000000
001101110000
010010010001
010010010000
001110000000
010010010001
010010010001
001110000000
001101110000
010010010000
001110010000
010110010001
001110000000
001110000000
001110000000
001010000000
001010000000
001110000000
010010010000
010010010001
001001110000
010010010001
010010010000
001110000000
001001010000
010000110001
001001000000
001001000000
010010010000
010110010001
010110010001
010010010000
001110000000
001110010000
010010010000
001110000000
001101110000
010010010000
010010010000
001001110000
001001000000
010101000010
000101000000
000101000000
001110010000
001110000000
010101110010
011010000100
100010100100
010001100100
010001100010
001110000000
001110000000
010010000001
001110000000
001110010000
010110010001
010010010000
010010000001
001110000001
001110000000
011010000001
101110000010
101110000010
001110000000
010010010000
001110000000
001110000000
010010000000
001110000000
010010010000
001110000000
001110000000
010010010001
010010010000
001110000000
010010010000
001101110001
001110000001
010010010000
010010010000
010010100000
001110000000
010010000001
001110000000
001110000000
001110000000
010010000000
010010000001
001110000000
001110010000
010110010001
010010010001
010010000001
001110000000
001110000000
001101110001
010010000001
001110000000
001110000000
010010010000
001110000000
001110000000
001110000000
001110000000
010010010000
001110000000
001110000000
001110000000
010010000001
010101110011
011110010010
100010100010
001101000001
001000110001
010010000001
001110000000
010010010000
010010000001
010010000001
001110000000
010010010000
010010010001
001110010000
010010010000
010110010001
101001110010
101110000010
010010000001
001110000000
010010010001
010001110001
010010010000
010110010001
001110000000
001110000000
001010000000
101011000011
100010100011
001110000000
010010010000
010010010000
001110010000
010010010001
001110000001
010010100000
001110000000
010010010001
001010000000
010010010001
010010000001
101110000010
101110000011
101110000010
101110000010
101010000001
101010000010
101001110001
101010000001
101010000010
101110000010
101001110001
101101110001
101010000001
101110000010
101101110001
101110000011
101110000010
101110000010
101001110001
011001100110
011100110010
111110111100
010010010000
001110000000
000100100001
001100110001
001001000000
001001010000
010010010001
001110010000
001010000000
001110000000
010010010001
010110010001
010010010000
001110000000
001110000000
001110000000
011010010001
101110000011
101110000011
010010010000
010010010000
001110000000
001110000000
001110000000
010010010000
010010010001
001110010000
101011010011
011010000011
010001100011
010101110011
010010010000
010010010001
001110000000
001110000000
010110010001
001110000000
010010010000
001010000000
010010010000
001110000000
010010010001
101001110001
101110000011
101110000011
101110000010
101001110001
110010010011
101110000010
101110000010
101010000010
101110000011
110010000011
101110000010
101110000010
101110000011
101110000010
101110000010
101110000010
101110000010
101110000010
010001000100
101010010001
110111011100
001010000000
001110000000
010010010000
010010010000
001110010000
001110000000
010010010000
001110000000
001110000000
001010000000
001010000000
010010010001
010110010001
001110000000
001010000000
001010000000
011010000001
101110000010
101110000010
001010000000
001110010000
001110010000
001110000000
010010100000
001110000000
010010000001
100110110011
100111000011
100111000011
010101100100
010001010010
010110010001
001010000000
001010000000
001110000000
001110010000
001110000000
010010010000
010010010000
001110010000
001110010000
010010010000
101110000011
101010000001
011001100000
010110010001
011010010001
010101110000
010001100000
011010000000
010101110000
010110010001
010010010000
001110000000
010010000000
011001110000
010010000000
010010000000
011001110000
001101100000
010110010001
010001000100
011100110010
010001000100
010010000001
001110000000
010010010000
001110000000
010110010001
001010000000
010010000001
100010000110
101010101001
001010000000
010010010000
001110000000
101011000011
100010100011
010010010000
010010010001
010001100000
101101110001
101010000010
010010000001
010010000001
010010010001
100111000011
010001110010
001010000000
010010010000
010001010011
100110110011
011110010011
011110010100
001101000010
001000110001
010010000001
101110111010
010010000001
010010010000
001110000000
010010010000
001110000000
010110010001
010010010001
010010000001
101110000010
101001110010
011010010000
010010010000
001110000000
001110000000
010010000000
001110000000
010010010001
010010000001
001010000000
001010000000
010010000001
010010000001
010010010000
010010000000
010110010001
001010000000
010010010000
010001000100
001000010001
011001100110
001110000000
010010000001
010010010000
001110000000
010010010001
010010010000
001110000000
100110011000
011001010100
001001010000
001110000000
101011010010
011110010011
010101110010
011010000100
001110010000
010101110000
101110000010
101110000010
001110000000
001010000000
011001110100
011010000011
001101010011
010010010000
001110010000
001110000000
001101000010
001101000010
001101000001
000100100001
010010010000
100110010111
101010101001
101110111010
001010000000
010010000001
010010010000
001110000000
010010010001
010010000000
001110000000
110010010011
101110000010
011001010000
001110000000
010010010000
001110000000
010010010000
001110000000
001110010000
010010010001
001110000000
001010000000
001110000000
001010000000
010010010000
010010010000
010010010001
010010010000
001110010000
100010001000
111111111111
011001100110
001110000001
001110010000
010010010000
010010000001
010010000001
001110000000
001110000000
001110000000
001001010000
001110000000
100110110011
100010100010
101011000011
010001100010
001101000010
001101010001
010101110000
101110000010
101010000001
001110000001
011110010100
011010000100
100110110011
010101110101
010001010011
010010000001
001110000000
010010010001
010010010000
001001110000
010010000001
001110000000
001110000000
001001000000
001101110000
010010010001
001110010000
010010010000
010010000001
010010000001
001110000000
001110000000
101010000010
101110000010
011001110001
010010010000
001110000000
010010010000
010010000001
010010000001
001110000000
001110000000
010010010001
010010010001
001110000001
010010010000
010010010000
010010010000
010010000001
001110000000
010010000001
010101010101
010001000100
101110111011
010010010000
010110100000
001010000000
100110110011
010110010001
001110000000
001110000000
001110000000
001110000000
010010010000
010101110100
101011000011
101011010010
011110100011
010001100011
000100100001
010110100001
101101110001
101110000010
010010010000
100110110011
100111000011
010101110010
100010110011
001101000011
001110000000
001110000000
001110000000
001010000000
010010000001
101010101000
001110000000
001110000000
001110000000
010010000001
100010100011
010110100000
001010000000
001110000000
010110010001
001110000000
001110000000
101110000010
101110000011
010110000001
001110000000
010010100000
001010000000
010010000001
010010010000
001110000000
001110000000
100010000111
010010000001
010010010000
010110010001
001010000000
001110000000
010110010001
001110000000
100010110011
001110000000
001110000000
010010010000
001110000000
010010010000
100010100011
100010100011
001101000010
010010010001
001110000000
001110000000
010010000001
001010000000
000101110000
001001000010
011110010011
010101110100
001101000000
001001000000
010010010000
101001110001
110010010011
001110000000
001000110010
010001100011
010110000100
001101000001
000100100001
001110010000
001110000000
010110000001
010010010000
100001110110
101010101001
001101000001
001110000000
010110010010
011110010011
011110010100
010001100011
001110000001
001110000000
010110010001
010010000001
001110000000
101010000001
101001110001
011101110000
000101110000
010010000001
010010010000
001010000000
010010000001
001110010000
010010000001
101110111010
010001000011
001110000000
001110000001
001110000001
001110000000
010110010001
100110110011
011110100100
001101000010
010110000010
001010000000
010010010001
011010000100
100010100100
011110010100
010001100101
001101000010
010010010000
010010010001
010010010001
001110000000
001110000000
010010010001
001101010000
001001010000
001101110000
010110010001
001110000000
110010000010
101110000010
010010010001
001001110000
001110000000
011001010010
001001000000
001110000000
010010000000
010010010001
001110000000
010010010000
010001110001
100010000111
001001000001
010010000001
011001110011
011010000011
100010100011
010001100100
001101000011
010110010001
010010000001
001110000000
010010010000
101001110001
101110000010
010101100000
001110000000
010010010001
010010010000
010010010000
010010010010
010110010001
010010000001
001100110001
001001010001
010010010001
001001110000
010010010000
010010000001
100010100011
011010010101
100110110011
010001100011
001101000010
001110000000
001110000000
011110010011
100010100011
010001010010
011110010101
001101000010
010010010000
010010010000
010010010000
010010010000
001110010000
001101110000
001110000001
010110100000
010110010001
001010000000
011010010001
101110000011
101001110001
001110000000
001110000000
010010010001
001110000000
010010000001
001110000000
001110000000
010010010000
001110000000
010010000001
001010000000
001101110000
001110000001
010010000001
100010100011
011010000011
010001100011
011110100100
001101010010
010010010001
001110000001
010010010001
010010010000
101001110001
101110000010
011101100000
001110010000
001101110000
010010000001
010110100000
001101110000
001010000000
010010010001
001010000000
010010010000
001110000000
001110000000
001010000000
001110000000
010101110100
100111000011
010001010010
100010110011
010101110010
010010010000
010010010000
001101000010
010101100100
010001100011
001000110001
000100100001
010010010000
001110010000
001110000000
001110000000
001110000000
001110000000
001110000000
001010000000
010010000001
001110000000
011001110000
101110000010
101110000011
010010010000
010010010001
011110100011
100110110011
001001000011
010010000001
001001110000
001110010000
010010010000
001110010000
001110010000
001110000000
001110000000
001110000000
001101000011
011010000100
010101100011
001101000001
000100100001
001110000000
001110000000
010010010000
010010010000
101010000001
101110000010
010110000000
001110000000
001110000000
001110010000
001010000000
001110000000
001110000000
001110000000
010010010001
010010010000
010010010000
010010010001
010010010000
010010010000
001001000010
010101110100
100010100011
010001010010
001000110001
001110000000
001110000000
001110000000
001101000001
010001000010
001001010000
001110000000
001010000000
001110000000
010010000000
010010000001
010010010000
010010010001
010110010000
010010010000
001110000000
001110000001
001110010000
101001110001
101101110001
001110000000
011010000011
011110010100
100111000011
010001100011
001000110010
010110100000
001110000000
010010010001
010010000001
010010010000
001110000000
010110010000
010010010000
001110000000
011001010010
001000100001
000101000000
010010000000
010010010000
010010010000
001110000000
001010000000
101110000010
101110000010
010110100001
010010010000
010010010001
010010000001
010010010000
001110000000
001110000001
010010010000
001110000000
010010000001
001110000000
001110000000
010010000000
001110000000
010010010000
001110000000
100001100011
000101000000
001001010000
010010000001
010010010000
001001110000
001110010000
001110000000
001101110000
001110000000
010101110000
010010000001
010010000000
010110000001
010010010000
010001110000
010010010000
010010010000
010010010001
010010010001
010010000000
101110000011
101010000001
010010010000
010001010010
011110100101
011010000011
011010000101
010101110011
001110000000
001110000000
010010010000
001110000000
001110000000
001101110000
010010010000
001001110000
010010000001
001010000000
001110000000
010010000001
010010000001
001110000001
001110010000
001110000000
010010010001
101110000010
101110000011
010110010001
010010010000
001110000000
001110000000
001110000000
001101110000
001010000000
001001110000
001001110000
001110010000
010010010000
010010000001
010010000001
001110000000
001110010000
010010010000
001110000000
001110000000
010010010000
010010000001
001110000000
101110000010
101001110001
101110000010
101110000010
101110000010
101001110001
101110000010
101001110001
101110000010
101001110001
101001110001
101001110001
101110000010
101010000001
101110000010
101010000001
101110000011
101001110001
001110000000
010001010011
011110010011
011010000010
010001100010
000100010001
010110010001
001001110000
010010010001
001110000000
001110000000
010010010001
010010000000
001110000000
010010010000
001110010000
010010010000
001110000001
010110010001
010110010001
011001100101
101010101001
001110000000
101110000010
101110010011
010001100000
100110011000
011101100101
001110000000
010010010000
010010010001
001110000000
001110000000
001110000000
001110010000
001110000000
010010010000
010110010001
010110000001
001010000000
001010000000
010110010001
100001110110
010101010100
001110000000
001101110000
101110000010
101110000010
101110000011
101110000010
101001110001
101110000010
101110000010
101110000010
101001110010
101101110001
101110000010
101001110010
101001110001
101110000010
101110000010
101110000011
101110000011
101110000010
001110000000
001101110000
001001010000
011001010010
000101000000
001001000000
010010010001
001110000000
001101110000
010010010000
001110010000
010110010001
001110000000
001110000000
001110000000
001010000000
001010000000
001110000000
010010010000
010010010001
101110111010
010101010100
010010010000
101110000011
101110000010
010101100000
100110011000
011101100101
010101000011
010110010001
010110010001
010010010000
001110000000
001110010000
010010010000
001110000000
001101110000
010010010000
010010010000
001001110000
010010010001
010010010001
110011001011
010101010100
010001000011
001110000000
101110000010
101110000011
001110000000
010010010000
001110010000
010010000001
010010000001
010010000001
010110010001
010010010001
010010010000
010010010000
001110000000
010001110001
001110000000
001010000000
010010000001
001110010000
010010010000
010010000001
001110000001
001001110000
001110000000
001110000000
001101110000
010010000000
010010000000
001101110000
010010010000
010010010000
001110000000
001001110000
001110010000
001110000000
010010010000
001001110000
001110000000
010010010000
001010000000
010010000000
001010000000
101110000010
101110000010
011001100000
001110000000
001110000000
001101110000
001010000000
010010010000
010010010000
001001110000
001010000000
001110000000
001010000000
001001110000
001110000000
010010010000
001010000000
001110000000
010010010001
010010000001
010010010001
010110010001
001110010000
101110000010
101001110001
010010010001
001010000000
010110010001
010010000001
001110000000
010010010000
010010000001
010010000001
001110000000
010010010000
010010010001
001110010000
010010010000
001110000001
010010010001
100110110011
100111000011
001101110001
010010010001
010001110001
101110000010
101110000010
101110000011
101110000010
101001110001
101010000010
101001110001
101010000001
101110000010
101110000010
101010000001
101110000010
101110000011
101010000010
101101110001
101110000011
101110000010
101001110001
101110000010
101110000010
101110000011
101110000010
101110000010
101010000001
101010000010
101001110001
101010000001
101010000010
101110000010
101001110001
101101110001
101010000001
101110000010
101101110001
101110000011
101110000010
101110000010
010010000000
001110000000
001010000000
010010000001
001001110000
101010000001
101010000010
001010000000
010010010000
010010010000
010010010001
001110010000
001010000000
001110000000
010010010001
010110010001
010010010000
001110000000
001110000000
001110000000
010110010001
101011000011
100110110011
011010000010
010001100011
001110000000
001110000000
101001110001
101110000010
101010000001
101101110001
101001110001
110010010011
101110000010
101110000010
101110000010
101110000011
101110000011
101110000010
101010000001
101110000010
101110000010
101110000010
101110000010
101110000011
101110000010
101001110001
101110000011
101110000011
101110000010
101001110001
110010010011
101110000010
101110000010
101010000010
101110000011
110010000011
101110000010
101110000010
101110000011
101110000010
101110000010
101110000010
101110000010
010010010000
001110010000
010010000001
001110000000
010101110000
101010000001
101110000010
010010010000
001010000000
010010010000
010010010000
010010010000
010010010000
001101110000
001110010000
010110010001
010110010001
001110000000
001001110000
001010000000
010010010000
010101110011
100010100100
100010100100
010001010100
010001100010
001010000000
101010000001
101110000010
010010000000
010010000000
010010010000
001010000000
010010000000
001110000000
010110000000
010010010001
010010010001
010010010000
010010000000
010001110000
010010010000
010010000000
010010000000
010010000001
010010000000
101010000001
101110000011
010110010001
001110010000
001001110000
001010000000
010010010000
001110000000
001110000000
010010010001
001110000000
010010010000
010010000000
010010010000
010010010000
010010000000
101110000010
101010000001
010010000000
010010010000
001110000000
001101110000
010010010000
101110000010
101110000010
001110000000
010110010001
001010000000
010010000001
100010000110
101010101001
001010000000
010010010000
001110000000
101011000011
100010100011
010010010000
010010010001
010010010000
010101110100
100111000011
011110010010
010101110100
001000110001
010010000000
101110000010
101110000010
010110100001
001101110000
001110000000
001110000000
001110010000
001110000000
001010000000
010010000001
101110111010
010010000001
010010010000
001110000000
010010010000
001110000000
010110010001
010010010001
010010000001
101110000010
101001110010
011010010000
010010010000
001110000000
001110000000
010010000000
001110000000
010010010001
010010000001
001010000000
001010000000
010010000001
010010000001
010010010000
010010000000
101110000010
101110000010
010110100001
001101110000
001110000000
001010000000
001110000000
101010000001
101001110010
001110000000
010010000001
010010010000
001110000000
100110011000
011101100101
001001000001
001110010000
101111010011
100010100011
010001010011
011010000100
001110010000
010010010000
001110000000
001101000010
000100100001
000100100001
001001000000
010010010000
101110000010
110010000011
010010010000
001110000000
010010000001
001110000000
010010010001
010010000000
001110010000
110010111010
101110111010
101010101001
010010010000
010010010001
010010010001
001110000000
010010000001
001110010000
001110000000
101110000010
101110000010
011001100001
001110010000
001110000000
001110000000
001110000000
010010000000
001110010000
010010010000
001110000000
001010000000
010010010000
001110000000
010010010001
010010010000
101001110001
110010000011
010010010000
001110000000
010010000001
001110000000
001110000000
101110000010
101010000001
010010000001
010010000001
001110000000
001110000000
001110000000
001001010000
001110000000
100110110011
100010100010
101011000011
010001100010
001101000010
001101010001
010010010001
010010010001
010010010001
001101110001
010010010000
001110000000
010010010000
101010000010
101110000011
010110010001
001110000000
010010010001
010010010000
001101110000
010010000001
001110000000
001110000000
001001000000
001101110000
010010010001
001110010000
010010010000
010010000001
010010000001
001110000000
001110000000
101010000010
101110000010
011001110001
010010010000
001110000000
010010010000
010010000001
010010000001
001110000000
001110000000
010010010001
010010010001
001110000001
010010010000
010010010000
010010010000
101110000010
101110000011
010110010001
001110000000
010010010001
001110000000
010010010000
101001110001
101001110010
001110000000
010110010001
001110000000
001110000000
001110000000
001110000000
010010010000
010101110100
101011000011
101011010010
011110100011
010001100011
000100100001
010110010001
100010000111
010010000001
010010010000
010110010001
001110000000
001110000000
101110000010
101110000010
010001110000
001110000000
001110000000
001010000000
010010000001
010010010000
011010010010
011010010011
001110000000
001110000000
010110010001
010110100000
001010000000
001110000000
010110010001
001110000000
001110000000
101110000010
101110000011
010110000001
010010000001
100110010111
001010000000
010010000001
010010010000
001110000000
001110000000
001110000000
010010000001
011110100011
010110010001
001010000000
001110000000
101110000010
101110000010
010001110000
001110000000
001110000000
010010010000
001110000000
101001110001
101110000010
001110010000
010110010001
010010010001
001001110000
001110000000
010010000001
010010010000
001110000000
001101000010
011010000010
010101110011
001000110001
000101000000
001110000000
101010101001
011001100100
001110000000
001101110000
010110000001
001110010000
101010000001
101110000010
011010000000
001110000000
001110000001
010010010000
001010000000
100010100011
010101110100
011010000011
010101110011
010010010000
001110000000
001110000001
010010010001
001110010000
010110010001
010110000001
001001110000
101010000001
101001110001
010001010000
101010101001
100110011000
001001010000
001110010000
010010010001
001010000000
010010010000
011010100010
100110110011
100010100011
010101110011
010010010001
001110010000
101010000001
101110000010
011010000000
001110000000
001110000001
010010010000
010010010000
101110000010
101001110001
010110010001
010010000001
001110000000
010010010000
010010010001
010010010001
001110000000
001110000000
010010010001
001101010000
001001010000
001101110000
010110010001
010010000001
001100110001
001001010001
010010010001
001001110000
001110000000
010010000001
101001110001
101110000010
011010000000
010010010001
001110000000
010010010000
001110000000
100010100011
011110010011
010001100100
001101010100
001001000001
010010000001
001110000001
010010010000
010110010001
010010000001
001110000000
010010010000
101001110001
101110000010
010101100000
010101100011
011101110110
001101110000
010010010000
010010010010
010110010001
010010000001
011010000011
011010000100
100010110011
010001100100
001101000011
010010000001
101001110001
101110000010
011010000000
010010010001
001110000000
001110000000
001110000000
101110000010
101010000010
010010010001
010010000001
001110000000
001110000000
001110000000
010010010000
010010010000
010010010000
010010000001
001110000000
010010010001
010010010000
001110000000
001110000000
010010010000
001110010000
001110000000
010010000001
001110010000
010010010000
101110000010
110010010011
010101110000
001110000000
001110000000
001001110000
001101010011
100111000011
011110100100
010101110100
010001010011
000100100001
001110000000
001110000000
001010000000
010010010001
010010000001
001110010000
001110000000
101110000010
110010010011
011001100001
010010010000
010010000001
001001110000
010010010001
001010000000
001110000000
010010000001
100110110011
101011000010
010101100011
100010100100
001000110001
010010010000
101010000010
110010010011
010101110000
010010000001
010010000001
010010010000
010010010000
101001110001
101110000011
001110000000
001110000000
010010000001
010010010000
001110010000
001110000000
001110000000
001110000000
001110000000
001110000000
001010000000
010010000001
001110000000
001110000000
010010010001
010010010000
010010010000
010010010001
010010010000
010010010000
101010000001
101001110001
010110000000
001110010000
010010010000
001110010000
001110010000
001101000010
011110100011
010001100010
001101000000
000101000000
001110000000
010010100000
010010010000
001110000000
001110000000
010010010000
010010010000
101010000001
101110000010
010110000000
001110000000
001110000000
001110010000
001010000000
001110000000
001110000000
001110000000
001101000011
010001100011
010001100011
001000110001
000100100001
010010010000
101001110001
101001110001
010110000000
101110111010
010001000011
001110000000
010010010000
101001110001
101101110001
010010100000
010010010001
010010010000
001110010000
001110000000
010010010001
010010010001
001110000000
010010010001
010110100000
010010000001
001110000000
001110000000
010110010001
010010010000
010010000001
010010000001
001110000000
010010010000
010010010000
101110000010
101110000010
010110010001
001110000000
010010000001
010010010000
010010000001
001110000000
001101000000
001101000001
001001000000
001110000000
010110010001
001001110000
001110000000
010010100000
010010010001
010010010000
001110010000
101110000010
101110000010
011010010001
001110000000
010010010001
010010010000
010010000001
001110000000
001110000000
010010010000
010010010000
001101100001
001000110001
000101000000
001110000000
010010010000
101110000010
101110000010
010110010001
011001100101
011101110110
010001110001
010010010001
101001110001
101001110010
010010010001
001010000000
010010010000
010010010000
001110000000
001110000000
010010000001
001110000000
001110000000
001110000001
010110100000
010110000001
001110010000
010001110001
001110000000
010010010001
001010000000
001110000000
001110000000
001110000000
101001110001
101110000010
010110010001
001110000000
010110010001
010010010010
001110010000
010010000001
001110000001
010010000000
010110000001
001110000000
010001110001
010110010001
001110000000
010010010001
001010000000
001110000000
010010010000
101001110001
101110000010
011101110000
001110000000
001110000000
010010010010
010110100000
010010000001
001110010000
010010000000
001110000000
010010010001
001010000000
001110000000
001110000000
001110000000
101001110001
101110000010
010110010001
001110000000
010110010001
010010000001
001110000000
101110000010
101001110001
010110010001
001010000000
011110100011
101011000011
011010000011
001110000000
001110000000
010010000001
001010000000
010010000000
010010010000
010010010000
100111000011
100110110011
001110000001
001110010000
001110000000
010010010000
001110000000
010110000001
101110000010
101110000010
001101100000
001001110000
010010010001
001110000000
110011001011
011101110110
010010000001
001110000000
010010010000
001110010000
010010010000
001110000001
010110010001
010110010001
001010000000
001110000000
001110000000
101110000010
101110010011
010001100000
010010000001
001010000000
001110000000
010010010000
010010010001
001110000000
001110000000
001110000000
001110010000
001110000000
010010010000
010110010001
010110000001
101110000010
101110000010
001101100000
001001110000
010010010001
001110000000
010010010000
101110010011
101110000010
001110000000
010110000010
101011000011
100111000011
010101110100
001101010100
001001110000
001010000000
010010000001
010010000001
010110010001
011110010100
010001010011
100110110011
010001100011
010010000001
010010000001
001110000000
001110000001
010010010000
101110000010
101101110010
010010010000
001110000000
001110000000
010010010000
011001010100
100110000111
010001000010
001110000000
001110000000
001110000000
001110000000
010010010010
001110000000
001110000000
001110010000
001110000001
001110010000
101110000010
101110000010
010001110000
001010000000
010010000001
010010010000
010110010001
010010010001
010010010000
001110000000
010010010001
010010000001
010010000001
001110000000
001110000000
010010010000
101110000010
101101110010
010010010000
001110000000
001110000000
001001110000
001110000000
101110000010
101110000011
001110000000
011110010100
010101100011
100110110011
010001100011
010001100010
010110010001
010010010001
010010010000
010010010000
010001110010
011010010011
011110010100
011110100101
010001010011
010001010010
010010010000
010010000001
001110000001
001001110000
101110000011
101110000010
010010000000
010010000001
010010010001
001110010000
010010010000
010010000001
010010010000
010010010000
010001110001
001110000000
001010000000
001110000000
010010010001
001110000000
010010010000
001110000001
010010000001
101110000011
101110000011
011001100000
010010010001
010010010000
001110010000
001110000000
010010000001
001110000000
010010010000
010010000001
001110010000
010010010000
010010000001
010010010001
001001110000
101110000011
101110000010
010010000000
010010000001
010010010001
010110010001
010010000000
101110000010
101001110010
010010010000
001101010011
011010000010
100110110011
010101110100
001101000000
010010000001
010010010001
001010000000
010010010000
001110010000
010101100011
011110010011
001101010011
001000110010
000100010001
001110000001
001110000000
010110010010
010010000001
101001110001
101110000011
001110010000
001110000000
001110000000
010010000001
010010000001
010110010001
010010010000
001110010000
010010010000
010010010001
001110000000
011001100101
110011001011
010010010000
001010000000
010110010010
001001110000
101001110001
101110010011
010010000001
010010010001
001010000000
101011000011
100110110011
010110010001
001110000000
001110010000
010010000001
001010000000
001110000001
010101000011
110011001011
010010000001
101001110001
101110000011
001110010000
001110000000
001110000000
010010000001
010010010000
101010000001
101110000010
001110000000
001010000000
001001000000
011001010010
001001010000
000101000000
010010010000
010110010001
010110010001
001110000000
010010010000
001110000000
000100100001
001100110001
001001000000
001101110000
001110000000
010010010000
001110000000
010010010000
101110000010
101110000011
011001110000
010010010001
010010010001
010010010000
001010000000
001110000000
001110000000
010110010010
001110000000
001110010000
010101010011
010001000010
010101000011
001110000000
001010000000
001110000000
001110000000
101110000010
101110000011
011001100001
010110010001
100110110011
011010000011
011110010010
001101000011
001110000000
010110010010
010010010000
010010010000
001110000000
011001100100
010101000011
010010010000
101110000010
101110000011
011001110000
010010010001
010010010001
010010010000
010101110000
101010000001
101110000010
010010010000
001010000000
010010010000
010010010000
010010010000
010010010000
001101110000
001110010000
010110010001
010110010001
001110000000
001001110000
001010000000
010010010000
001001110000
001110010000
001110000000
010010010001
001010000000
001010000000
101010000001
101110000010
010010000000
010010010000
001110000000
010010000001
010010100000
001110000000
010110010001
001001110000
001001110000
010010010000
010010010000
001110000000
001110010000
010010010000
001010000000
001010000000
010010010000
101010000001
101110000011
010110010001
011110010100
100010110010
100110110011
011010000101
010001100010
001001000001
001001110000
001001110000
001110010000
001110000000
010010010001
001110010000
001010000000
101010000001
101110000010
010010000000
010010010000
001110000000
001101110000
010010000000
101110000010
101001110001
101110000011
101110000011
101110000010
101110000010
101110000010
101110000011
101001110001
101110000010
101010000001
101110000010
101001110001
110010010011
101110000010
101110000011
101110000010
101110000010
101010000001
101110000010
101001110001
101110000011
101001110001
101110010011
001101100000
001101110001
001110000000
101011000011
011110100011
001010000000
001110010000
010010010001
001010000000
001110010000
010110100000
010010010000
001110000000
010010000001
010010010000
010010010000
010010000001
101110000010
101001110001
001101100000
001101000010
011110010011
011010000011
011010000101
001101000010
000100100001
010010010001
001010000000
010010010001
010110000001
010010010001
001110000000
010010000001
101101110001
101110000010
001110000000
001101110001
001110000000
010010010000
001110000000
101101110010
101001110010
101110000011
101110000010
101110010011
101110000011
101110000010
101110000010
101110000010
101110000010
101001110001
101110000011
101110000010
101110000010
101001110001
101010000001
101110000010
101001110001
101110000011
101110000011
101110010011
101110000011
101110000010
101001110001
011001110000
001110000000
101111010010
011110010011
010001100011
010110000100
001110010000
010010010000
001110000000
010010010000
010010010000
010010010001
010010010001
001110000000
010010000001
001110010000
001110000000
101110000010
101110000010
011001100001
001110010000
000100110001
001101000010
001101000001
000100100001
001110000000
010010010000
001110000000
001010000000
010010010000
001110000000
010010010001
010010010000
101001110001
110010000011
010010010000
001110000000
010010000001
001110000000
001110000000
010010010000
010010000000
010010000000
011001110000
001101100000
010010000000
001110010000
010010000000
010010010000
010110010001
011010010001
010001110000
010001100000
010101110000
010101110000
010010000000
010010010000
001110000000
010010000000
011001110000
001110010000
010010000000
011010000000
011010010001
010001110001
100110110011
100111000011
100111000011
010101100100
010001010010
010110010001
001010000000
001010000000
001110000000
001110010000
001110000000
010010010000
010010010000
001110010000
001110010000
010010010000
101110000011
101010000001
011001100000
001010000000
010010010001
010010000001
001110000000
010010000001
001010000000
001010000000
001010000000
010010000000
001010000000
001110010000
010010010000
001110000000
101110000011
101010000001
010010000000
001110000000
010010010001
001010000000
010010000001
010010010001
001110010000
001110000000
010110100001
001110000000
010010000001
100010100111
100110010111
010010010000
010010010001
010010010000
001110000000
010010000001
010010010000
001110000000
010010000001
010110000001
001010000000
010010000001
010110000001
010010010000
001110000001
110011001011
101110111010
010010100000
010001010011
101011000011
100010110011
100010110011
001101000010
001000110001
001101110000
010010010000
001110000001
010010000001
010010010001
001110010000
001110000000
010110100001
010010010000
010010000001
101001110010
101001110010
101010000001
101110000010
101110000010
101110000010
101010000010
101010000010
101001110001
101010000010
101110000010
101110000010
101110000010
101110000010
101010000001
101001110001
101101110001
101001110001
010010000000
100010100111
100110011000
010010010000
001110000000
001110000001
010010010001
001110010000
010110010001
010010010001
001001110000
101010101001
011001010100
001101110000
001110000000
010010000001
001110010000
001110010000
010010000001
001010000000
001110000000
010010010000
001110000000
001110000000
001101110000
010110000001
001110010000
101010011000
010101010100
010010010000
001110000000
001101000010
010001010011
001001000010
001000110001
001001110000
010010010000
010010000001
010010010000
001110000000
001110000001
010010010001
001110010000
010110010001
010110000001
001001110000
101110000010
100101100001
101110000011
101110000011
101001110001
101001110001
101110000011
101001110010
101010000010
101110000010
101001110001
101001110010
101110000011
101001110001
101110000010
101110010011
101110000010
101001110001
010010010000
101010101001
011001100101
001101110000
010110000001
010010010000
010010010000
010010000001
010110000001
001110000001
001010000000
010001110010
001101000001
010010010000
001110000000
010010000001
010010000001
010110010000
010010010001
010010010001
010010000001
010010000001
010010000001
010110000001
001110000000
001110000000
010010010000
010001010010
001001000001
001110000001
010010010001
010010010001
010010000001
001001010000
010110010001
010010000001
010110010001
010010010001
001110000000
010010000001
010010010000
010010010000
010010000001
010110000001
001110000000
001010000000
001101110000
011001100001
100001100000
010101100000
011001100000
011001010000
011101100000
011001100001
100001100000
100001110000
010001010000
001101100000
010001010000
011110000001
010001100001
100001100000
010101100000
011001100000
001110000000
010001110010
010101000011
010010010000
