memory_initialization_radix=2;
memory_initialization_vector=
11001,
1001000,
1010100,
1101001,
1010100,
1101001,
1011101,
100000,
1001010,
100000,
1011111,
110011,
1101001,
101010,
1101001,
1011101,
1101010,
1010100,
1011101,
1010100,
10000,
1011100,
10111,
1101010,
11111,
1011110,
1111,
1010011,
1001001,
1010101,
0,
0,
100000,
111110,
100000,
100000,
10111,
10111,
10111,
1000,
10111,
1110,
100000,
1110,
10111,
1000,
1001101,
11101,
11111,
10111,
10111,
10111,
1110,
11001,
1000,
100000,
1000,
10111,
1110,
100000,
100000,
100000,
0,
0,
100000,
1101010,
1110,
101010,
101010,
101010,
110011,
110011,
110011,
110011,
101010,
101010,
101010,
110001,
1110111,
11011,
101000,
101010,
111110,
111110,
110011,
101010,
110011,
101010,
101010,
1100101,
1100100,
100110,
101010,
101010,
0,
0,
10111,
10111,
1000,
110011,
1000111,
111110,
111110,
111110,
111110,
1001000,
110011,
111110,
110101,
1011001,
1111000,
100011,
100100,
110011,
111111,
111110,
111110,
111110,
1001000,
110011,
1000110,
1110101,
1110111,
101101,
111110,
110011,
0,
0,
10111,
1110010,
1110,
110100,
111110,
1001000,
1101001,
100000,
1101001,
100000,
1110001,
1110,
1100100,
1110011,
1101100,
111000,
101101,
1011101,
1110001,
1101001,
1110,
1101001,
1110,
1111000,
1110110,
1101100,
1111000,
101101,
101101,
1000101,
0,
0,
10111,
100000,
1110,
1001000,
1001000,
1001000,
110011,
1110,
101010,
10111,
101010,
1110,
1101011,
1100010,
1100001,
1000010,
111000,
100101,
101010,
101010,
1110,
100000,
101010,
1110100,
1101100,
1100010,
1111000,
110110,
101101,
101101,
0,
0,
100000,
1111110,
1110,
111110,
1010010,
111110,
1101010,
10111,
111110,
1001000,
1010010,
110001,
1100000,
1100000,
1001100,
1000011,
111000,
100011,
11011,
1010010,
1001011,
1010010,
1110100,
1101101,
1101101,
1100000,
1111000,
110111,
110110,
101101,
0,
0,
10111,
1010010,
1110,
111110,
1010010,
1001010,
1001010,
10111,
100,
111110,
11100,
1011001,
1010110,
1010111,
1001101,
111000,
101101,
100011,
100010,
11100,
1011000,
1011001,
1010111,
1110101,
1110110,
1100011,
1111001,
101011,
100011,
110111,
0,
0,
10111,
1110001,
1110,
111110,
1001000,
1010010,
1010010,
100000,
100,
100000,
11101,
1011001,
1000001,
1010110,
1001101,
110110,
101110,
100011,
100011,
11100,
1010111,
1100010,
1100010,
1101101,
1110110,
1101101,
1111010,
100011,
1000010,
1001110,
0,
0,
11110,
1010100,
1110,
111110,
1010010,
111110,
1011100,
100000,
1000,
100000,
1010000,
1011,
1000000,
111000,
111001,
100011,
100011,
11010,
10,
110001,
1000010,
1000010,
1010111,
1001111,
1001110,
1100100,
1111000,
111000,
1000010,
1000010,
0,
0,
10111,
100000,
1110,
111110,
1001000,
1001000,
110011,
1110,
1110,
100000,
1010010,
1110000,
1010000,
10100,
1010,
101,
110,
110011,
100000,
1000,
1100100,
1101110,
1101100,
1001100,
1010111,
1101100,
1111000,
100011,
101011,
110110,
0,
0,
11111,
1010100,
1110,
111110,
1010010,
1001000,
1011101,
100000,
1000,
101010,
1010010,
1010001,
1111101,
1110000,
111101,
1000110,
111110,
10110,
1000,
1000,
1010111,
1101110,
1100010,
1001101,
1101100,
1100100,
1111001,
101011,
100011,
101101,
0,
0,
11001,
100000,
1110,
111110,
1001000,
1001000,
110011,
1110,
1110,
101010,
111110,
1101001,
1010010,
1010001,
101010,
10111,
10111,
1110,
110011,
1010000,
1001110,
1101100,
1001100,
1101100,
1101100,
1101110,
1111001,
101100,
100011,
100011,
0,
0,
100001,
1010100,
1110,
1001000,
1001000,
1010001,
1011100,
1110,
100,
101010,
100000,
101010,
1011011,
1011101,
1001000,
101001,
100000,
100,
1011101,
1000110,
1001101,
1100010,
1001100,
1101101,
1110101,
1101110,
1111001,
101011,
101101,
100010,
0,
0,
11111,
11111,
1110,
111110,
1010100,
111110,
101010,
10111,
100,
100,
1011100,
1011011,
1110,
101010,
10111,
1110,
1110,
1000,
1011101,
111110,
101011,
101101,
1010111,
1110110,
1100010,
1101110,
1111000,
101101,
100011,
100011,
0,
0,
11001,
1110001,
1110,
1001000,
1010010,
111110,
1010010,
10111,
10100,
10111,
1001000,
1010010,
1110,
1110,
1110,
10111,
10111,
1110,
1011100,
1000110,
1010001,
111101,
1110101,
1101100,
1101101,
1100100,
1110110,
101100,
101011,
100011,
0,
0,
11111,
100000,
1110,
111110,
1001000,
111110,
101010,
1001,
1110,
10100,
1011011,
1010010,
1000,
1000,
1110,
10100,
10111,
1110,
1010010,
11111,
10111,
10111,
1101100,
1101101,
1101100,
1101111,
1100100,
100011,
101011,
100011,
0,
0,
11001,
1110010,
1110,
111110,
1001010,
1001000,
1101010,
101010,
1110,
10111,
111110,
1010010,
1000,
1110,
11000,
1000100,
100111,
10111,
1011100,
1110,
1010001,
1001000,
1100100,
1101100,
1111100,
100000,
101010,
110000,
100011,
100011,
0,
0,
11001,
100000,
1110,
111110,
1001000,
1001000,
110011,
1110,
1110,
10100,
1010010,
1010010,
1000,
1100,
100000,
1111011,
1000100,
1110,
1100111,
1110,
1011101,
1011101,
1011001,
1111010,
1010000,
1010010,
1101000,
100000,
101101,
100011,
0,
0,
11001,
1110010,
1110,
110011,
1001000,
111110,
1101010,
101010,
1110,
10100,
101010,
1010010,
1110,
10111,
101010,
1011010,
111011,
10101,
1101000,
10100,
1101001,
1101001,
1100110,
1110,
10111,
110010,
110011,
101010,
10111,
101111,
0,
0,
100001,
1010100,
1110,
111110,
1010010,
1001000,
1011100,
1110,
1110,
10100,
10100,
110001,
10111,
10111,
1001101,
111101,
100000,
1110,
1010010,
101010,
11111,
100000,
1000,
1010010,
1000,
1010010,
100,
1110000,
1000,
110011,
0,
0,
11111,
1111110,
1110,
111110,
1001000,
111110,
1101010,
10111,
1110,
1110,
10100,
110011,
10111,
10111,
1101011,
111010,
100000,
1110,
1001000,
10111,
101010,
101000,
100000,
1101001,
1010010,
1101001,
1011101,
1110001,
1011101,
1011100,
0,
0,
11111,
1010010,
1110,
111110,
1010010,
1001010,
1001010,
10111,
1110,
1110,
10111,
110011,
10111,
1000011,
1111000,
100011,
11011,
1110,
101010,
111110,
1001000,
1110000,
111110,
1101001,
100,
1101001,
100,
1101001,
1,
1001000,
0,
0,
11111,
100000,
1110,
111110,
1010010,
1001000,
101010,
1110,
1110,
10100,
10100,
110011,
1011001,
1110011,
1101100,
1000000,
101101,
1101,
1000,
1000,
100,
1011101,
111110,
110011,
111101,
110011,
101010,
101010,
101010,
110010,
0,
0,
11111,
1010100,
1110,
111110,
1001000,
111110,
1011100,
100000,
1110,
1110,
10100,
110001,
1101100,
1100010,
1100001,
111000,
101101,
10010,
1000,
1000,
1,
1101001,
10111,
110011,
111101,
111110,
111101,
111110,
111100,
101010,
0,
0,
11111,
100000,
1110,
111110,
1010010,
111110,
110011,
1110,
1110,
1110,
10100,
101111,
1010110,
1100000,
1001101,
111000,
101101,
100011,
11011,
1110,
100,
110011,
111110,
100000,
101010,
110011,
110011,
110011,
111101,
1101001,
0,
0,
11111,
1010100,
1110,
111110,
1010010,
111110,
1011101,
11001,
1110,
1110,
10011,
1000011,
1001101,
1010111,
1000010,
101101,
100011,
100011,
11010,
101010,
100,
101000,
110011,
10110,
101010,
100000,
100000,
100000,
10111,
111101,
0,
0,
11001,
100000,
1110,
111110,
1010010,
1001000,
110011,
1110,
1110,
1110,
11101,
1000011,
111000,
1001101,
1000000,
101011,
100011,
100011,
100011,
11100,
11,
1110,
10111,
1000,
1000,
1101,
1110,
1000,
1000,
101010,
0,
0,
11111,
1111110,
1110,
1001000,
1001000,
1001000,
1101001,
10111,
1110,
1110,
1010000,
1011,
1001101,
100100,
100100,
100011,
100011,
11010,
10,
110001,
1110,
1110,
1000,
100000,
100000,
1000,
10111,
100000,
1110,
1110,
0,
0,
11111,
11111,
1110,
111110,
1010010,
1001000,
101010,
10111,
1110,
1110,
1111101,
111110,
1101011,
101101,
100011,
11011,
10001,
111,
101010,
10111,
100,
100,
1110,
10111,
100000,
100000,
101000,
101000,
101010,
101001,
0,
0,
0,
0,
0,
0,
0,
0,
0,
0,
0,
0,
0,
0,
0,
0,
0,
0,
0,
0,
0,
0,
0,
0,
0,
0,
0,
0,
0,
0,
0,
0,
0,
0,
0,
0,
0,
0,
0,
0,
0,
0,
0,
0,
0,
0,
0,
0,
0,
0,
0,
0,
0,
0,
0,
0,
0,
0,
0,
0,
0,
0,
0,
0,
0,
0;
