memory_initialization_radix=16;
memory_initialization_vector=
FFF,
FFF,
FFF,
FFF,
FFF,
FFF,
FFF,
FFF,
FFF,
FFF,
FFF,
FFF,
FFF,
FFF,
FFF,
FFF,
FFF,
FFF,
FFF,
FFF,
FFF,
FFF,
FFF,
FFF,
FFF,
FFF,
FFF,
FFF,
FFF,
FFF,
FFF,
FFF,
FFF,
FFF,
FFF,
FFF,
FFF,
FFF,
FFF,
FFF,
FFF,
FFF,
FFF,
FFF,
FFF,
FFF,
FFF,
FFF,
FFF,
FFF,
FFF,
FFF,
FFF,
FFF,
FFF,
FFF,
FFF,
FFF,
FFF,
FFF,
FFF,
FFF,
FFF,
FFF,
FFF,
FFF,
FFF,
FFF,
FFF,
FFF,
FFF,
FFF,
FFF,
FFF,
FFF,
FFF,
FFF,
FFF,
FFF,
FFF,
FFF,
FFF,
FFF,
FFF,
FFF,
FFF,
FFF,
FFF,
FFF,
FFF,
FFF,
FFF,
FFF,
FFF,
FFF,
FFF,
FFF,
FFF,
FFF,
FFF,
FFF,
FFF,
FFF,
FFF,
FFF,
FFF,
FFF,
FFF,
FFF,
FFF,
FFF,
FFF,
FFF,
FFF,
FFF,
FFF,
FFF,
FFF,
FFF,
FFF,
FFF,
FFF,
FFF,
FFF,
FFF,
FFF,
FFF,
FFF,
FFF,
FFF,
FFF,
FFF,
FFF,
FFF,
FFF,
FFF,
FFF,
FFF,
FFF,
FFF,
FFF,
FFF,
FFF,
FFF,
FFF,
FFF,
FFF,
FFF,
FFF,
FFF,
FFF,
FFF,
FFF,
FFF,
FFF,
FFF,
FFF,
FFF,
FFF,
FFF,
FFF,
FFF,
FFF,
FFF,
FFF,
FFF,
FFF,
FFF,
FFF,
FFF,
FFF,
FFF,
FFF,
FFF,
FFF,
FFF,
FFF,
FFF,
FFF,
FFF,
FFF,
FFF,
FFF,
FFF,
FFF,
FFF,
FFF,
FFF,
FFF,
FFF,
FFF,
FFF,
FFF,
FFF,
FFF,
FFF,
FFF,
FFF,
FFF,
FFF,
FFF,
FFF,
FFF,
FFF,
FFF,
FFF,
FFF,
FFF,
FFF,
FFF,
FFF,
FFF,
FFF,
FFF,
FFF,
FFF,
FFF,
FFF,
FFF,
FFF,
FFF,
FFF,
FFF,
FFF,
FFF,
FFF,
FFF,
FFF,
FFF,
FFF,
FFF,
FFF,
FFF,
FFF,
FFF,
FFF,
FFF,
FFF,
FFF,
FFF,
FFF,
FFF,
FFF,
FFF,
FFF,
FFF,
FFF,
FFF,
FFF,
FFF,
FFF,
FFF,
FFF,
FFF,
FFF,
FFF,
FFF,
FFF,
FFF,
FFF,
FFF,
FFF,
FFF,
FFF,
FFF,
FFF,
FFF,
FFF,
FFF,
FFF,
FFF,
FFF,
FFF,
FFF,
FFF,
FFF,
FFF,
FFF,
FFF,
FFF,
FFF,
FFF,
FFF,
FFF,
FFF,
FFF,
FFF,
FFF,
FFF,
FFF,
FFF,
FFF,
FFF,
FFF,
FFF,
FFF,
FFF,
FFF,
FFF,
FFF,
FFF,
FFF,
FFF,
FFF,
FFF,
FFF,
FFF,
FFF,
FFF,
FFF,
FFF,
FFF,
FFF,
FFF,
FFF,
FFF,
FFF,
FFF,
FFF,
FFF,
FFF,
FFF,
FFF,
FFF,
FFF,
FFF,
FFF,
FFF,
FFF,
FFF,
FFF,
FFF,
FFF,
FFF,
FFF,
FFF,
FFF,
FFF,
FFF,
FFF,
FFF,
FFF,
FFF,
FFF,
FFF,
FFF,
FFF,
FFF,
FFF,
FFF,
FFF,
FFF,
FFF,
FFF,
FFF,
FFF,
FFF,
FFF,
FFF,
FFF,
FFF,
FFF,
FFF,
FFF,
FFF,
FFF,
FFF,
FFF,
FFF,
FFF,
FFF,
FFF,
FFF,
FFF,
FFF,
FFF,
FFF,
FFF,
FFF,
FFF,
FFF,
FFF,
FFF,
FFF,
FFF,
FFF,
FFF,
FFF,
FFF,
FFF,
FFF,
FFF,
FFF,
FFF,
FFF,
FFF,
FFF,
FFF,
FFF,
FFF,
FFF,
FFF,
FFF,
FFF,
FFF,
FFF,
FFF,
FFF,
FFF,
FFF,
FFF,
FFF,
FFF,
FFF,
FFF,
FFF,
FFF,
FFF,
FFF,
FFF,
FFF,
FFF,
FFF,
FFF,
FFF,
FFF,
FFF,
FFF,
FFF,
FFF,
FFF,
FFF,
FFF,
FFF,
FFF,
FFF,
FFF,
FFF,
FFF,
FFF,
FFF,
FFF,
FFF,
FFF,
FFF,
FFF,
FFF,
FFF,
FFF,
FFF,
FFF,
FFF,
FFF,
FFF,
FFF,
FFF,
FFF,
FFF,
FFF,
FFF,
FFF,
FFF,
FFF,
FFF,
FFF,
FFF,
FFF,
FFF,
FFF,
FFF,
FFF,
FFF,
FFF,
FFF,
FFF,
FFF,
FFF,
FFF,
FFF,
FFF,
FFF,
FFF,
FFF,
FFF,
FFF,
FFF,
FFF,
FFF,
FFF,
FFF,
FFF,
FFF,
FFF,
FFF,
FFF,
FFF,
FFF,
FFF,
FFF,
FFF,
FFF,
FFF,
FFF,
FFF,
FFF,
FFF,
FFF,
FFF,
FFF,
FFF,
FFF,
FFF,
FFF,
FFF,
FFF,
FFF,
FFF,
FFF,
FFF,
FFF,
FFF,
FFF,
FFF,
FFF,
FFF,
FFF,
FFF,
FFF,
FFF,
FFF,
FFF,
FFF,
FFF,
FFF,
FFF,
FFF,
FFF,
FFF,
FFF,
FFF,
FFF,
FFF,
FFF,
FFF,
FFF,
FFF,
FFF,
FFF,
FFF,
FFF,
FFF,
FFF,
FFF,
FFF,
FFF,
FFF,
FFF,
FFF,
FFF,
FFF,
FFF,
FFF,
FFF,
FFF,
FFF,
FFF,
FFF,
FFF,
FFF,
FFF,
FFF,
FFF,
FFF,
FFF,
FFF,
FFF,
FFF,
FFF,
FFF,
FFF,
FFF,
FFF,
FFF,
FFF,
FFF,
FFF,
FFF,
FFF,
FFF,
FFF,
FFF,
FFF,
FFF,
FFF,
FFF,
FFF,
FFF,
FFF,
FFF,
FFF,
FFF,
FFF,
FFF,
FFF,
FFF,
FFF,
FFF,
FFF,
FFF,
FFF,
FFF,
FFF,
FFF,
FFF,
FFF,
FFF,
FFF,
FFF,
FFF,
FFF,
FFF,
FFF,
FFF,
FFF,
FFF,
FFF,
FFF,
FFF,
FFF,
FFF,
FFF,
FFF,
FFF,
FFF,
FFF,
FFF,
FFF,
FFF,
FFF,
FFF,
FFF,
FFF,
FFF,
FFF,
FFF,
FFF,
FFF,
FFF,
FFF,
FFF,
FFF,
FFF,
FFF,
FFF,
FFF,
FFF,
FFF,
FFF,
FFF,
FFF,
FFF,
FFF,
FFF,
FFF,
FFF,
FFF,
FFF,
FFF,
FFF,
FFF,
FFF,
FFF,
FFF,
FFF,
FFF,
FFF,
FFF,
FFF,
FFF,
FFF,
FFF,
FFF,
FFF,
FFF,
FFF,
FFF,
FFF,
FFF,
FFF,
FFF,
FFF,
FFF,
FFF,
FFF,
FFF,
FFF,
FFF,
FFF,
FFF,
FFF,
FFF,
FFF,
FFF,
FFF,
FFF,
FFF,
FFF,
FFF,
FFF,
FFF,
FFF,
FFF,
FFF,
FFF,
FFF,
FFF,
FFF,
FFF,
FFF,
FFF,
FFF,
FFF,
FFF,
FFF,
FFF,
FFF,
FFF,
FFF,
FFF,
FFF,
FFF,
FFF,
FFF,
FFF,
FFF,
FFF,
FFF,
FFF,
FFF,
FFF,
FFF,
FFF,
FFF,
FFF,
FFF,
FFF,
FFF,
FFF,
FFF,
FFF,
FFF,
FFF,
FFF,
FFF,
FFF,
FFF,
FFF,
FFF,
FFF,
FFF,
FFF,
FFF,
FFF,
FFF,
FFF,
FFF,
FFF,
FFF,
FFF,
FFF,
FFF,
FFF,
FFF,
FFF,
FFF,
FFF,
FFF,
FFF,
FFF,
FFF,
FFF,
FFF,
FFF,
FFF,
FFF,
FFF,
FFF,
FFF,
FFF,
FFF,
FFF,
FFF,
FFF,
FFF,
FFF,
FFF,
FFF,
FFF,
FFF,
FFF,
FFF,
FFF,
FFF,
FFF,
FFF,
FFF,
FFF,
FFF,
FFF,
FFF,
FFF,
FFF,
FFF,
FFF,
FFF,
FFF,
FFF,
FFF,
FFF,
FFF,
FFF,
FFF,
FFF,
FFF,
FFF,
FFF,
FFF,
FFF,
FFF,
FFF,
FFF,
FFF,
FFF,
FFF,
FFF,
FFF,
FFF,
FFF,
FFF,
FFF,
FFF,
FFF,
FFF,
FFF,
FFF,
FFF,
FFF,
FFF,
FFF,
FFF,
FFF,
FFF,
FFF,
FFF,
FFF,
FFF,
FFF,
FFF,
FFF,
FFF,
FFF,
FFF,
FFF,
FFF,
FFF,
FFF,
FFF,
FFF,
FFF,
FFF,
FFF,
FFF,
FFF,
FFF,
FFF,
FFF,
FFF,
FFF,
FFF,
FFF,
FFF,
FFF,
FFF,
FFF,
FFF,
FFF,
FFF,
FFF,
FFF,
FFF,
FFF,
FFF,
FFF,
FFF,
FFF,
FFF,
FFF,
FFF,
FFF,
FFF,
FFF,
FFF,
FFF,
FFF,
FFF,
FFF,
FFF,
FFF,
FFF,
FFF,
FFF,
FFF,
FFF,
FFF,
FFF,
FFF,
FFF,
FFF,
FFF,
FFF,
FFF,
FFF,
FFF,
FFF,
FFF,
FFF,
FFF,
FFF,
FFF,
FFF,
FFF,
FFF,
FFF,
FFF,
FFF,
FFF,
FFF,
FFF,
FFF,
FFF,
FFF,
FFF,
FFF,
FFF,
FFF,
FFF,
FFF,
FFF,
FFF,
FFF,
FFF,
FFF,
FFF,
FFF,
FFF,
FFF,
FFF,
FFF,
FFF,
FFF,
FFF,
FFF,
FFF,
FFF,
FFF,
FFF,
FFF,
FFF,
FFF,
FFF,
FFF,
FFF,
FFF,
FFF,
FFF,
FFF,
FFF,
FFF,
FFF,
FFF,
FFF,
FFF,
FFF,
FFF,
FFF,
FFF,
FFF,
FFF,
FFF,
FFF,
FFF,
FFF,
FFF,
FFF,
FFF,
FFF,
FFF,
FFF,
FFF,
FFF,
FFF,
FFF,
FFF,
FFF,
FFF,
FFF,
FFF,
FFF,
FFF,
FFF,
FFF,
FFF,
FFF,
FFF,
FFF,
FFF,
FFF,
FFF,
FFF,
FFF,
FFF,
FFF,
FFF,
FFF,
FFF,
FFF,
FFF,
FFF,
FFF,
FFF,
FFF,
FFF,
FFF,
FFF,
FFF,
FFF,
FFF,
FFF,
FFF,
FFF,
FFF,
FFF,
FFF,
FFF,
FFF,
FFF,
FFF,
FFF,
FFF,
FFF,
FFF,
FFF,
FFF,
FFF,
FFF,
FFF,
FFF,
FFF,
FFF,
FFF,
FFF,
FFF,
FFF,
FFF,
FFF,
FFF,
FFF,
FFF,
FFF,
FFF,
FFF,
FFF,
FFF,
FFF,
FFF,
FFF,
FFF,
FFF,
FFF,
FFF,
FFF,
FFF,
FFF,
FFF,
FFF,
FFF,
FFF,
FFF,
FFF,
FFF,
FFF,
FFF,
FFF,
FFF,
FFF,
FFF,
FFF,
FFF,
FFF,
FFF,
FFF,
FFF,
FFF,
FFF,
FFF,
FFF,
FFF,
FFF,
FFF,
FFF,
FFF,
FFF,
FFF,
FFF,
FFF,
FFF,
FFF,
FFF,
FFF,
FFF,
FFF,
FFF,
FFF,
FFF,
FFF,
FFF,
FFF,
FFF,
FFF,
FFF,
FFF,
FFF,
FFF,
FFF,
FFF,
FFF,
FFF,
FFF,
FFF,
FFF,
FFF,
FFF,
FFF,
FFF,
FFF,
FFF,
FFF,
FFF,
FFF,
FFF,
FFF,
FFF,
FFF,
FFF,
FFF,
FFF,
FFF,
FFF,
FFF,
FFF,
FFF,
FFF,
FFF,
FFF,
FFF,
FFF,
FFF,
FFF,
FFF,
FFF,
FFF,
FFF,
FFF,
FFF,
FFF,
FFF,
FFF,
FFF,
FFF,
FFF,
FFF,
FFF,
FFF,
FFF,
FFF,
FFF,
FFF,
FFF,
FFF,
FFF,
FFF,
FFF,
FFF,
FFF,
FFF,
FFF,
FFF,
FFF,
FFF,
FFF,
FFF,
FFF,
FFF,
FFF,
FFF,
FFF,
FFF,
FFF,
FFF,
FFF,
FFF,
FFF,
FFF,
FFF,
FFF,
FFF,
FFF,
FFF,
FFF,
FFF,
FFF,
FFF,
FFF,
FFF,
FFF,
FFF,
FFF,
FFF,
FFF,
FFF,
FFF,
FFF,
FFF,
FFF,
FFF,
FFF,
FFF,
FFF,
FFF,
FFF,
FFF,
FFF,
FFF,
FFF,
FFF,
FFF,
FFF,
FFF,
FFF,
FFF,
FFF,
FFF,
FFF,
FFF,
FFF,
FFF,
FFF,
FFF,
FFF,
FFF,
FFF,
FFF,
FFF,
FFF,
FFF,
FFF,
FFF,
FFF,
FFF,
FFF,
FFF,
FFF,
FFF,
FFF,
FFF,
FFF,
FFF,
FFF,
FFF,
FFF,
FFF,
FFF,
FFF,
FFF,
FFF,
FFF,
FFF,
FFF,
FFF,
FFF,
FFF,
FFF,
FFF,
FFF,
FFF,
FFF,
FFF,
FFF,
FFF,
FFF,
FFF,
FFF,
FFF,
FFF,
FFF,
FFF,
FFF,
FFF,
FFF,
FFF,
FFF,
FFF,
FFF,
FFF,
FFF,
FFF,
FFF,
FFF,
FFF,
FFF,
FFF,
FFF,
FFF,
FFF,
FFF,
FFF,
FFF,
FFF,
FFF,
FFF,
FFF,
FFF,
FFF,
FFF,
FFF,
FFF,
FFF,
FFF,
FFF,
FFF,
FFF,
FFF,
FFF,
FFF,
FFF,
FFF,
FFF,
FFF,
FFF,
FFF,
FFF,
FFF,
FFF,
FFF,
FFF,
FFF,
FFF,
FFF,
FFF,
FFF,
FFF,
FFF,
FFF,
FFF,
FFF,
FFF,
FFF,
FFF,
FFF,
FFF,
FFF,
FFF,
FFF,
FFF,
FFF,
FFF,
FFF,
FFF,
FFF,
FFF,
FFF,
FFF,
FFF,
FFF,
FFF,
FFF,
FFF,
FFF,
FFF,
FFF,
FFF,
FFF,
FFF,
FFF,
FFF,
FFF,
FFF,
FFF,
FFF,
FFF,
FFF,
FFF,
FFF,
FFF,
FFF,
FFF,
FFF,
FFF,
FFF,
FFF,
FFF,
FFF,
FFF,
FFF,
FFF,
FFF,
FFF,
FFF,
FFF,
FFF,
FFF,
FFF,
FFF,
FFF,
FFF,
FFF,
FFF,
FFF,
FFF,
FFF,
FFF,
FFF,
FFF,
FFF,
FFF,
FFF,
FFF,
FFF,
FFF,
FFF,
FFF,
FFF,
FFF,
FFF,
FFF,
FFF,
FFF,
FFF,
FFF,
FFF,
FFF,
FFF,
FFF,
FFF,
FFF,
FFF,
FFF,
FFF,
FFF,
FFF,
FFF,
FFF,
FFF,
FFF,
FFF,
FFF,
FFF,
FFF,
FFF,
FFF,
FFF,
FFF,
FFF,
FFF,
FFF,
FFF,
FFF,
FFF,
FFF,
FFF,
FFF,
FFF,
FFF,
FFF,
FFF,
FFF,
FFF,
FFF,
FFF,
FFF,
FFF,
FFF,
FFF,
FFF,
FFF,
FFF,
FFF,
FFF,
FFF,
FFF,
FFF,
FFF,
FFF,
FFF,
FFF,
FFF,
FFF,
FFF,
FFF,
FFF,
FFF,
FFF,
FFF,
FFF,
FFF,
FFF,
FFF,
FFF,
FFF,
FFF,
FFF,
FFF,
FFF,
FFF,
FFF,
FFF,
FFF,
FFF,
FFF,
FFF,
FFF,
FFF,
FFF,
FFF,
FFF,
FFF,
FFF,
FFF,
FFF,
FFF,
FFF,
FFF,
FFF,
FFF,
FFF,
FFF,
FFF,
FFF,
FFF,
FFF,
FFF,
FFF,
FFF,
FFF,
FFF,
FFF,
FFF,
FFF,
FFF,
FFF,
FFF,
FFF,
FFF,
FFF,
FFF,
FFF,
FFF,
FFF,
FFF,
FFF,
FFF,
FFF,
FFF,
FFF,
FFF,
FFF,
FFF,
FFF,
FFF,
FFF,
FFF,
FFF,
FFF,
FFF,
FFF,
FFF,
FFF,
FFF,
FFF,
FFF,
FFF,
FFF,
FFF,
FFF,
FFF,
FFF,
FFF,
FFF,
FFF,
FFF,
FFF,
FFF,
FFF,
FFF,
FFF,
FFF,
FFF,
FFF,
FFF,
FFF,
FFF,
FFF,
FFF,
FFF,
FFF,
FFF,
FFF,
FFF,
FFF,
FFF,
FFF,
FFF,
FFF,
FFF,
FFF,
FFF,
FFF,
FFF,
FFF,
FFF,
FFF,
FFF,
FFF,
FFF,
FFF,
FFF,
FFF,
FFF,
FFF,
FFF,
FFF,
FFF,
FFF,
FFF,
FFF,
FFF,
FFF,
FFF,
FFF,
FFF,
FFF,
FFF,
FFF,
FFF,
FFF,
FFF,
FFF,
FFF,
FFF,
FFF,
FFF,
FFF,
FFF,
FFF,
FFF,
FFF,
FFF,
FFF,
FFF,
FFF,
FFF,
FFF,
FFF,
FFF,
FFF,
FFF,
FFF,
FFF,
FFF,
FFF,
FFF,
FFF,
FFF,
FFF,
FFF,
FFF,
FFF,
FFF,
FFF,
FFF,
FFF,
FFF,
FFF,
FFF,
FFF,
FFF,
FFF,
FFF,
FFF,
FFF,
FFF,
FFF,
FFF,
FFF,
FFF,
FFF,
FFF,
FFF,
FFF,
FFF,
FFF,
FFF,
FFF,
FFF,
FFF,
FFF,
FFF,
FFF,
FFF,
FFF,
FFF,
FFF,
FFF,
FFF,
FFF,
FFF,
FFF,
FFF,
FFF,
FFF,
FFF,
FFF,
FFF,
FFF,
FFF,
FFF,
FFF,
FFF,
FFF,
FFF,
FFF,
FFF,
FFF,
FFF,
FFF,
FFF,
FFF,
FFF,
FFF,
FFF,
FFF,
FFF,
FFF,
FFF,
FFF,
FFF,
FFF,
FFF,
FFF,
FFF,
FFF,
FFF,
FFF,
FFF,
FFF,
FFF,
FFF,
FFF,
FFF,
FFF,
FFF,
FFF,
FFF,
FFF,
FFF,
FFF,
FFF,
FFF,
FFF,
FFF,
FFF,
FFF,
FFF,
FFF,
FFF,
FFF,
FFF,
FFF,
FFF,
FFF,
FFF,
FFF,
FFF,
FFF,
FFF,
FFF,
FFF,
FFF,
FFF,
FFF,
FFF,
FFF,
FFF,
FFF,
FFF,
FFF,
FFF,
FFF,
FFF,
FFF,
FFF,
FFF,
FFF,
FFF,
FFF,
FFF,
FFF,
FFF,
FFF,
FFF,
FFF,
FFF,
FFF,
FFF,
FFF,
FFF,
FFF,
FFF,
FFF,
FFF,
FFF,
FFF,
FFF,
FFF,
FFF,
FFF,
FFF,
FFF,
FFF,
FFF,
FFF,
FFF,
FFF,
FFF,
FFF,
FFF,
FFF,
FFF,
FFF,
FFF,
FFF,
FFF,
FFF,
FFF,
FFF,
FFF,
FFF,
FFF,
FFF,
FFF,
FFF,
FFF,
FFF,
FFF,
FFF,
FFF,
FFF,
FFF,
FFF,
FFF,
FFF,
FFF,
FFF,
FFF,
FFF,
FFF,
FFF,
FFF,
FFF,
FFF,
FFF,
FFF,
FFF,
FFF,
FFF,
FFF,
FFF,
FFF,
FFF,
FFF,
FFF,
FFF,
FFF,
FFF,
FFF,
FFF,
FFF,
FFF,
FFF,
FFF,
FFF,
FFF,
FFF,
FFF,
FFF,
FFF,
FFF,
FFF,
FFF,
FFF,
FFF,
FFF,
FFF,
FFF,
FFF,
FFF,
FFF,
FFF,
FFF,
FFF,
FFF,
FFF,
FFF,
FFF,
FFF,
FFF,
FFF,
FFF,
FFF,
FFF,
FFF,
FFF,
FFF,
FFF,
FFF,
FFF,
FFF,
FFF,
FFF,
FFF,
FFF,
FFF,
FFF,
FFF,
FFF,
FFF,
FFF,
FFF,
FFF,
FFF,
FFF,
FFF,
FFF,
FFF,
FFF,
FFF,
FFF,
FFF,
FFF,
FFF,
FFF,
FFF,
FFF,
FFF,
FFF,
FFF,
FFF,
FFF,
FFF,
FFF,
FFF,
FFF,
FFF,
FFF,
FFF,
FFF,
FFF,
FFF,
FFF,
FFF,
FFF,
FFF,
FFF,
FFF,
FFF,
FFF,
FFF,
FFF,
FFF,
FFF,
FFF,
FFF,
FFF,
FFF,
FFF,
FFF,
FFF,
FFF,
FFF,
FFF,
FFF,
FFF,
FFF,
FFF,
FFF,
FFF,
FFF,
FFF,
FFF,
FFF,
FFF,
FFF,
FFF,
FFF,
FFF,
FFF,
FFF,
FFF,
FFF,
FFF,
FFF,
FFF,
FFF,
FFF,
FFF,
FFF,
FFF,
FFF,
FFF,
FFF,
FFF,
FFF,
FFF,
FFF,
FFF,
FFF,
FFF,
FFF,
FFF,
FFF,
FFF,
FFF,
FFF,
FFF,
FFF,
FFF,
FFF,
FFF,
FFF,
FFF,
FFF,
FFF,
FFF,
FFF,
FFF,
FFF,
FFF,
FFF,
FFF,
FFF,
FFF,
FFF,
FFF,
FFF,
FFF,
FFF,
FFF,
FFF,
FFF,
FFF,
FFF,
FFF,
FFF,
FFF,
FFF,
FFF,
FFF,
FFF,
FFF,
FFF,
FFF,
FFF,
FFF,
FFF,
FFF,
FFF,
FFF,
FFF,
FFF,
FFF,
FFF,
FFF,
FFF,
FFF,
FFF,
FFF,
FFF,
FFF,
FFF,
FFF,
FFF,
FFF,
FFF,
FFF,
FFF,
FFF,
FFF,
FFF,
FFF,
FFF,
FFF,
FFF,
FFF,
FFF,
FFF,
FFF,
FFF,
FFF,
FFF,
FFF,
FFF,
FFF,
FFF,
FFF,
FFF,
FFF,
FFF,
FFF,
FFF,
FFF,
FFF,
FFF,
FFF,
FFF,
FFF,
FFF,
FFF,
FFF,
FFF,
FFF,
FFF,
FFF,
FFF,
FFF,
FFF,
FFF,
FFF,
FFF,
FFF,
FFF,
FFF,
FFF,
FFF,
FFF,
FFF,
FFF,
FFF,
FFF,
FFF,
FFF,
FFF,
FFF,
FFF,
FFF,
FFF,
FFF,
FFF,
FFF,
FFF,
FFF,
FFF,
FFF,
FFF,
FFF,
FFF,
FFF,
FFF,
FFF,
FFF,
FFF,
FFF,
FFF,
FFF,
FFF,
FFF,
FFF,
FFF,
FFF,
FFF,
FFF,
FFF,
FFF,
FFF,
FFF,
FFF,
FFF,
FFF,
FFF,
FFF,
FFF,
FFF,
FFF,
FFF,
FFF,
FFF,
FFF,
FFF,
FFF,
FFF,
FFF,
FFF,
FFF,
FFF,
FFF,
FFF,
FFF,
FFF,
FFF,
FFF,
FFF,
FFF,
FFF,
FFF,
FFF,
FFF,
FFF,
FFF,
FFF,
FFF,
FFF,
FFF,
FFF,
FFF,
FFF,
FFF,
FFF,
FFF,
FFF,
FFF,
FFF,
FFF,
FFF,
FFF,
FFF,
FFF,
FFF,
FFF,
FFF,
FFF,
FFF,
FFF,
FFF,
FFF,
FFF,
FFF,
FFF,
FFF,
FFF,
FFF,
FFF,
FFF,
FFF,
FFF,
FFF,
FFF,
FFF,
FFF,
FFF,
FFF,
FFF,
FFF,
FFF,
FFF,
FFF,
FFF,
FFF,
FFF,
FFF,
FFF,
FFF,
FFF,
FFF,
FFF,
FFF,
FFF,
FFF,
FFF,
FFF,
FFF,
FFF,
FFF,
FFF,
FFF,
FFF,
FFF,
FFF,
FFF,
FFF,
FFF,
FFF,
FFF,
FFF,
FFF,
FFF,
FFF,
FFF,
FFF,
FFF,
FFF,
FFF,
FFF,
FFF,
FFF,
FFF,
FFF,
FFF,
FFF,
FFF,
FFF,
FFF,
FFF,
FFF,
FFF,
FFF,
FFF,
FFF,
FFF,
FFF,
FFF,
FFF,
FFF,
FFF,
FFF,
FFF,
FFF,
FFF,
FFF,
FFF,
FFF,
FFF,
FFF,
FFF,
FFF,
FFF,
FFF,
FFF,
FFF,
FFF,
FFF,
FFF,
FFF,
FFF,
FFF,
FFF,
FFF,
FFF,
FFF,
FFF,
FFF,
FFF,
FFF,
FFF,
FFF,
FFF,
FFF,
FFF,
FFF,
FFF,
FFF,
FFF,
FFF,
FFF,
FFF,
FFF,
FFF,
FFF,
FFF,
FFF,
FFF,
FFF,
FFF,
FFF,
FFF,
FFF,
FFF,
FFF,
FFF,
FFF,
FFF,
FFF,
FFF,
FFF,
FFF,
FFF,
FFF,
FFF,
FFF,
FFF,
FFF,
FFF,
FFF,
FFF,
FFF,
FFF,
FFF,
FFF,
FFF,
FFF,
FFF,
FFF,
FFF,
FFF,
FFF,
FFF,
FFF,
FFF,
FFF,
FFF,
FFF,
FFF,
FFF,
FFF,
FFF,
FFF,
FFF,
FFF,
FFF,
FFF,
FFF,
FFF,
FFF,
FFF,
FFF,
FFF,
FFF,
FFF,
FFF,
FFF,
FFF,
FFF,
FFF,
FFF,
FFF,
FFF,
FFF,
FFF,
FFF,
FFF,
FFF,
FFF,
FFF,
FFF,
FFF,
FFF,
FFF,
FFF,
FFF,
FFF,
FFF,
FFF,
FFF,
FFF,
FFF,
FFF,
FFF,
FFF,
FFF,
FFF,
FFF,
FFF,
FFF,
FFF,
FFF,
FFF,
FFF,
FFF,
FFF,
FFF,
FFF,
FFF,
FFF,
FFF,
FFF,
FFF,
FFF,
FFF,
FFF,
FFF,
FFF,
FFF,
FFF,
FFF,
FFF,
FFF,
FFF,
FFF,
FFF,
FFF,
FFF,
FFF,
FFF,
FFF,
FFF,
FFF,
FFF,
FFF,
FFF,
FFF,
FFF,
FFF,
FFF,
FFF,
FFF,
FFF,
FFF,
FFF,
FFF,
FFF,
FFF,
FFF,
FFF,
FFF,
FFF,
FFF,
FFF,
FFF,
FFF,
FFF,
FFF,
FFF,
FFF,
FFF,
FFF,
FFF,
FFF,
FFF,
FFF,
FFF,
FFF,
FFF,
FFF,
FFF,
FFF,
FFF,
FFF,
FFF,
FFF,
FFF,
FFF,
FFF,
FFF,
FFF,
FFF,
FFF,
FFF,
FFF,
FFF,
FFF,
FFF,
FFF,
FFF,
FFF,
FFF,
FFF,
FFF,
FFF,
FFF,
FFF,
FFF,
FFF,
FFF,
FFF,
FFF,
FFF,
FFF,
FFF,
FFF,
FFF,
FFF,
FFF,
FFF,
FFF,
FFF,
FFF,
FFF,
FFF,
FFF,
FFF,
FFF,
FFF,
FFF,
FFF,
FFF,
FFF,
FFF,
FFF,
FFF,
FFF,
FFF,
FFF,
FFF,
FFF,
FFF,
FFF,
FFF,
FFF,
FFF,
FFF,
FFF,
FFF,
FFF,
FFF,
FFF,
FFF,
FFF,
FFF,
FFF,
FFF,
FFF,
FFF,
FFF,
FFF,
FFF,
FFF,
FFF,
FFF,
FFF,
FFF,
FFF,
FFF,
FFF,
FFF,
FFF,
FFF,
FFF,
FFF,
FFF,
FFF,
FFF,
FFF,
FFF,
FFF,
FFF,
FFF,
FFF,
FFF,
FFF,
FFF,
FFF,
FFF,
FFF,
FFF,
FFF,
FFF,
FFF,
FFF,
FFF,
FFF,
FFF,
FFF,
FFF,
FFF,
FFF,
FFF,
FFF,
FFF,
FFF,
FFF,
FFF,
FFF,
FFF,
FFF,
FFF,
FFF,
FFF,
FFF,
FFF,
FFF,
FFF,
FFF,
FFF,
FFF,
FFF,
FFF,
FFF,
FFF,
FFF,
FFF,
FFF,
FFF,
FFF,
FFF,
FFF,
FFF,
FFF,
FFF,
FFF,
FFF,
FFF,
FFF,
FFF,
FFF,
FFF,
FFF,
FFF,
FFF,
FFF,
FFF,
FFF,
FFF,
FFF,
FFF,
FFF,
FFF,
FFF,
FFF,
FFF,
FFF,
FFF,
FFF,
FFF,
FFF,
FFF,
FFF,
FFF,
FFF,
FFF,
FFF,
FFF,
FFF,
FFF,
FFF,
FFF,
FFF,
FFF,
FFF,
FFF,
FFF,
FFF,
FFF,
FFF,
FFF,
FFF,
FFF,
FFF,
FFF,
FFF,
FFF,
FFF,
FFF,
FFF,
FFF,
FFF,
FFF,
FFF,
FFF,
FFF,
FFF,
FFF,
FFF,
FFF,
FFF,
FFF,
FFF,
FFF,
FFF,
FFF,
FFF,
FFF,
FFF,
FFF,
FFF,
FFF,
FFF,
FFF,
FFF,
FFF,
FFF,
FFF,
FFF,
FFF,
FFF,
FFF,
FFF,
FFF,
FFF,
FFF,
FFF,
FFF,
FFF,
FFF,
FFF,
FFF,
FFF,
FFF,
FFF,
FFF,
FFF,
FFF,
FFF,
FFF,
FFF,
FFF,
FFF,
FFF,
FFF,
FFF,
FFF,
FFF,
FFF,
FFF,
FFF,
FFF,
FFF,
FFF,
FFF,
FFF,
FFF,
FFF,
FFF,
FFF,
FFF,
FFF,
FFF,
FFF,
FFF,
FFF,
FFF,
FFF,
FFF,
FFF,
FFF,
FFF,
FFF,
FFF,
FFF,
FFF,
FFF,
FFF,
FFF,
FFF,
FFF,
FFF,
FFF,
FFF,
FFF,
FFF,
FFF,
FFF,
FFF,
FFF,
FFF,
FFF,
FFF,
FFF,
FFF,
FFF,
FFF,
FFF,
FFF,
FFF,
FFF,
FFF,
FFF,
FFF,
FFF,
FFF,
FFF,
FFF,
FFF,
FFF,
FFF,
FFF,
FFF,
FFF,
FFF,
FFF,
FFF,
FFF,
FFF,
FFF,
FFF,
FFF,
FFF,
FFF,
FFF,
FFF,
FFF,
FFF,
FFF,
FFF,
FFF,
FFF,
FFF,
FFF,
FFF,
FFF,
FFF,
FFF,
FFF,
FFF,
FFF,
FFF,
FFF,
FFF,
FFF,
FFF,
FFF,
FFF,
FFF,
FFF,
FFF,
FFF,
FFF,
FFF,
FFF,
FFF,
FFF,
FFF,
FFF,
FFF,
FFF,
FFF,
FFF,
FFF,
FFF,
FFF,
FFF,
FFF,
FFF,
FFF,
FFF,
FFF,
FFF,
FFF,
FFF,
FFF,
FFF,
FFF,
FFF,
FFF,
FFF,
FFF,
FFF,
FFF,
FFF,
FFF,
FFF,
FFF,
FFF,
FFF,
FFF,
FFF,
FFF,
FFF,
FFF,
FFF,
FFF,
FFF,
FFF,
FFF,
FFF,
FFF,
FFF,
FFF,
FFF,
FFF,
FFF,
FFF,
FFF,
FFF,
FFF,
FFF,
FFF,
FFF,
FFF,
FFF,
FFF,
FFF,
FFF,
FFF,
FFF,
FFF,
FFF,
FFF,
FFF,
FFF,
FFF,
FFF,
FFF,
FFF,
FFF,
FFF,
FFF,
FFF,
FFF,
FFF,
FFF,
FFF,
FFF,
FFF,
FFF,
FFF,
FFF,
FFF,
FFF,
FFF,
FFF,
FFF,
FFF,
FFF,
FFF,
FFF,
FFF,
FFF,
FFF,
FFF,
FFF,
FFF,
FFF,
FFF,
FFF,
FFF,
FFF,
FFF,
FFF,
FFF,
FFF,
FFF,
FFF,
FFF,
FFF,
FFF,
FFF,
FFF,
FFF,
FFF,
FFF,
FFF,
FFF,
FFF,
FFF,
FFF,
FFF,
FFF,
FFF,
FFF,
FFF,
FFF,
FFF,
FFF,
FFF,
FFF,
FFF,
FFF,
FFF,
FFF,
FFF,
FFF,
FFF,
FFF,
FFF,
FFF,
FFF,
FFF,
FFF,
FFF,
FFF,
FFF,
FFF,
FFF,
FFF,
FFF,
FFF,
FFF,
FFF,
FFF,
FFF,
FFF,
FFF,
FFF,
FFF,
FFF,
FFF,
FFF,
FFF,
FFF,
FFF,
FFF,
FFF,
FFF,
FFF,
FFF,
FFF,
FFF,
FFF,
FFF,
FFF,
FFF,
FFF,
FFF,
FFF,
FFF,
FFF,
FFF,
FFF,
FFF,
FFF,
FFF,
FFF,
FFF,
FFF,
FFF,
FFF,
FFF,
FFF,
FFF,
FFF,
FFF,
FFF,
FFF,
FFF,
FFF,
FFF,
FFF,
FFF,
FFF,
FFF,
FFF,
FFF,
FFF,
FFF,
FFF,
FFF,
FFF,
FFF,
FFF,
FFF,
FFF,
FFF,
FFF,
FFF,
FFF,
FFF,
FFF,
FFF,
FFF,
FFF,
FFF,
FFF,
FFF,
FFF,
FFF,
FFF,
FFF,
FFF,
FFF,
FFF,
FFF,
FFF,
FFF,
FFF,
FFF,
FFF,
FFF,
FFF,
FFF,
FFF,
FFF,
FFF,
FFF,
FFF,
FFF,
FFF,
FFF,
FFF,
FFF,
FFF,
FFF,
FFF,
FFF,
FFF,
FFF,
FFF,
FFF,
FFF,
FFF,
FFF,
FFF,
FFF,
FFF,
FFF,
FFF,
FFF,
FFF,
FFF,
FFF,
FFF,
FFF,
FFF,
FFF,
FFF,
FFF,
FFF,
FFF,
FFF,
FFF,
FFF,
FFF,
FFF,
FFF,
FFF,
FFF,
FFF,
FFF,
FFF,
FFF,
FFF,
FFF,
FFF,
FFF,
FFF,
FFF,
FFF,
FFF,
FFF,
FFF,
FFF,
FFF,
FFF,
FFF,
FFF,
FFF,
FFF,
FFF,
FFF,
FFF,
FFF,
FFF,
FFF,
FFF,
FFF,
FFF,
FFF,
FFF,
FFF,
FFF,
FFF,
FFF,
FFF,
FFF,
FFF,
FFF,
FFF,
FFF,
FFF,
FFF,
FFF,
FFF,
FFF,
FFF,
FFF,
FFF,
FFF,
FFF,
FFF,
FFF,
FFF,
FFF,
FFF,
FFF,
FFF,
FFF,
FFF,
FFF,
FFF,
FFF,
FFF,
FFF,
FFF,
FFF,
FFF,
FFF,
FFF,
FFF,
FFF,
FFF,
FFF,
FFF,
FFF,
FFF,
FFF,
FFF,
FFF,
FFF,
FFF,
FFF,
FFF,
FFF,
FFF,
FFF,
FFF,
FFF,
FFF,
FFF,
FFF,
FFF,
FFF,
FFF,
FFF,
FFF,
FFF,
FFF,
FFF,
FFF,
FFF,
FFF,
FFF,
FFF,
FFF,
FFF,
FFF,
FFF,
FFF,
FFF,
FFF,
FFF,
FFF,
FFF,
FFF,
FFF,
FFF,
FFF,
FFF,
FFF,
FFF,
FFF,
FFF,
FFF,
FFF,
FFF,
FFF,
FFF,
FFF,
FFF,
FFF,
FFF,
FFF,
FFF,
FFF,
FFF,
FFF,
FFF,
FFF,
FFF,
FFF,
FFF,
FFF,
FFF,
FFF,
FFF,
FFF,
FFF,
FFF,
FFF,
FFF,
FFF,
FFF,
FFF,
FFF,
FFF,
FFF,
FFF,
FFF,
FFF,
FFF,
FFF,
FFF,
FFF,
FFF,
FFF,
FFF,
FFF,
000,
000,
000,
000,
000,
000,
000,
000,
111,
FFF,
FFF,
FFF,
FFF,
FFF,
FFF,
FFF,
FFF,
FFF,
FFF,
FFF,
FFF,
FFF,
FFF,
FFF,
FFF,
FFF,
FFF,
FFF,
FFF,
FFF,
FFF,
FFF,
FFF,
FFF,
FFF,
FFF,
000,
000,
000,
000,
FFF,
FFF,
FFF,
FFF,
FFF,
FFF,
FFF,
FFF,
FFF,
FFF,
FFF,
FFF,
111,
111,
FFF,
FFF,
FFF,
FFF,
FFF,
FFF,
FFF,
FFF,
FFF,
FFF,
FFF,
FFF,
FFF,
FFF,
FFF,
FFF,
FFF,
FFF,
FFF,
FFF,
FFF,
FFF,
FFF,
FFF,
FFF,
FFF,
FFF,
FFF,
FFF,
FFF,
FFF,
FFF,
FFF,
FFF,
FFF,
FFF,
FFF,
FFF,
FFF,
FFF,
FFF,
FFF,
FFF,
FFF,
FFF,
FFF,
FFF,
FFF,
FFF,
FFF,
FFF,
FFF,
FFF,
FFF,
FFF,
FFF,
FFF,
FFF,
FFF,
111,
111,
111,
FFF,
FFF,
FFF,
FFF,
FFF,
FFF,
FFF,
FFF,
FFF,
FFF,
FFF,
FFF,
FFF,
FFF,
FFF,
FFF,
FFF,
FFF,
FFF,
FFF,
FFF,
FFF,
FFF,
FFF,
FFF,
FFF,
FFF,
111,
111,
111,
FFF,
FFF,
FFF,
FFF,
FFF,
FFF,
FFF,
FFF,
FFF,
FFF,
FFF,
FFF,
FFF,
111,
000,
000,
000,
000,
000,
FFF,
FFF,
FFF,
FFF,
FFF,
FFF,
FFF,
FFF,
FFF,
FFF,
FFF,
FFF,
FFF,
FFF,
FFF,
FFF,
FFF,
FFF,
FFF,
FFF,
FFF,
FFF,
FFF,
FFF,
FFF,
FFF,
FFF,
FFF,
FFF,
FFF,
222,
111,
111,
FFF,
FFF,
FFF,
FFF,
FFF,
FFF,
FFF,
FFF,
FFF,
FFF,
FFF,
FFF,
FFF,
FFF,
FFF,
FFF,
FFF,
FFF,
FFF,
FFF,
FFF,
FFF,
FFF,
FFF,
FFF,
FFF,
FFF,
FFF,
FFF,
FFF,
FFF,
FFF,
FFF,
FFF,
FFF,
FFF,
FFF,
FFF,
FFF,
FFF,
FFF,
FFF,
FFF,
FFF,
FFF,
000,
000,
000,
000,
000,
000,
000,
FFF,
FFF,
FFF,
FFF,
000,
000,
222,
333,
444,
555,
666,
555,
555,
444,
000,
000,
FFF,
FFF,
FFF,
FFF,
111,
000,
000,
000,
000,
000,
000,
000,
000,
000,
000,
000,
000,
000,
000,
000,
000,
000,
000,
000,
000,
111,
333,
444,
444,
444,
000,
111,
000,
000,
000,
000,
000,
000,
000,
000,
111,
111,
222,
333,
000,
222,
111,
000,
000,
000,
000,
000,
000,
000,
000,
000,
000,
000,
000,
000,
FFF,
FFF,
FFF,
FFF,
FFF,
FFF,
FFF,
FFF,
FFF,
FFF,
FFF,
FFF,
222,
000,
000,
000,
000,
000,
000,
000,
000,
000,
000,
000,
000,
FFF,
FFF,
FFF,
FFF,
FFF,
FFF,
333,
222,
000,
000,
000,
000,
000,
000,
000,
000,
000,
111,
222,
333,
222,
000,
000,
000,
000,
000,
000,
000,
000,
000,
000,
000,
000,
000,
000,
000,
000,
111,
000,
000,
000,
000,
000,
000,
000,
000,
111,
111,
333,
333,
000,
000,
000,
000,
000,
000,
000,
000,
000,
FFF,
FFF,
FFF,
000,
111,
222,
333,
444,
555,
555,
444,
000,
FFF,
FFF,
FFF,
FFF,
222,
000,
000,
000,
000,
000,
000,
000,
000,
000,
FFF,
FFF,
FFF,
FFF,
222,
000,
000,
000,
000,
000,
000,
000,
000,
000,
111,
111,
333,
222,
000,
FFF,
FFF,
FFF,
FFF,
FFF,
FFF,
FFF,
FFF,
FFF,
FFF,
FFF,
FFF,
FFF,
FFF,
FFF,
FFF,
FFF,
FFF,
FFF,
FFF,
FFF,
FFF,
FFF,
FFF,
FFF,
FFF,
FFF,
FFF,
FFF,
FFF,
FFF,
FFF,
000,
111,
222,
111,
111,
000,
000,
000,
000,
111,
111,
222,
333,
444,
444,
444,
555,
555,
666,
000,
FFF,
111,
000,
333,
555,
555,
685,
685,
685,
685,
685,
685,
675,
555,
000,
000,
000,
111,
222,
222,
444,
444,
444,
444,
555,
444,
111,
000,
444,
444,
555,
444,
555,
666,
000,
111,
555,
666,
555,
555,
554,
565,
675,
685,
555,
222,
333,
444,
555,
444,
555,
555,
444,
555,
555,
666,
565,
675,
565,
111,
000,
111,
444,
444,
444,
555,
555,
555,
555,
444,
555,
555,
555,
555,
111,
000,
FFF,
FFF,
FFF,
FFF,
FFF,
FFF,
FFF,
FFF,
FFF,
111,
000,
222,
333,
444,
555,
444,
555,
444,
555,
555,
444,
555,
444,
222,
000,
111,
FFF,
FFF,
FFF,
000,
111,
111,
333,
444,
444,
555,
555,
444,
555,
555,
666,
565,
665,
675,
555,
555,
555,
555,
555,
555,
666,
555,
555,
555,
444,
444,
666,
555,
555,
444,
222,
222,
444,
444,
333,
555,
555,
444,
555,
555,
555,
565,
565,
675,
555,
666,
444,
555,
555,
555,
666,
555,
333,
000,
FFF,
111,
111,
555,
676,
675,
685,
685,
685,
555,
000,
FFF,
FFF,
000,
000,
000,
333,
444,
555,
555,
444,
555,
444,
555,
444,
000,
000,
000,
111,
222,
333,
444,
444,
444,
555,
666,
555,
555,
555,
555,
565,
675,
554,
000,
FFF,
FFF,
FFF,
FFF,
FFF,
FFF,
FFF,
FFF,
FFF,
FFF,
FFF,
FFF,
FFF,
FFF,
FFF,
FFF,
FFF,
FFF,
FFF,
FFF,
FFF,
FFF,
FFF,
FFF,
FFF,
FFF,
FFF,
FFF,
FFF,
FFF,
FFF,
FFF,
000,
555,
565,
565,
565,
555,
555,
444,
565,
555,
565,
675,
686,
685,
795,
795,
795,
795,
555,
000,
000,
000,
444,
444,
795,
795,
795,
795,
795,
795,
795,
795,
795,
685,
444,
000,
000,
555,
565,
675,
685,
795,
795,
795,
795,
665,
111,
555,
685,
795,
795,
795,
795,
555,
000,
666,
675,
795,
795,
795,
795,
795,
795,
795,
666,
665,
675,
685,
795,
795,
795,
795,
795,
795,
795,
795,
795,
795,
454,
555,
444,
444,
675,
795,
795,
795,
795,
795,
795,
795,
795,
795,
795,
685,
555,
333,
000,
FFF,
FFF,
FFF,
FFF,
FFF,
FFF,
FFF,
FFF,
000,
555,
555,
675,
795,
795,
795,
795,
795,
795,
795,
795,
795,
685,
555,
444,
000,
000,
FFF,
000,
333,
555,
565,
675,
685,
795,
795,
795,
795,
795,
795,
795,
795,
795,
685,
555,
795,
795,
795,
795,
795,
795,
795,
795,
795,
795,
795,
795,
795,
795,
665,
554,
565,
685,
795,
795,
795,
795,
795,
795,
795,
795,
795,
795,
675,
676,
795,
795,
795,
795,
795,
795,
685,
555,
000,
FFF,
000,
333,
675,
795,
795,
795,
795,
685,
666,
000,
000,
000,
111,
444,
444,
554,
795,
795,
795,
795,
795,
795,
795,
454,
555,
000,
000,
666,
676,
675,
685,
795,
795,
795,
795,
795,
795,
795,
795,
795,
795,
555,
000,
FFF,
FFF,
FFF,
FFF,
FFF,
FFF,
FFF,
FFF,
FFF,
FFF,
FFF,
FFF,
FFF,
FFF,
FFF,
FFF,
FFF,
FFF,
FFF,
FFF,
FFF,
FFF,
FFF,
FFF,
FFF,
FFF,
FFF,
FFF,
FFF,
FFF,
FFF,
FFF,
000,
555,
796,
796,
796,
796,
796,
796,
796,
796,
796,
796,
796,
796,
796,
796,
796,
796,
444,
000,
111,
555,
685,
796,
796,
796,
796,
796,
796,
796,
796,
796,
796,
796,
686,
555,
000,
555,
796,
796,
796,
796,
796,
796,
796,
444,
000,
555,
796,
796,
796,
796,
796,
555,
000,
555,
796,
796,
796,
796,
796,
796,
796,
565,
665,
796,
796,
796,
796,
796,
796,
796,
796,
796,
796,
796,
796,
796,
444,
796,
796,
796,
796,
796,
796,
796,
796,
796,
796,
796,
796,
796,
796,
796,
796,
555,
111,
000,
FFF,
FFF,
FFF,
FFF,
FFF,
FFF,
FFF,
000,
555,
796,
796,
796,
796,
796,
796,
796,
796,
796,
796,
796,
796,
796,
685,
555,
000,
000,
000,
444,
796,
796,
796,
796,
796,
796,
796,
796,
796,
796,
796,
796,
796,
685,
444,
796,
796,
796,
796,
796,
796,
796,
796,
796,
796,
796,
796,
796,
796,
555,
796,
796,
796,
796,
796,
796,
796,
796,
796,
796,
796,
796,
796,
555,
685,
796,
796,
796,
796,
796,
796,
796,
555,
000,
FFF,
000,
555,
785,
796,
796,
796,
796,
565,
222,
000,
111,
555,
565,
796,
796,
796,
796,
796,
796,
796,
796,
796,
796,
796,
795,
444,
444,
675,
796,
796,
796,
796,
796,
796,
796,
796,
796,
796,
796,
796,
796,
555,
000,
FFF,
FFF,
FFF,
FFF,
FFF,
FFF,
FFF,
FFF,
FFF,
FFF,
FFF,
FFF,
FFF,
FFF,
FFF,
FFF,
FFF,
FFF,
FFF,
FFF,
FFF,
FFF,
FFF,
FFF,
FFF,
FFF,
FFF,
FFF,
FFF,
FFF,
FFF,
FFF,
000,
555,
8A6,
8A6,
8A6,
8A6,
8A6,
8A6,
8A6,
8A6,
8A6,
8A6,
8A6,
8A6,
8A6,
8A6,
8A6,
786,
444,
111,
444,
796,
8A6,
8A6,
8A6,
8A6,
8A6,
8A6,
8A6,
8A6,
8A6,
8A6,
8A6,
8A6,
8A6,
555,
000,
555,
8A6,
8A6,
8A6,
8A6,
8A6,
8A6,
8A6,
555,
111,
555,
8A6,
8A6,
8A6,
8A6,
8A6,
555,
000,
555,
8A6,
8A6,
8A6,
8A6,
8A6,
8A6,
8A6,
555,
786,
8A6,
8A6,
8A6,
8A6,
8A6,
8A6,
8A6,
8A6,
8A6,
8A6,
8A6,
8A6,
8A6,
555,
8A6,
8A6,
8A6,
8A6,
8A6,
8A6,
8A6,
8A6,
8A6,
8A6,
8A6,
8A6,
8A6,
8A6,
8A6,
8A6,
796,
444,
000,
FFF,
FFF,
FFF,
FFF,
FFF,
FFF,
FFF,
000,
555,
8A6,
8A6,
8A6,
8A6,
8A6,
8A6,
8A6,
8A6,
8A6,
8A6,
8A6,
8A6,
8A6,
8A6,
685,
444,
000,
000,
555,
8A6,
8A6,
8A6,
8A6,
8A6,
8A6,
8A6,
8A6,
8A6,
8A6,
8A6,
8A6,
8A6,
555,
565,
8A6,
8A6,
8A6,
8A6,
8A6,
8A6,
8A6,
8A6,
8A6,
8A6,
8A6,
8A6,
8A6,
8A6,
554,
8A6,
8A6,
8A6,
8A6,
8A6,
8A6,
8A6,
8A6,
8A6,
8A6,
8A6,
8A6,
8A6,
666,
796,
8A6,
8A6,
8A6,
8A6,
8A6,
8A6,
8A6,
555,
000,
222,
000,
666,
8A6,
8A6,
8A6,
8A6,
8A6,
444,
000,
222,
555,
7A6,
8A6,
8A6,
8A6,
8A6,
8A6,
8A6,
8A6,
8A6,
8A6,
8A6,
8A6,
8A6,
8A6,
555,
555,
796,
8A6,
8A6,
8A6,
8A6,
8A6,
8A6,
8A6,
8A6,
8A6,
8A6,
8A6,
8A6,
8A6,
333,
000,
FFF,
FFF,
FFF,
FFF,
FFF,
FFF,
FFF,
FFF,
FFF,
FFF,
FFF,
FFF,
FFF,
FFF,
FFF,
FFF,
FFF,
FFF,
FFF,
FFF,
FFF,
FFF,
FFF,
FFF,
FFF,
FFF,
FFF,
FFF,
FFF,
FFF,
FFF,
FFF,
000,
555,
8B6,
8B6,
8B6,
8B6,
8B6,
8B6,
8B6,
8B6,
8B6,
8B6,
8B6,
8B6,
8B6,
8B6,
8B6,
665,
222,
555,
796,
8B6,
8B6,
8B6,
8B6,
8B6,
8B6,
8B6,
8B6,
8B6,
8B6,
8B6,
8B6,
8B6,
8B6,
555,
222,
444,
8B6,
8B6,
8B6,
8B6,
8B6,
8B6,
8B6,
555,
444,
786,
8B6,
8B6,
8B6,
8B6,
8B6,
555,
111,
555,
8B6,
8B6,
8B6,
8B6,
8B6,
8B6,
8B6,
444,
7A6,
8B6,
8B6,
8B6,
8B6,
8B6,
8B6,
8B6,
8B6,
8B6,
8B6,
8B6,
8B6,
796,
444,
8B6,
8B6,
8B6,
8B6,
8B6,
8B6,
8B6,
8B6,
8B6,
8B6,
8B6,
8B6,
8B6,
8B6,
8B6,
8B6,
8A6,
555,
000,
FFF,
FFF,
FFF,
FFF,
FFF,
FFF,
FFF,
000,
555,
8B6,
8B6,
8B6,
8B6,
8B6,
8B6,
8B6,
8B6,
8B6,
8B6,
8B6,
8B6,
8B6,
8B6,
8B6,
454,
111,
000,
555,
8B6,
8B6,
8B6,
8B6,
8B6,
8B6,
8B6,
8B6,
8B6,
8B6,
8B6,
8B6,
8B6,
666,
675,
8B6,
8B6,
8B6,
8B6,
8B6,
8B6,
8B6,
8B6,
8B6,
8B6,
8B6,
8B6,
8B6,
8A6,
675,
8B6,
8B6,
8B6,
8B6,
8B6,
8B6,
8B6,
8B6,
8B6,
8B6,
8B6,
8B6,
8B6,
555,
8A6,
8B6,
8B6,
8B6,
8B6,
8B6,
8B6,
8B6,
565,
111,
000,
000,
555,
8B6,
8B6,
8B6,
8B6,
8B6,
444,
222,
444,
8B6,
8B6,
8B6,
8B6,
8B6,
8B6,
8B6,
8B6,
8B6,
8B6,
8B6,
8B6,
8B6,
8B6,
8B6,
685,
666,
8B6,
8B6,
8B6,
8B6,
8B6,
8B6,
8B6,
8B6,
8B6,
8B6,
8B6,
8B6,
8B6,
675,
111,
000,
FFF,
FFF,
FFF,
FFF,
FFF,
FFF,
FFF,
FFF,
FFF,
FFF,
FFF,
FFF,
FFF,
FFF,
FFF,
FFF,
FFF,
FFF,
FFF,
FFF,
FFF,
FFF,
FFF,
FFF,
FFF,
FFF,
FFF,
FFF,
FFF,
FFF,
FFF,
FFF,
000,
444,
8A6,
8A6,
8A6,
8A6,
8A6,
8A6,
8A6,
8A6,
8A6,
8A6,
8A6,
8A6,
8A6,
8A6,
8A6,
444,
333,
564,
8A6,
8A6,
8A6,
8A6,
8A6,
8A6,
8A6,
8A6,
8A6,
8A6,
8A6,
8A6,
8A6,
8A6,
8A6,
785,
333,
565,
8A6,
8A6,
8A6,
8A6,
8A6,
8A6,
796,
555,
555,
8A6,
8A6,
8A6,
8A6,
8A6,
8A6,
333,
333,
786,
8A6,
8A6,
8A6,
8A6,
8A6,
8A6,
685,
444,
8A6,
8A6,
8A6,
8A6,
8A6,
8A6,
8A6,
796,
796,
7A6,
8A6,
796,
796,
675,
666,
8A6,
8A6,
8A6,
8A6,
8A6,
8A6,
8A6,
8A6,
8A6,
8A6,
8A6,
8A6,
8A6,
8A6,
8A6,
8A6,
8A6,
444,
000,
FFF,
FFF,
FFF,
FFF,
FFF,
FFF,
000,
222,
565,
8A6,
8A6,
8A6,
8A6,
8A6,
8A6,
8A6,
8A6,
8A6,
8A6,
8A6,
8A6,
8A6,
8A6,
8A6,
795,
555,
111,
554,
8A6,
8A6,
8A6,
8A6,
8A6,
8A6,
8A6,
7A6,
7A6,
796,
796,
795,
795,
555,
685,
8A6,
8A6,
8A6,
8A6,
8A6,
8A6,
8A6,
8A6,
8A6,
8A6,
8A6,
8A6,
8A6,
555,
8A6,
8A6,
8A6,
8A6,
8A6,
8A6,
8A6,
7A6,
7A6,
7A6,
796,
796,
796,
685,
555,
8A6,
8A6,
8A6,
8A6,
8A6,
8A6,
8A6,
8A6,
685,
333,
000,
111,
565,
8A6,
8A6,
8A6,
8A6,
8A6,
555,
444,
8A6,
8A6,
8A6,
8A6,
8A6,
8A6,
8A6,
8A6,
8A6,
8A6,
8A6,
8A6,
8A6,
8A6,
8A6,
8A6,
795,
555,
8A6,
8A6,
8A6,
8A6,
8A6,
8A6,
8A6,
796,
795,
796,
7A6,
795,
796,
555,
000,
FFF,
FFF,
FFF,
FFF,
FFF,
FFF,
FFF,
FFF,
FFF,
FFF,
FFF,
FFF,
FFF,
FFF,
FFF,
FFF,
FFF,
FFF,
FFF,
FFF,
FFF,
FFF,
FFF,
FFF,
FFF,
FFF,
FFF,
FFF,
FFF,
FFF,
FFF,
FFF,
FFF,
000,
555,
8A6,
8A6,
8A6,
8A6,
8A6,
8A6,
8A6,
8A6,
8A6,
8A6,
8A6,
8A6,
8A6,
8A6,
8A6,
444,
444,
8A6,
8A6,
8A6,
8A6,
8A6,
8A6,
8A6,
8A6,
8A6,
8A6,
8A6,
8A6,
8A6,
8A6,
8A6,
8A6,
795,
444,
675,
8A6,
8A6,
8A6,
8A6,
8A6,
8A6,
785,
333,
555,
8A6,
8A6,
8A6,
8A6,
8A6,
795,
333,
555,
8A6,
8A6,
8A6,
8A6,
8A6,
8A6,
8A6,
565,
555,
8A6,
8A6,
8A6,
8A6,
8A6,
8A6,
8A6,
444,
444,
444,
444,
333,
444,
333,
444,
8A6,
8A6,
8A6,
8A6,
8A6,
8A6,
8A6,
8A6,
8A6,
8A6,
8A6,
8A6,
8A6,
8A6,
8A6,
8A6,
8A6,
555,
000,
FFF,
FFF,
FFF,
FFF,
FFF,
FFF,
000,
333,
685,
8A6,
8A6,
8A6,
8A6,
8A6,
8A6,
8A6,
8A6,
8A6,
8A6,
8A6,
8A6,
8A6,
8A6,
8A6,
8A6,
555,
222,
675,
8A6,
8A6,
8A6,
8A6,
8A6,
8A6,
565,
444,
444,
444,
333,
333,
444,
555,
795,
8A6,
8A6,
8A6,
8A6,
8A6,
8A6,
665,
444,
555,
444,
555,
555,
555,
444,
8A6,
8A6,
8A6,
8A6,
8A6,
8A6,
8A6,
555,
333,
444,
444,
333,
333,
333,
444,
8A6,
8A6,
8A6,
8A6,
8A6,
8A6,
8A6,
8A6,
7A5,
444,
000,
333,
675,
8A6,
8A6,
8A6,
8A6,
675,
444,
8A6,
8A6,
8A6,
8A6,
8A6,
8A6,
8A6,
8A6,
795,
555,
675,
8A6,
8A6,
8A6,
8A6,
8A6,
8A6,
685,
555,
8A6,
8A6,
8A6,
8A6,
8A6,
8A6,
795,
444,
333,
444,
444,
333,
333,
333,
000,
FFF,
FFF,
FFF,
FFF,
FFF,
000,
000,
000,
000,
000,
000,
000,
000,
FFF,
FFF,
FFF,
FFF,
FFF,
FFF,
FFF,
FFF,
000,
000,
000,
000,
000,
000,
000,
000,
FFF,
FFF,
FFF,
FFF,
000,
444,
444,
555,
555,
565,
7A5,
7A5,
7A5,
7A5,
7A5,
7A5,
7A5,
785,
675,
665,
555,
555,
795,
7A5,
7A5,
7A5,
7A5,
7A5,
7A5,
7A5,
7A5,
7A5,
7A5,
7A5,
7A5,
7A5,
7A5,
7A5,
7A5,
795,
555,
785,
7A5,
7A5,
7A5,
7A5,
7A5,
7A5,
665,
444,
565,
7A5,
7A5,
7A5,
7A5,
7A5,
685,
333,
666,
7A5,
7A5,
7A5,
7A5,
7A5,
7A5,
7A5,
666,
555,
7A5,
7A5,
7A5,
7A5,
7A5,
7A5,
795,
444,
000,
000,
000,
000,
000,
111,
555,
7A5,
7A5,
7A5,
7A5,
7A5,
7A5,
675,
444,
555,
444,
444,
554,
7A5,
7A5,
7A5,
7A5,
795,
444,
000,
FFF,
FFF,
FFF,
FFF,
FFF,
FFF,
000,
444,
795,
7A5,
7A5,
7A5,
7A5,
7A5,
7A5,
444,
444,
676,
7A5,
7A5,
7A5,
7A5,
7A5,
7A5,
7A5,
565,
333,
785,
7A5,
7A5,
7A5,
7A5,
7A5,
7A5,
555,
111,
000,
000,
000,
000,
000,
333,
7A5,
7A5,
7A5,
7A5,
7A5,
7A5,
7A5,
555,
111,
000,
000,
000,
000,
000,
555,
7A5,
7A5,
7A5,
7A5,
7A5,
7A5,
7A5,
555,
000,
000,
000,
000,
000,
000,
444,
7A5,
7A5,
7A5,
7A5,
7A5,
7A5,
7A5,
7A5,
7A5,
444,
000,
555,
795,
7A5,
7A5,
7A5,
7A5,
555,
675,
7A5,
7A5,
7A5,
7A5,
7A5,
7A5,
7A5,
675,
444,
222,
444,
7A5,
7A5,
7A5,
7A5,
7A5,
7A5,
565,
454,
7A5,
7A5,
7A5,
7A5,
7A5,
7A5,
785,
111,
000,
000,
000,
000,
000,
000,
FFF,
FFF,
FFF,
FFF,
FFF,
FFF,
000,
555,
775,
675,
675,
675,
444,
000,
FFF,
FFF,
FFF,
FFF,
FFF,
FFF,
FFF,
FFF,
000,
444,
564,
675,
664,
564,
666,
000,
FFF,
FFF,
FFF,
FFF,
FFF,
000,
000,
000,
000,
555,
795,
795,
795,
795,
795,
795,
795,
555,
111,
000,
444,
664,
795,
795,
795,
795,
795,
795,
795,
795,
795,
795,
795,
795,
795,
795,
795,
795,
795,
795,
555,
795,
795,
795,
795,
795,
795,
795,
555,
555,
795,
795,
795,
795,
795,
795,
675,
333,
555,
795,
795,
795,
795,
795,
795,
785,
555,
555,
795,
795,
795,
795,
795,
795,
675,
333,
111,
FFF,
FFF,
FFF,
000,
333,
675,
795,
795,
795,
795,
795,
795,
555,
111,
000,
000,
111,
555,
795,
795,
795,
795,
785,
333,
000,
FFF,
FFF,
FFF,
FFF,
FFF,
FFF,
000,
444,
795,
795,
795,
795,
795,
795,
795,
555,
000,
444,
666,
795,
795,
795,
795,
795,
795,
665,
555,
795,
795,
795,
795,
795,
795,
795,
555,
000,
FFF,
FFF,
FFF,
FFF,
000,
666,
795,
795,
795,
795,
795,
795,
795,
444,
000,
FFF,
FFF,
FFF,
FFF,
000,
555,
795,
795,
795,
795,
795,
795,
795,
333,
000,
FFF,
FFF,
FFF,
FFF,
000,
555,
795,
795,
795,
795,
795,
795,
795,
795,
795,
555,
000,
555,
795,
795,
795,
795,
795,
444,
795,
795,
795,
795,
795,
795,
795,
795,
444,
000,
000,
333,
795,
795,
795,
795,
785,
554,
444,
785,
795,
795,
795,
795,
795,
795,
554,
000,
FFF,
FFF,
FFF,
FFF,
FFF,
FFF,
FFF,
FFF,
FFF,
FFF,
FFF,
FFF,
000,
555,
795,
795,
795,
795,
555,
000,
FFF,
FFF,
FFF,
FFF,
FFF,
FFF,
FFF,
FFF,
000,
444,
795,
795,
795,
795,
555,
000,
FFF,
FFF,
FFF,
FFF,
FFF,
FFF,
FFF,
333,
333,
554,
795,
795,
795,
795,
795,
795,
675,
444,
000,
111,
555,
795,
795,
795,
795,
795,
795,
795,
795,
674,
555,
444,
444,
785,
795,
795,
795,
795,
795,
795,
555,
795,
795,
795,
795,
795,
795,
795,
555,
555,
795,
795,
795,
795,
795,
795,
675,
444,
665,
795,
795,
795,
795,
795,
795,
665,
444,
565,
795,
795,
795,
795,
795,
795,
554,
111,
FFF,
FFF,
FFF,
FFF,
000,
333,
684,
795,
795,
795,
795,
795,
795,
555,
000,
000,
000,
444,
684,
795,
795,
795,
795,
555,
111,
000,
FFF,
FFF,
FFF,
FFF,
FFF,
FFF,
000,
555,
795,
795,
795,
795,
795,
795,
785,
444,
000,
000,
555,
795,
795,
795,
795,
795,
795,
565,
444,
795,
795,
795,
795,
795,
795,
795,
444,
000,
FFF,
FFF,
FFF,
FFF,
000,
554,
795,
795,
795,
795,
795,
795,
795,
444,
000,
FFF,
FFF,
FFF,
000,
111,
564,
795,
795,
795,
795,
795,
795,
675,
111,
111,
FFF,
FFF,
FFF,
111,
111,
554,
795,
795,
795,
795,
795,
795,
795,
795,
795,
555,
111,
555,
795,
795,
795,
795,
795,
564,
795,
795,
795,
795,
795,
795,
795,
795,
444,
000,
000,
444,
795,
675,
555,
444,
444,
222,
444,
795,
795,
795,
795,
795,
795,
795,
444,
000,
FFF,
FFF,
FFF,
FFF,
FFF,
FFF,
FFF,
FFF,
FFF,
FFF,
FFF,
FFF,
000,
444,
794,
794,
794,
794,
444,
000,
FFF,
FFF,
FFF,
FFF,
FFF,
FFF,
FFF,
FFF,
000,
454,
794,
794,
794,
794,
555,
000,
FFF,
FFF,
FFF,
FFF,
FFF,
FFF,
FFF,
000,
444,
685,
794,
794,
794,
794,
794,
794,
554,
111,
000,
555,
674,
794,
794,
794,
794,
794,
794,
794,
555,
555,
000,
000,
222,
444,
794,
794,
794,
794,
794,
794,
555,
794,
794,
794,
794,
794,
794,
794,
444,
555,
794,
794,
794,
794,
794,
794,
554,
444,
784,
794,
794,
794,
794,
794,
794,
555,
444,
784,
794,
794,
794,
794,
794,
794,
444,
000,
FFF,
FFF,
FFF,
FFF,
000,
555,
794,
794,
794,
794,
794,
794,
794,
555,
000,
111,
555,
675,
794,
794,
794,
794,
794,
444,
000,
FFF,
FFF,
FFF,
FFF,
FFF,
FFF,
111,
111,
554,
794,
794,
794,
794,
794,
794,
675,
333,
000,
000,
555,
794,
794,
794,
794,
794,
794,
665,
555,
794,
794,
794,
794,
794,
794,
784,
333,
000,
FFF,
FFF,
FFF,
FFF,
000,
665,
794,
794,
794,
794,
794,
794,
794,
444,
000,
FFF,
FFF,
FFF,
000,
222,
784,
794,
794,
794,
794,
794,
794,
555,
000,
FFF,
FFF,
FFF,
FFF,
000,
444,
675,
794,
794,
794,
794,
794,
794,
794,
794,
794,
675,
333,
554,
794,
794,
794,
794,
684,
684,
794,
794,
794,
794,
794,
794,
794,
794,
444,
222,
000,
222,
555,
444,
111,
000,
000,
000,
555,
794,
794,
794,
794,
794,
794,
794,
555,
000,
FFF,
FFF,
FFF,
FFF,
FFF,
FFF,
FFF,
FFF,
FFF,
FFF,
FFF,
FFF,
000,
555,
784,
784,
784,
784,
555,
000,
FFF,
FFF,
FFF,
FFF,
FFF,
FFF,
FFF,
FFF,
000,
454,
784,
784,
784,
784,
555,
000,
FFF,
FFF,
FFF,
FFF,
FFF,
FFF,
FFF,
000,
555,
784,
784,
784,
784,
784,
784,
784,
555,
000,
000,
555,
784,
784,
784,
784,
784,
784,
784,
444,
555,
000,
000,
FFF,
000,
555,
784,
784,
784,
784,
784,
684,
555,
784,
784,
784,
784,
784,
784,
684,
555,
674,
784,
784,
784,
784,
784,
784,
555,
555,
784,
784,
784,
784,
784,
784,
784,
555,
444,
784,
784,
784,
784,
784,
784,
784,
444,
000,
111,
111,
111,
111,
000,
444,
784,
784,
784,
784,
784,
784,
674,
333,
222,
444,
684,
784,
784,
784,
784,
784,
555,
333,
000,
FFF,
FFF,
FFF,
FFF,
FFF,
FFF,
000,
222,
564,
784,
784,
784,
784,
784,
784,
555,
111,
000,
000,
555,
784,
784,
784,
784,
784,
784,
665,
565,
784,
784,
784,
784,
784,
784,
664,
222,
000,
111,
111,
111,
000,
111,
675,
784,
784,
784,
784,
784,
784,
684,
333,
000,
111,
111,
111,
000,
555,
784,
784,
784,
784,
784,
784,
784,
444,
000,
111,
111,
111,
111,
000,
555,
784,
784,
784,
784,
784,
784,
784,
784,
784,
784,
684,
555,
674,
784,
784,
784,
784,
564,
684,
784,
784,
784,
784,
784,
784,
784,
784,
784,
555,
333,
000,
000,
000,
000,
FFF,
FFF,
000,
555,
784,
784,
784,
784,
784,
784,
784,
555,
000,
111,
111,
111,
111,
FFF,
FFF,
FFF,
FFF,
FFF,
FFF,
FFF,
FFF,
000,
444,
684,
684,
684,
684,
555,
000,
FFF,
FFF,
FFF,
FFF,
FFF,
FFF,
FFF,
FFF,
000,
555,
684,
684,
684,
684,
444,
000,
FFF,
FFF,
FFF,
FFF,
FFF,
FFF,
FFF,
000,
666,
684,
684,
684,
684,
684,
684,
684,
444,
000,
444,
565,
684,
684,
684,
684,
684,
684,
674,
444,
000,
222,
FFF,
FFF,
000,
555,
684,
684,
684,
684,
684,
675,
555,
684,
684,
684,
684,
684,
684,
674,
555,
684,
684,
684,
684,
684,
684,
684,
444,
555,
684,
684,
684,
684,
684,
684,
674,
444,
444,
684,
684,
684,
684,
684,
684,
674,
555,
000,
111,
111,
222,
222,
000,
444,
684,
684,
684,
684,
684,
684,
554,
444,
444,
684,
684,
684,
684,
684,
684,
684,
555,
000,
FFF,
FFF,
FFF,
FFF,
FFF,
FFF,
FFF,
000,
333,
674,
684,
684,
684,
684,
684,
684,
555,
000,
000,
111,
444,
684,
684,
684,
684,
684,
684,
554,
564,
684,
684,
684,
684,
684,
684,
554,
111,
111,
111,
111,
222,
111,
333,
674,
684,
684,
684,
684,
684,
684,
674,
222,
000,
111,
111,
111,
111,
555,
684,
684,
684,
684,
684,
684,
684,
444,
111,
111,
000,
111,
333,
000,
555,
684,
684,
684,
684,
684,
684,
684,
684,
684,
684,
684,
444,
684,
684,
684,
684,
684,
565,
564,
684,
684,
684,
684,
684,
684,
684,
684,
684,
684,
444,
444,
000,
000,
FFF,
FFF,
FFF,
000,
555,
684,
684,
684,
684,
684,
684,
674,
444,
000,
111,
111,
222,
222,
000,
FFF,
FFF,
FFF,
FFF,
FFF,
FFF,
FFF,
000,
555,
674,
674,
674,
674,
444,
000,
FFF,
FFF,
FFF,
FFF,
FFF,
FFF,
FFF,
FFF,
000,
555,
674,
674,
674,
674,
444,
000,
FFF,
FFF,
FFF,
FFF,
FFF,
FFF,
FFF,
000,
444,
674,
674,
674,
674,
674,
674,
674,
555,
000,
444,
674,
674,
674,
674,
674,
674,
674,
555,
000,
111,
FFF,
FFF,
FFF,
000,
555,
674,
674,
674,
674,
674,
454,
444,
674,
674,
674,
674,
674,
674,
565,
444,
674,
674,
674,
674,
674,
674,
674,
444,
665,
674,
674,
674,
674,
674,
674,
565,
333,
555,
674,
674,
674,
674,
674,
674,
674,
674,
674,
674,
674,
674,
444,
111,
444,
674,
674,
674,
674,
674,
674,
564,
674,
674,
674,
674,
674,
674,
674,
674,
444,
000,
000,
FFF,
FFF,
FFF,
FFF,
FFF,
FFF,
FFF,
000,
555,
674,
674,
674,
674,
674,
674,
674,
444,
000,
000,
444,
564,
674,
674,
674,
674,
674,
674,
444,
574,
674,
674,
674,
674,
674,
674,
674,
674,
674,
674,
674,
674,
444,
555,
674,
674,
674,
674,
674,
674,
674,
674,
674,
674,
674,
674,
674,
565,
444,
674,
674,
674,
674,
674,
674,
674,
674,
674,
574,
674,
674,
554,
222,
444,
674,
674,
674,
674,
674,
674,
674,
674,
674,
674,
674,
555,
674,
674,
674,
674,
674,
555,
444,
674,
674,
674,
674,
674,
674,
674,
674,
674,
674,
674,
574,
555,
222,
000,
FFF,
000,
111,
554,
674,
674,
674,
674,
674,
674,
674,
674,
674,
674,
674,
674,
555,
000,
FFF,
FFF,
FFF,
FFF,
FFF,
FFF,
FFF,
000,
555,
564,
564,
564,
564,
444,
000,
FFF,
FFF,
FFF,
FFF,
FFF,
FFF,
FFF,
FFF,
000,
444,
564,
564,
564,
564,
444,
000,
FFF,
FFF,
FFF,
FFF,
FFF,
FFF,
FFF,
000,
444,
564,
564,
564,
564,
564,
564,
564,
333,
222,
444,
564,
564,
564,
564,
564,
564,
554,
444,
000,
FFF,
FFF,
FFF,
FFF,
000,
444,
564,
564,
564,
564,
564,
444,
555,
564,
564,
564,
564,
564,
564,
444,
554,
564,
564,
564,
564,
564,
564,
564,
555,
564,
564,
564,
564,
564,
564,
564,
555,
222,
554,
564,
564,
564,
564,
564,
564,
564,
564,
564,
564,
674,
564,
555,
333,
554,
564,
564,
564,
564,
564,
564,
564,
564,
564,
564,
564,
564,
564,
564,
555,
333,
000,
FFF,
FFF,
FFF,
FFF,
FFF,
FFF,
FFF,
FFF,
000,
444,
564,
564,
564,
564,
564,
564,
564,
444,
000,
000,
444,
564,
564,
564,
564,
564,
564,
564,
444,
564,
564,
564,
564,
564,
564,
564,
564,
564,
564,
564,
564,
564,
444,
555,
564,
564,
564,
564,
564,
564,
564,
564,
564,
564,
564,
564,
564,
444,
444,
564,
564,
564,
564,
564,
564,
564,
564,
564,
564,
564,
564,
555,
222,
555,
564,
564,
564,
564,
564,
564,
564,
564,
564,
564,
564,
555,
564,
564,
564,
564,
564,
444,
333,
444,
564,
564,
564,
564,
564,
564,
564,
564,
564,
564,
564,
564,
555,
111,
000,
000,
444,
554,
564,
564,
564,
564,
564,
564,
564,
564,
564,
564,
564,
564,
444,
000,
FFF,
FFF,
FFF,
FFF,
FFF,
FFF,
FFF,
000,
555,
564,
564,
564,
564,
333,
000,
FFF,
FFF,
FFF,
FFF,
FFF,
FFF,
FFF,
FFF,
000,
555,
564,
564,
564,
564,
444,
000,
FFF,
FFF,
FFF,
FFF,
FFF,
FFF,
FFF,
000,
555,
564,
564,
564,
564,
564,
564,
554,
111,
444,
564,
564,
564,
564,
564,
564,
564,
444,
000,
222,
FFF,
FFF,
FFF,
000,
222,
555,
564,
564,
564,
564,
564,
555,
554,
564,
564,
564,
564,
564,
564,
444,
564,
564,
564,
564,
554,
564,
564,
564,
555,
564,
564,
564,
564,
564,
564,
564,
555,
333,
564,
564,
564,
564,
564,
564,
564,
564,
564,
564,
564,
564,
564,
555,
444,
554,
564,
564,
564,
564,
564,
564,
564,
564,
564,
564,
564,
564,
564,
555,
444,
000,
FFF,
FFF,
FFF,
FFF,
FFF,
FFF,
FFF,
FFF,
000,
111,
565,
564,
564,
564,
564,
564,
564,
444,
111,
000,
000,
555,
564,
564,
564,
564,
564,
564,
554,
444,
564,
564,
564,
564,
564,
564,
564,
564,
564,
564,
564,
564,
564,
444,
555,
564,
564,
564,
564,
564,
564,
564,
564,
564,
564,
564,
564,
564,
555,
554,
564,
564,
564,
564,
564,
564,
564,
564,
564,
564,
564,
564,
555,
333,
554,
564,
564,
564,
564,
564,
564,
564,
564,
564,
564,
564,
554,
564,
564,
564,
564,
554,
555,
000,
444,
554,
564,
564,
564,
564,
564,
564,
564,
564,
564,
564,
564,
564,
444,
000,
000,
555,
564,
564,
564,
564,
564,
564,
564,
564,
564,
564,
564,
564,
564,
444,
000,
FFF,
FFF,
FFF,
FFF,
FFF,
FFF,
FFF,
000,
555,
454,
454,
454,
454,
444,
000,
FFF,
FFF,
FFF,
FFF,
FFF,
FFF,
FFF,
FFF,
000,
555,
454,
454,
454,
454,
555,
000,
FFF,
FFF,
FFF,
FFF,
FFF,
FFF,
111,
111,
454,
454,
454,
454,
454,
454,
454,
555,
111,
666,
454,
454,
454,
454,
454,
454,
454,
555,
000,
FFF,
FFF,
FFF,
FFF,
000,
333,
454,
454,
454,
454,
454,
454,
555,
454,
454,
454,
454,
454,
454,
454,
555,
454,
454,
454,
454,
554,
454,
454,
454,
555,
454,
454,
454,
454,
454,
454,
454,
444,
555,
454,
454,
454,
454,
454,
454,
454,
454,
454,
454,
454,
454,
454,
444,
444,
454,
454,
454,
454,
454,
454,
454,
454,
454,
454,
454,
454,
554,
555,
444,
000,
FFF,
FFF,
FFF,
FFF,
FFF,
FFF,
FFF,
FFF,
FFF,
000,
222,
454,
454,
454,
454,
454,
454,
454,
555,
000,
000,
444,
444,
454,
454,
454,
454,
454,
454,
444,
444,
454,
454,
454,
454,
454,
454,
454,
454,
454,
454,
454,
454,
554,
444,
555,
454,
454,
454,
454,
454,
454,
454,
454,
454,
454,
454,
454,
454,
444,
454,
454,
454,
454,
454,
454,
454,
454,
454,
454,
454,
454,
454,
555,
333,
454,
454,
454,
454,
454,
454,
454,
454,
454,
454,
454,
454,
454,
454,
454,
454,
454,
554,
222,
000,
000,
444,
555,
454,
454,
454,
454,
454,
454,
454,
454,
454,
454,
454,
444,
333,
000,
555,
454,
454,
454,
454,
454,
454,
454,
454,
454,
454,
454,
454,
454,
555,
000,
FFF,
FFF,
FFF,
FFF,
FFF,
FFF,
FFF,
000,
666,
444,
444,
444,
444,
555,
000,
FFF,
FFF,
FFF,
FFF,
FFF,
FFF,
FFF,
FFF,
000,
565,
444,
444,
444,
444,
555,
000,
FFF,
FFF,
FFF,
FFF,
FFF,
FFF,
000,
444,
444,
444,
444,
444,
444,
444,
444,
666,
000,
555,
444,
444,
444,
444,
444,
444,
555,
111,
000,
FFF,
FFF,
FFF,
FFF,
000,
444,
444,
444,
444,
444,
444,
444,
444,
444,
444,
444,
444,
444,
444,
454,
555,
444,
444,
444,
555,
454,
444,
444,
454,
666,
444,
444,
444,
444,
444,
444,
444,
222,
555,
444,
444,
444,
444,
444,
444,
444,
444,
444,
444,
444,
444,
444,
444,
555,
444,
444,
444,
444,
444,
444,
444,
444,
444,
444,
444,
454,
555,
111,
000,
FFF,
FFF,
FFF,
FFF,
FFF,
FFF,
FFF,
FFF,
FFF,
FFF,
000,
444,
454,
444,
444,
444,
444,
444,
444,
444,
000,
000,
444,
444,
444,
444,
444,
444,
444,
444,
555,
555,
444,
444,
444,
444,
444,
444,
444,
444,
444,
444,
444,
444,
444,
333,
444,
444,
444,
444,
444,
444,
444,
444,
444,
444,
444,
444,
444,
444,
444,
444,
444,
444,
444,
444,
444,
444,
444,
444,
444,
444,
444,
444,
555,
555,
444,
444,
444,
444,
444,
444,
444,
444,
444,
444,
444,
444,
444,
444,
444,
444,
444,
444,
111,
000,
222,
000,
333,
444,
444,
444,
444,
444,
444,
444,
444,
444,
444,
444,
444,
555,
000,
555,
444,
444,
444,
444,
444,
444,
444,
444,
444,
444,
444,
444,
444,
333,
000,
FFF,
FFF,
FFF,
FFF,
FFF,
FFF,
FFF,
000,
666,
232,
332,
332,
332,
555,
000,
FFF,
FFF,
FFF,
FFF,
FFF,
FFF,
FFF,
FFF,
000,
555,
343,
343,
343,
343,
555,
000,
FFF,
FFF,
FFF,
FFF,
FFF,
FFF,
000,
555,
454,
454,
454,
454,
454,
454,
454,
555,
333,
555,
454,
454,
454,
454,
454,
454,
444,
000,
FFF,
FFF,
FFF,
FFF,
000,
111,
555,
454,
454,
454,
454,
454,
666,
555,
454,
454,
454,
454,
454,
454,
454,
444,
454,
454,
454,
555,
454,
454,
454,
454,
565,
454,
454,
454,
454,
454,
454,
444,
000,
555,
454,
454,
454,
454,
454,
454,
454,
444,
444,
444,
555,
555,
555,
555,
444,
454,
454,
454,
454,
454,
454,
454,
454,
454,
454,
454,
454,
555,
111,
000,
FFF,
FFF,
FFF,
FFF,
FFF,
FFF,
FFF,
FFF,
FFF,
FFF,
000,
444,
454,
454,
454,
454,
454,
454,
454,
666,
000,
222,
555,
454,
454,
454,
454,
454,
454,
454,
444,
454,
454,
454,
454,
454,
454,
454,
555,
555,
555,
555,
555,
444,
555,
333,
444,
454,
454,
454,
454,
454,
454,
454,
555,
444,
444,
444,
444,
555,
555,
454,
454,
454,
454,
454,
454,
454,
555,
555,
444,
555,
444,
555,
555,
555,
454,
454,
454,
454,
454,
454,
444,
454,
454,
454,
454,
454,
454,
454,
454,
454,
454,
444,
000,
FFF,
FFF,
FFF,
000,
222,
555,
454,
443,
443,
443,
443,
343,
343,
343,
343,
343,
444,
111,
555,
343,
343,
343,
343,
343,
333,
343,
555,
444,
444,
555,
555,
555,
222,
000,
FFF,
FFF,
FFF,
FFF,
FFF,
FFF,
FFF,
000,
555,
232,
232,
232,
232,
444,
000,
FFF,
FFF,
FFF,
FFF,
FFF,
FFF,
FFF,
FFF,
000,
444,
232,
232,
232,
232,
555,
000,
FFF,
FFF,
FFF,
FFF,
FFF,
FFF,
000,
555,
232,
232,
232,
232,
232,
232,
232,
666,
444,
343,
232,
232,
232,
232,
232,
332,
444,
000,
FFF,
FFF,
FFF,
FFF,
000,
555,
343,
232,
232,
232,
232,
232,
555,
555,
232,
232,
232,
232,
232,
232,
444,
232,
232,
232,
232,
555,
232,
232,
232,
343,
343,
232,
232,
232,
232,
232,
332,
444,
111,
444,
232,
232,
232,
232,
232,
232,
333,
333,
000,
000,
000,
000,
000,
333,
454,
232,
232,
232,
232,
232,
232,
444,
232,
232,
232,
232,
232,
343,
666,
000,
FFF,
FFF,
FFF,
FFF,
FFF,
FFF,
FFF,
FFF,
FFF,
FFF,
000,
444,
232,
232,
232,
232,
232,
232,
444,
333,
000,
555,
343,
232,
232,
232,
232,
232,
232,
555,
555,
342,
232,
232,
232,
232,
232,
232,
555,
111,
000,
000,
000,
000,
000,
555,
332,
232,
232,
232,
232,
232,
232,
444,
222,
000,
000,
000,
000,
000,
555,
232,
232,
232,
232,
232,
232,
232,
555,
000,
000,
000,
000,
000,
111,
555,
232,
232,
232,
232,
232,
333,
333,
232,
232,
232,
232,
232,
232,
232,
232,
232,
232,
555,
000,
FFF,
FFF,
FFF,
FFF,
000,
000,
555,
555,
232,
232,
232,
232,
232,
232,
232,
232,
454,
444,
444,
232,
232,
232,
232,
232,
232,
333,
222,
000,
000,
000,
000,
000,
000,
FFF,
FFF,
FFF,
FFF,
FFF,
FFF,
FFF,
FFF,
000,
444,
342,
342,
342,
342,
555,
000,
FFF,
FFF,
FFF,
FFF,
FFF,
FFF,
FFF,
FFF,
000,
444,
342,
342,
342,
342,
555,
000,
FFF,
FFF,
FFF,
FFF,
FFF,
FFF,
000,
555,
342,
342,
342,
342,
342,
342,
342,
444,
444,
343,
342,
342,
342,
342,
342,
454,
444,
000,
FFF,
FFF,
FFF,
000,
222,
555,
342,
342,
342,
342,
342,
454,
222,
444,
342,
342,
342,
342,
342,
342,
342,
342,
342,
342,
443,
444,
342,
342,
342,
342,
342,
342,
342,
342,
342,
342,
343,
444,
333,
444,
342,
342,
342,
342,
342,
342,
443,
222,
000,
FFF,
FFF,
FFF,
000,
444,
343,
342,
342,
342,
342,
342,
342,
555,
342,
342,
342,
342,
342,
342,
666,
000,
111,
FFF,
FFF,
FFF,
FFF,
FFF,
FFF,
FFF,
FFF,
FFF,
000,
444,
342,
342,
342,
342,
342,
342,
555,
000,
222,
444,
342,
342,
342,
342,
342,
342,
444,
444,
444,
342,
342,
342,
342,
342,
342,
342,
555,
000,
FFF,
FFF,
FFF,
FFF,
000,
444,
342,
342,
342,
342,
342,
342,
342,
444,
000,
FFF,
FFF,
FFF,
111,
111,
444,
342,
342,
342,
342,
342,
342,
343,
444,
000,
FFF,
FFF,
FFF,
000,
333,
444,
342,
342,
342,
342,
342,
444,
555,
342,
342,
342,
342,
342,
342,
342,
342,
342,
342,
444,
000,
000,
000,
000,
FFF,
FFF,
000,
000,
555,
555,
342,
342,
342,
342,
342,
342,
342,
444,
555,
343,
342,
342,
342,
342,
342,
342,
444,
000,
FFF,
FFF,
FFF,
FFF,
FFF,
FFF,
FFF,
FFF,
FFF,
FFF,
FFF,
FFF,
FFF,
FFF,
000,
444,
443,
443,
443,
443,
444,
000,
FFF,
FFF,
FFF,
FFF,
FFF,
FFF,
FFF,
FFF,
000,
444,
443,
443,
443,
443,
444,
000,
FFF,
FFF,
FFF,
FFF,
FFF,
111,
222,
555,
443,
443,
443,
443,
443,
443,
444,
222,
444,
443,
443,
443,
443,
443,
443,
444,
222,
000,
FFF,
FFF,
222,
000,
444,
443,
443,
443,
443,
443,
443,
555,
000,
555,
443,
443,
443,
443,
443,
443,
443,
443,
443,
443,
555,
555,
443,
443,
443,
443,
443,
443,
443,
443,
443,
443,
555,
222,
444,
443,
443,
443,
443,
443,
443,
443,
444,
111,
FFF,
FFF,
FFF,
FFF,
000,
555,
443,
443,
443,
443,
443,
443,
443,
555,
443,
443,
443,
443,
443,
443,
444,
444,
000,
FFF,
FFF,
FFF,
FFF,
FFF,
FFF,
FFF,
FFF,
333,
222,
444,
443,
443,
443,
443,
443,
443,
555,
000,
555,
443,
443,
443,
443,
443,
443,
443,
555,
000,
555,
443,
443,
443,
443,
443,
443,
443,
555,
000,
FFF,
FFF,
FFF,
FFF,
000,
555,
443,
443,
443,
443,
443,
443,
443,
444,
000,
FFF,
FFF,
FFF,
000,
333,
343,
443,
443,
443,
443,
443,
443,
555,
222,
000,
FFF,
FFF,
FFF,
000,
333,
444,
443,
443,
443,
443,
443,
444,
444,
443,
443,
443,
443,
443,
443,
443,
443,
443,
443,
222,
000,
444,
555,
000,
000,
FFF,
FFF,
111,
000,
555,
443,
443,
443,
443,
443,
443,
443,
444,
666,
443,
443,
443,
443,
443,
443,
443,
555,
000,
FFF,
FFF,
FFF,
FFF,
FFF,
FFF,
FFF,
FFF,
FFF,
FFF,
FFF,
FFF,
FFF,
FFF,
000,
555,
443,
443,
443,
443,
555,
000,
FFF,
FFF,
FFF,
FFF,
FFF,
FFF,
FFF,
FFF,
000,
555,
443,
443,
443,
443,
555,
000,
FFF,
FFF,
FFF,
FFF,
FFF,
000,
333,
444,
443,
443,
443,
443,
443,
443,
555,
111,
555,
443,
443,
443,
443,
443,
443,
555,
333,
000,
FFF,
000,
000,
555,
444,
443,
443,
443,
443,
443,
444,
444,
000,
554,
443,
443,
443,
443,
443,
443,
443,
443,
443,
443,
444,
444,
443,
443,
443,
443,
443,
443,
443,
443,
443,
443,
555,
000,
444,
443,
443,
443,
443,
443,
443,
443,
555,
000,
FFF,
FFF,
FFF,
FFF,
000,
555,
443,
443,
443,
443,
443,
443,
444,
444,
443,
443,
443,
443,
443,
443,
443,
555,
000,
FFF,
FFF,
FFF,
FFF,
FFF,
FFF,
FFF,
FFF,
000,
444,
443,
443,
443,
443,
443,
443,
443,
555,
222,
444,
443,
443,
443,
443,
443,
443,
555,
333,
111,
444,
443,
443,
443,
443,
443,
443,
443,
555,
000,
FFF,
FFF,
FFF,
111,
000,
555,
443,
443,
443,
443,
443,
443,
443,
555,
000,
FFF,
FFF,
FFF,
000,
444,
443,
443,
443,
443,
443,
443,
443,
555,
000,
222,
FFF,
FFF,
FFF,
000,
555,
443,
443,
443,
443,
443,
443,
444,
333,
443,
443,
443,
443,
443,
443,
443,
443,
443,
554,
111,
333,
555,
544,
555,
000,
000,
FFF,
FFF,
000,
555,
443,
443,
443,
443,
443,
443,
443,
555,
555,
443,
443,
443,
443,
443,
443,
443,
555,
000,
FFF,
FFF,
FFF,
FFF,
FFF,
FFF,
FFF,
FFF,
FFF,
FFF,
FFF,
FFF,
FFF,
FFF,
000,
444,
443,
443,
443,
443,
444,
000,
FFF,
FFF,
FFF,
FFF,
FFF,
FFF,
FFF,
FFF,
111,
555,
443,
443,
443,
443,
555,
000,
FFF,
FFF,
FFF,
FFF,
FFF,
000,
444,
443,
443,
443,
443,
443,
443,
443,
555,
000,
555,
443,
443,
443,
443,
443,
443,
443,
444,
111,
000,
111,
444,
555,
443,
443,
443,
443,
443,
443,
444,
000,
111,
555,
443,
443,
443,
443,
443,
443,
443,
443,
443,
443,
555,
555,
443,
443,
443,
443,
443,
443,
443,
443,
443,
443,
444,
000,
444,
443,
443,
443,
443,
443,
443,
443,
666,
000,
111,
000,
000,
000,
000,
555,
443,
443,
443,
443,
443,
443,
555,
333,
544,
443,
443,
443,
443,
443,
443,
444,
333,
FFF,
FFF,
FFF,
FFF,
FFF,
FFF,
FFF,
FFF,
000,
444,
443,
443,
443,
443,
443,
443,
444,
333,
444,
443,
443,
443,
443,
443,
443,
443,
555,
000,
222,
555,
443,
443,
443,
443,
443,
443,
444,
333,
000,
000,
000,
000,
000,
333,
444,
443,
443,
443,
443,
443,
443,
443,
444,
000,
FFF,
FFF,
FFF,
000,
444,
443,
443,
443,
443,
443,
443,
443,
555,
000,
111,
000,
000,
000,
000,
555,
443,
443,
443,
443,
443,
443,
444,
333,
443,
443,
443,
443,
443,
443,
443,
443,
443,
555,
000,
666,
443,
443,
443,
444,
444,
000,
000,
222,
555,
443,
443,
443,
443,
443,
443,
443,
555,
555,
443,
443,
443,
443,
443,
443,
443,
444,
000,
000,
000,
000,
000,
111,
FFF,
FFF,
FFF,
FFF,
FFF,
FFF,
FFF,
FFF,
FFF,
000,
555,
443,
443,
443,
443,
555,
000,
FFF,
FFF,
FFF,
FFF,
FFF,
FFF,
FFF,
FFF,
111,
444,
443,
443,
443,
443,
555,
000,
FFF,
FFF,
FFF,
FFF,
FFF,
000,
444,
443,
443,
443,
443,
443,
443,
443,
444,
000,
555,
443,
443,
443,
443,
443,
443,
443,
544,
555,
444,
555,
444,
443,
443,
443,
443,
443,
443,
444,
444,
000,
222,
555,
443,
443,
443,
443,
443,
443,
443,
443,
443,
555,
444,
554,
443,
443,
443,
443,
443,
443,
443,
443,
443,
544,
555,
111,
444,
443,
443,
443,
443,
443,
443,
443,
444,
000,
111,
333,
444,
444,
333,
444,
443,
443,
443,
443,
443,
443,
555,
000,
666,
443,
443,
443,
443,
443,
443,
443,
666,
000,
FFF,
FFF,
FFF,
FFF,
FFF,
FFF,
FFF,
000,
555,
443,
443,
443,
443,
443,
443,
544,
555,
544,
443,
443,
443,
443,
443,
443,
444,
111,
000,
444,
444,
443,
443,
443,
443,
443,
443,
544,
222,
111,
222,
333,
444,
444,
666,
444,
443,
443,
443,
443,
443,
443,
443,
444,
000,
FFF,
FFF,
FFF,
000,
555,
443,
443,
443,
443,
443,
443,
443,
444,
000,
111,
333,
555,
444,
333,
444,
443,
443,
443,
443,
443,
443,
555,
222,
444,
443,
443,
443,
443,
443,
443,
443,
443,
555,
333,
555,
443,
443,
443,
443,
555,
555,
555,
555,
443,
443,
443,
443,
443,
443,
443,
443,
555,
544,
443,
443,
443,
443,
443,
443,
444,
333,
111,
111,
333,
555,
444,
111,
FFF,
FFF,
FFF,
FFF,
FFF,
FFF,
FFF,
FFF,
FFF,
000,
555,
433,
433,
433,
433,
444,
222,
000,
FFF,
FFF,
FFF,
FFF,
FFF,
FFF,
000,
666,
433,
433,
433,
433,
433,
444,
000,
FFF,
FFF,
FFF,
FFF,
FFF,
000,
666,
433,
433,
433,
433,
433,
433,
433,
555,
000,
444,
443,
433,
433,
433,
433,
433,
433,
433,
433,
433,
433,
433,
433,
433,
433,
433,
433,
555,
444,
000,
222,
444,
544,
433,
433,
433,
433,
433,
433,
433,
433,
433,
555,
555,
443,
433,
433,
433,
433,
433,
433,
433,
433,
433,
444,
111,
222,
444,
433,
433,
433,
433,
433,
433,
444,
555,
444,
555,
443,
433,
544,
555,
433,
433,
433,
433,
433,
433,
433,
555,
000,
555,
443,
433,
433,
433,
433,
433,
433,
555,
222,
FFF,
FFF,
FFF,
FFF,
FFF,
FFF,
FFF,
000,
555,
433,
433,
433,
433,
433,
433,
555,
444,
433,
433,
433,
433,
433,
433,
555,
222,
000,
000,
555,
433,
433,
433,
433,
433,
433,
433,
555,
555,
544,
444,
433,
433,
555,
444,
433,
433,
433,
433,
433,
433,
433,
555,
222,
111,
FFF,
FFF,
222,
111,
555,
433,
433,
433,
433,
433,
433,
433,
444,
555,
554,
443,
433,
443,
555,
555,
433,
433,
433,
433,
433,
544,
333,
111,
444,
433,
433,
433,
433,
433,
433,
433,
433,
555,
555,
433,
433,
433,
433,
433,
433,
433,
433,
433,
433,
433,
433,
433,
433,
433,
433,
544,
555,
443,
433,
433,
433,
433,
433,
433,
444,
555,
555,
544,
433,
433,
544,
111,
FFF,
FFF,
FFF,
FFF,
FFF,
FFF,
FFF,
FFF,
FFF,
000,
555,
543,
543,
543,
543,
543,
555,
000,
FFF,
FFF,
FFF,
FFF,
FFF,
000,
111,
444,
543,
543,
543,
543,
543,
666,
000,
333,
333,
FFF,
FFF,
000,
222,
555,
543,
543,
543,
543,
543,
543,
543,
555,
000,
444,
544,
543,
543,
543,
543,
543,
543,
543,
543,
543,
543,
543,
543,
543,
543,
543,
555,
666,
000,
FFF,
000,
444,
554,
543,
543,
543,
543,
543,
543,
543,
543,
544,
666,
555,
543,
543,
543,
543,
543,
543,
543,
543,
543,
543,
444,
000,
555,
554,
543,
543,
543,
543,
543,
543,
543,
543,
543,
543,
543,
543,
554,
444,
543,
543,
543,
543,
543,
543,
544,
555,
000,
444,
554,
543,
543,
543,
543,
543,
543,
554,
444,
000,
FFF,
FFF,
FFF,
FFF,
FFF,
111,
111,
555,
543,
543,
543,
543,
543,
543,
554,
543,
543,
543,
543,
543,
543,
554,
333,
000,
FFF,
000,
555,
543,
543,
543,
543,
543,
543,
543,
543,
543,
543,
543,
543,
543,
444,
444,
543,
543,
543,
543,
543,
543,
543,
555,
000,
FFF,
FFF,
FFF,
000,
333,
554,
543,
543,
543,
543,
543,
543,
543,
543,
543,
543,
543,
543,
554,
555,
554,
543,
543,
543,
543,
543,
444,
111,
000,
444,
543,
543,
543,
543,
543,
543,
543,
543,
555,
444,
543,
543,
543,
543,
543,
543,
543,
543,
543,
543,
543,
543,
543,
543,
543,
543,
555,
555,
544,
543,
543,
543,
543,
543,
543,
543,
543,
543,
543,
543,
543,
555,
111,
FFF,
FFF,
FFF,
FFF,
FFF,
FFF,
FFF,
FFF,
FFF,
000,
555,
564,
564,
564,
564,
564,
555,
444,
000,
000,
000,
000,
000,
222,
555,
554,
564,
564,
564,
564,
564,
555,
000,
222,
000,
000,
FFF,
000,
444,
564,
564,
564,
564,
564,
564,
564,
554,
555,
000,
333,
444,
564,
564,
564,
564,
564,
564,
564,
564,
564,
564,
564,
564,
564,
564,
554,
555,
000,
111,
FFF,
000,
555,
564,
564,
564,
564,
564,
564,
564,
564,
564,
554,
444,
444,
564,
564,
564,
564,
564,
564,
564,
564,
564,
564,
444,
000,
444,
564,
564,
564,
564,
564,
564,
564,
564,
564,
564,
564,
564,
564,
555,
555,
564,
564,
564,
564,
564,
564,
555,
333,
000,
111,
555,
564,
564,
564,
564,
564,
564,
564,
555,
000,
FFF,
FFF,
FFF,
FFF,
FFF,
000,
222,
554,
564,
564,
564,
564,
564,
564,
564,
564,
564,
564,
564,
564,
555,
555,
000,
FFF,
222,
111,
666,
564,
564,
564,
564,
564,
564,
564,
564,
564,
564,
564,
564,
564,
444,
444,
564,
564,
564,
564,
564,
564,
564,
555,
000,
FFF,
FFF,
FFF,
000,
444,
564,
564,
564,
564,
564,
564,
564,
564,
564,
564,
564,
564,
564,
554,
444,
564,
564,
564,
564,
564,
564,
555,
000,
000,
555,
564,
564,
564,
564,
564,
564,
564,
554,
555,
564,
564,
564,
564,
564,
564,
564,
564,
564,
564,
564,
564,
564,
564,
564,
564,
555,
444,
555,
564,
564,
564,
564,
564,
564,
564,
564,
564,
564,
564,
564,
564,
555,
000,
FFF,
FFF,
FFF,
FFF,
FFF,
FFF,
FFF,
FFF,
FFF,
000,
555,
674,
674,
674,
674,
674,
674,
564,
444,
444,
444,
444,
444,
555,
674,
674,
674,
674,
674,
674,
674,
554,
555,
565,
666,
000,
FFF,
000,
555,
674,
674,
674,
674,
674,
674,
674,
565,
333,
000,
000,
555,
674,
674,
674,
674,
674,
674,
674,
674,
674,
674,
674,
674,
674,
554,
555,
000,
000,
FFF,
FFF,
000,
666,
674,
674,
674,
674,
674,
674,
674,
674,
674,
554,
222,
555,
674,
674,
674,
674,
674,
674,
674,
674,
674,
674,
555,
000,
555,
674,
674,
674,
674,
674,
674,
674,
674,
674,
674,
674,
674,
674,
565,
555,
674,
674,
674,
674,
674,
674,
565,
111,
000,
000,
555,
674,
674,
674,
674,
674,
674,
674,
554,
111,
FFF,
FFF,
FFF,
FFF,
FFF,
000,
444,
674,
674,
674,
674,
674,
674,
674,
674,
674,
674,
674,
674,
555,
555,
000,
FFF,
FFF,
000,
222,
565,
674,
674,
674,
674,
674,
674,
674,
674,
674,
674,
674,
674,
674,
444,
565,
674,
674,
674,
674,
674,
674,
674,
555,
000,
FFF,
FFF,
FFF,
000,
555,
674,
674,
674,
674,
674,
674,
674,
674,
674,
674,
674,
674,
674,
665,
555,
674,
674,
674,
674,
674,
674,
444,
000,
000,
555,
674,
674,
674,
674,
674,
674,
674,
565,
555,
674,
674,
674,
674,
674,
674,
674,
674,
674,
674,
674,
674,
674,
674,
674,
564,
555,
000,
555,
674,
674,
674,
674,
674,
674,
674,
674,
674,
674,
674,
674,
674,
555,
000,
FFF,
FFF,
FFF,
FFF,
FFF,
FFF,
FFF,
FFF,
FFF,
000,
555,
685,
685,
685,
685,
685,
685,
685,
685,
685,
685,
685,
685,
685,
685,
685,
685,
685,
685,
685,
685,
685,
685,
685,
444,
000,
FFF,
000,
555,
685,
685,
685,
685,
685,
685,
685,
554,
222,
FFF,
000,
555,
554,
685,
685,
685,
685,
685,
685,
685,
685,
685,
685,
685,
555,
555,
000,
000,
FFF,
FFF,
FFF,
000,
666,
685,
685,
685,
685,
685,
685,
685,
685,
685,
555,
000,
555,
685,
685,
685,
685,
685,
685,
685,
685,
685,
685,
222,
000,
555,
685,
685,
685,
685,
685,
685,
685,
685,
685,
685,
685,
685,
685,
665,
675,
685,
685,
685,
685,
685,
685,
555,
000,
FFF,
000,
555,
675,
685,
685,
685,
685,
685,
685,
555,
111,
FFF,
FFF,
FFF,
FFF,
FFF,
000,
555,
685,
685,
685,
685,
685,
685,
685,
685,
685,
685,
675,
666,
444,
000,
111,
FFF,
FFF,
000,
555,
675,
685,
685,
685,
685,
685,
685,
685,
685,
685,
685,
685,
685,
685,
555,
685,
685,
685,
685,
685,
685,
685,
685,
444,
000,
FFF,
FFF,
FFF,
000,
555,
685,
685,
685,
685,
685,
685,
685,
685,
685,
685,
685,
685,
685,
665,
565,
685,
685,
685,
685,
685,
685,
666,
000,
000,
666,
685,
685,
685,
685,
685,
685,
685,
554,
222,
555,
685,
685,
685,
685,
685,
685,
685,
685,
685,
685,
685,
685,
685,
685,
444,
000,
222,
666,
685,
685,
685,
685,
685,
685,
685,
685,
685,
685,
685,
685,
685,
555,
000,
FFF,
FFF,
FFF,
FFF,
FFF,
FFF,
FFF,
FFF,
FFF,
000,
444,
7A5,
7A5,
7A5,
7A5,
555,
7A5,
7A5,
7A5,
7A5,
7A5,
7A5,
7A5,
7A5,
7A5,
7A5,
555,
7A5,
7A5,
7A5,
7A5,
7A5,
7A5,
7A5,
444,
000,
222,
111,
555,
7A5,
7A5,
7A5,
7A5,
7A5,
7A5,
7A5,
665,
111,
FFF,
FFF,
000,
444,
686,
7A5,
7A5,
7A5,
7A5,
7A5,
7A5,
7A5,
7A5,
685,
555,
333,
000,
FFF,
FFF,
FFF,
FFF,
FFF,
000,
444,
7A5,
7A5,
7A5,
7A5,
7A5,
7A5,
7A5,
685,
564,
555,
000,
666,
7A5,
7A5,
7A5,
7A5,
685,
565,
565,
555,
555,
444,
000,
222,
665,
7A5,
7A5,
7A5,
7A5,
7A5,
7A5,
7A5,
7A5,
685,
565,
555,
555,
555,
555,
7A5,
7A5,
7A5,
7A5,
7A5,
695,
565,
555,
FFF,
FFF,
000,
222,
666,
7A5,
7A5,
575,
454,
555,
333,
111,
000,
FFF,
FFF,
FFF,
FFF,
FFF,
000,
555,
7A5,
7A5,
7A5,
7A5,
7A5,
7A5,
7A5,
7A5,
675,
555,
444,
000,
000,
FFF,
FFF,
FFF,
FFF,
000,
444,
7A5,
7A5,
7A5,
7A5,
7A5,
7A5,
7A5,
7A5,
695,
685,
565,
555,
555,
555,
555,
7A5,
7A5,
7A5,
7A5,
7A5,
7A5,
7A5,
575,
555,
000,
FFF,
FFF,
FFF,
111,
454,
7A5,
7A5,
7A5,
7A5,
7A5,
7A5,
7A5,
7A5,
685,
675,
554,
555,
555,
555,
675,
7A5,
7A5,
7A5,
7A5,
7A5,
675,
333,
000,
000,
555,
7A5,
7A5,
7A5,
7A5,
7A5,
685,
565,
666,
111,
222,
555,
685,
7A5,
7A5,
7A5,
7A5,
7A5,
7A5,
7A5,
7A5,
7A5,
695,
555,
444,
000,
000,
555,
695,
7A5,
7A5,
7A5,
7A5,
7A5,
7A5,
7A5,
695,
685,
675,
565,
444,
555,
444,
000,
FFF,
FFF,
FFF,
FFF,
FFF,
FFF,
FFF,
FFF,
FFF,
000,
555,
7B5,
7B5,
7B5,
7B5,
555,
454,
7B5,
7B5,
7B5,
7B5,
7B5,
7B5,
7B5,
7A5,
555,
222,
565,
7B5,
7B5,
7B5,
7B5,
7B5,
7A5,
555,
000,
111,
222,
675,
7B5,
7B5,
685,
665,
565,
444,
444,
555,
000,
FFF,
FFF,
000,
000,
555,
555,
6A5,
7B5,
7B5,
7B5,
7B5,
575,
454,
444,
111,
000,
FFF,
FFF,
FFF,
FFF,
FFF,
FFF,
000,
565,
7B5,
7A5,
685,
565,
555,
555,
555,
555,
222,
000,
000,
555,
565,
444,
444,
444,
555,
222,
111,
000,
000,
000,
000,
333,
695,
7B5,
7A5,
685,
676,
666,
666,
444,
666,
444,
222,
000,
000,
000,
555,
7A5,
7A5,
675,
555,
555,
555,
222,
000,
FFF,
FFF,
FFF,
000,
444,
444,
555,
444,
000,
000,
000,
111,
FFF,
FFF,
FFF,
FFF,
FFF,
FFF,
000,
554,
7B5,
7B5,
7B5,
7B5,
7B5,
685,
565,
555,
555,
000,
000,
111,
FFF,
FFF,
FFF,
FFF,
FFF,
000,
555,
7B5,
7B5,
7A5,
675,
554,
454,
444,
444,
444,
444,
111,
000,
000,
111,
444,
7B5,
7B5,
685,
565,
555,
555,
555,
444,
000,
111,
FFF,
FFF,
FFF,
222,
675,
7B5,
7B5,
685,
665,
554,
555,
555,
555,
444,
222,
111,
000,
000,
555,
6A5,
7B5,
7B5,
695,
665,
555,
666,
000,
FFF,
000,
444,
7A5,
685,
454,
555,
555,
444,
222,
000,
000,
000,
000,
555,
555,
695,
7B5,
7B5,
7B5,
7B5,
7A5,
675,
555,
444,
222,
000,
FFF,
000,
555,
7A5,
7B5,
7A5,
675,
554,
554,
555,
555,
555,
444,
111,
000,
000,
000,
000,
FFF,
FFF,
FFF,
FFF,
FFF,
FFF,
FFF,
FFF,
FFF,
FFF,
000,
555,
7A5,
7A5,
7A5,
7A5,
444,
333,
444,
444,
685,
795,
695,
675,
555,
444,
222,
000,
555,
555,
675,
795,
685,
444,
555,
111,
000,
111,
222,
555,
555,
444,
444,
111,
000,
000,
000,
000,
111,
FFF,
FFF,
FFF,
000,
000,
111,
555,
555,
555,
444,
444,
555,
000,
000,
000,
FFF,
FFF,
FFF,
FFF,
FFF,
FFF,
FFF,
000,
555,
555,
555,
444,
111,
000,
000,
000,
000,
000,
111,
000,
000,
000,
000,
000,
000,
000,
000,
111,
FFF,
FFF,
FFF,
000,
444,
444,
444,
555,
444,
222,
000,
000,
000,
000,
000,
000,
111,
FFF,
000,
555,
444,
555,
444,
000,
000,
000,
000,
111,
FFF,
FFF,
FFF,
000,
000,
000,
000,
000,
111,
FFF,
FFF,
FFF,
FFF,
FFF,
FFF,
FFF,
FFF,
FFF,
000,
666,
555,
666,
555,
444,
444,
555,
222,
000,
000,
000,
FFF,
FFF,
FFF,
FFF,
FFF,
FFF,
FFF,
000,
444,
444,
555,
444,
222,
000,
000,
000,
000,
000,
000,
111,
FFF,
FFF,
111,
666,
555,
555,
444,
111,
000,
000,
000,
000,
111,
FFF,
FFF,
FFF,
FFF,
222,
555,
555,
555,
444,
222,
000,
000,
000,
000,
000,
000,
111,
FFF,
000,
555,
555,
555,
555,
555,
111,
000,
000,
000,
FFF,
000,
222,
555,
444,
111,
000,
000,
000,
000,
222,
FFF,
FFF,
000,
000,
222,
444,
555,
444,
444,
666,
555,
444,
000,
000,
000,
FFF,
FFF,
000,
444,
444,
444,
333,
444,
111,
000,
000,
000,
000,
000,
000,
111,
FFF,
FFF,
FFF,
FFF,
FFF,
FFF,
FFF,
FFF,
FFF,
FFF,
FFF,
FFF,
FFF,
000,
555,
695,
695,
695,
695,
555,
000,
000,
222,
444,
444,
444,
333,
111,
000,
000,
FFF,
000,
111,
333,
444,
444,
222,
000,
000,
FFF,
FFF,
000,
000,
000,
000,
000,
111,
FFF,
FFF,
FFF,
FFF,
FFF,
FFF,
FFF,
FFF,
FFF,
FFF,
000,
000,
000,
000,
000,
000,
000,
FFF,
FFF,
FFF,
FFF,
FFF,
FFF,
FFF,
FFF,
FFF,
FFF,
222,
000,
000,
000,
000,
111,
FFF,
FFF,
FFF,
FFF,
FFF,
FFF,
FFF,
FFF,
FFF,
FFF,
FFF,
FFF,
FFF,
FFF,
FFF,
FFF,
FFF,
FFF,
FFF,
000,
000,
000,
000,
000,
FFF,
FFF,
FFF,
FFF,
FFF,
FFF,
FFF,
FFF,
FFF,
111,
000,
000,
000,
000,
111,
FFF,
FFF,
FFF,
FFF,
FFF,
FFF,
FFF,
FFF,
FFF,
FFF,
FFF,
FFF,
FFF,
FFF,
FFF,
FFF,
FFF,
FFF,
FFF,
FFF,
FFF,
FFF,
111,
000,
000,
000,
000,
000,
000,
000,
000,
FFF,
FFF,
FFF,
FFF,
FFF,
FFF,
FFF,
FFF,
FFF,
FFF,
222,
000,
000,
000,
000,
000,
222,
FFF,
FFF,
FFF,
FFF,
FFF,
FFF,
FFF,
FFF,
000,
000,
000,
000,
000,
111,
FFF,
FFF,
FFF,
FFF,
FFF,
FFF,
FFF,
FFF,
FFF,
000,
000,
000,
000,
000,
111,
FFF,
FFF,
FFF,
FFF,
FFF,
FFF,
FFF,
FFF,
111,
000,
000,
000,
000,
000,
111,
FFF,
FFF,
FFF,
FFF,
FFF,
000,
000,
000,
111,
FFF,
FFF,
FFF,
FFF,
FFF,
FFF,
FFF,
FFF,
FFF,
000,
000,
000,
000,
000,
000,
000,
000,
111,
FFF,
FFF,
FFF,
FFF,
FFF,
000,
000,
000,
000,
000,
222,
FFF,
FFF,
FFF,
FFF,
FFF,
FFF,
FFF,
FFF,
FFF,
FFF,
FFF,
FFF,
FFF,
FFF,
FFF,
FFF,
FFF,
FFF,
FFF,
FFF,
000,
555,
685,
685,
685,
685,
555,
000,
FFF,
111,
000,
000,
000,
000,
222,
FFF,
FFF,
FFF,
FFF,
111,
000,
000,
000,
111,
FFF,
FFF,
FFF,
FFF,
FFF,
FFF,
FFF,
FFF,
FFF,
FFF,
FFF,
FFF,
FFF,
FFF,
FFF,
FFF,
FFF,
FFF,
FFF,
FFF,
FFF,
FFF,
FFF,
FFF,
FFF,
FFF,
FFF,
FFF,
FFF,
FFF,
FFF,
FFF,
FFF,
FFF,
FFF,
FFF,
FFF,
FFF,
FFF,
FFF,
FFF,
FFF,
FFF,
FFF,
FFF,
FFF,
FFF,
FFF,
FFF,
FFF,
FFF,
FFF,
FFF,
FFF,
FFF,
FFF,
FFF,
FFF,
FFF,
FFF,
FFF,
FFF,
FFF,
FFF,
FFF,
FFF,
FFF,
FFF,
FFF,
FFF,
FFF,
FFF,
FFF,
FFF,
FFF,
FFF,
FFF,
FFF,
FFF,
FFF,
FFF,
FFF,
FFF,
FFF,
FFF,
FFF,
FFF,
FFF,
FFF,
FFF,
FFF,
FFF,
FFF,
FFF,
FFF,
FFF,
FFF,
FFF,
FFF,
FFF,
FFF,
FFF,
FFF,
FFF,
FFF,
FFF,
FFF,
FFF,
FFF,
FFF,
FFF,
FFF,
FFF,
FFF,
FFF,
FFF,
FFF,
FFF,
FFF,
FFF,
FFF,
FFF,
FFF,
FFF,
FFF,
FFF,
FFF,
FFF,
FFF,
FFF,
FFF,
FFF,
FFF,
FFF,
FFF,
FFF,
FFF,
FFF,
FFF,
FFF,
FFF,
FFF,
FFF,
FFF,
FFF,
FFF,
FFF,
FFF,
FFF,
FFF,
FFF,
FFF,
FFF,
FFF,
FFF,
FFF,
FFF,
FFF,
FFF,
FFF,
FFF,
FFF,
FFF,
FFF,
FFF,
FFF,
FFF,
FFF,
FFF,
FFF,
FFF,
FFF,
FFF,
FFF,
FFF,
FFF,
FFF,
FFF,
FFF,
FFF,
FFF,
FFF,
FFF,
FFF,
FFF,
FFF,
FFF,
FFF,
FFF,
FFF,
FFF,
FFF,
FFF,
FFF,
FFF,
FFF,
FFF,
FFF,
FFF,
FFF,
FFF,
FFF,
FFF,
FFF,
FFF,
FFF,
FFF,
FFF,
FFF,
FFF,
FFF,
FFF,
FFF,
FFF,
FFF,
FFF,
FFF,
FFF,
FFF,
FFF,
FFF,
FFF,
FFF,
FFF,
FFF,
FFF,
FFF,
FFF,
FFF,
FFF,
FFF,
FFF,
000,
555,
675,
675,
675,
675,
555,
000,
FFF,
FFF,
FFF,
FFF,
FFF,
FFF,
FFF,
FFF,
FFF,
FFF,
FFF,
FFF,
FFF,
FFF,
FFF,
FFF,
FFF,
FFF,
FFF,
FFF,
FFF,
FFF,
FFF,
FFF,
FFF,
FFF,
FFF,
FFF,
FFF,
FFF,
FFF,
FFF,
FFF,
FFF,
FFF,
FFF,
FFF,
FFF,
FFF,
FFF,
FFF,
FFF,
FFF,
FFF,
FFF,
FFF,
FFF,
FFF,
FFF,
FFF,
FFF,
FFF,
FFF,
FFF,
FFF,
FFF,
FFF,
FFF,
FFF,
FFF,
FFF,
FFF,
FFF,
FFF,
FFF,
FFF,
FFF,
FFF,
FFF,
FFF,
FFF,
FFF,
FFF,
FFF,
FFF,
FFF,
FFF,
FFF,
FFF,
FFF,
FFF,
FFF,
FFF,
FFF,
FFF,
FFF,
FFF,
FFF,
FFF,
FFF,
FFF,
FFF,
FFF,
FFF,
FFF,
FFF,
FFF,
FFF,
FFF,
FFF,
FFF,
FFF,
FFF,
FFF,
FFF,
FFF,
FFF,
FFF,
FFF,
FFF,
FFF,
FFF,
FFF,
FFF,
FFF,
FFF,
FFF,
FFF,
FFF,
FFF,
FFF,
FFF,
FFF,
FFF,
FFF,
FFF,
FFF,
FFF,
FFF,
FFF,
FFF,
FFF,
FFF,
FFF,
FFF,
FFF,
FFF,
FFF,
FFF,
FFF,
FFF,
FFF,
FFF,
FFF,
FFF,
FFF,
FFF,
FFF,
FFF,
FFF,
FFF,
FFF,
FFF,
FFF,
FFF,
FFF,
FFF,
FFF,
FFF,
FFF,
FFF,
FFF,
FFF,
FFF,
FFF,
FFF,
FFF,
FFF,
FFF,
FFF,
FFF,
FFF,
FFF,
FFF,
FFF,
FFF,
FFF,
FFF,
FFF,
FFF,
FFF,
FFF,
FFF,
FFF,
FFF,
FFF,
FFF,
FFF,
FFF,
FFF,
FFF,
FFF,
FFF,
FFF,
FFF,
FFF,
FFF,
FFF,
FFF,
FFF,
FFF,
FFF,
FFF,
FFF,
FFF,
FFF,
FFF,
FFF,
FFF,
FFF,
FFF,
FFF,
FFF,
FFF,
FFF,
FFF,
FFF,
FFF,
FFF,
FFF,
FFF,
FFF,
FFF,
FFF,
FFF,
FFF,
FFF,
FFF,
FFF,
FFF,
FFF,
FFF,
FFF,
FFF,
FFF,
FFF,
FFF,
FFF,
FFF,
FFF,
FFF,
FFF,
FFF,
FFF,
FFF,
FFF,
FFF,
FFF,
000,
555,
565,
565,
565,
565,
555,
000,
FFF,
FFF,
FFF,
FFF,
FFF,
FFF,
FFF,
FFF,
FFF,
FFF,
FFF,
FFF,
FFF,
FFF,
FFF,
FFF,
FFF,
FFF,
FFF,
FFF,
FFF,
FFF,
FFF,
FFF,
FFF,
FFF,
FFF,
FFF,
FFF,
FFF,
FFF,
FFF,
FFF,
FFF,
FFF,
FFF,
FFF,
FFF,
FFF,
FFF,
FFF,
FFF,
FFF,
FFF,
FFF,
FFF,
FFF,
FFF,
FFF,
FFF,
FFF,
FFF,
FFF,
FFF,
FFF,
FFF,
FFF,
FFF,
FFF,
FFF,
FFF,
FFF,
FFF,
FFF,
FFF,
FFF,
FFF,
FFF,
FFF,
FFF,
FFF,
FFF,
FFF,
FFF,
FFF,
FFF,
FFF,
FFF,
FFF,
FFF,
FFF,
FFF,
FFF,
FFF,
FFF,
FFF,
FFF,
FFF,
FFF,
FFF,
FFF,
FFF,
FFF,
FFF,
FFF,
FFF,
FFF,
FFF,
FFF,
FFF,
FFF,
FFF,
FFF,
FFF,
FFF,
FFF,
FFF,
FFF,
FFF,
FFF,
FFF,
FFF,
FFF,
FFF,
FFF,
FFF,
FFF,
FFF,
FFF,
FFF,
FFF,
FFF,
FFF,
FFF,
FFF,
FFF,
FFF,
FFF,
FFF,
FFF,
FFF,
FFF,
FFF,
FFF,
FFF,
FFF,
FFF,
FFF,
FFF,
FFF,
FFF,
FFF,
FFF,
FFF,
FFF,
FFF,
FFF,
FFF,
FFF,
FFF,
FFF,
FFF,
FFF,
FFF,
FFF,
FFF,
FFF,
FFF,
FFF,
FFF,
FFF,
FFF,
FFF,
FFF,
FFF,
FFF,
FFF,
FFF,
FFF,
FFF,
FFF,
FFF,
FFF,
FFF,
FFF,
FFF,
FFF,
FFF,
FFF,
FFF,
FFF,
FFF,
FFF,
FFF,
FFF,
FFF,
FFF,
FFF,
FFF,
FFF,
FFF,
FFF,
FFF,
FFF,
FFF,
FFF,
FFF,
FFF,
FFF,
FFF,
FFF,
FFF,
FFF,
FFF,
FFF,
FFF,
FFF,
FFF,
FFF,
FFF,
FFF,
FFF,
FFF,
FFF,
FFF,
FFF,
FFF,
FFF,
FFF,
FFF,
FFF,
FFF,
FFF,
FFF,
FFF,
FFF,
FFF,
FFF,
FFF,
FFF,
FFF,
FFF,
FFF,
FFF,
FFF,
FFF,
FFF,
FFF,
FFF,
FFF,
FFF,
FFF,
FFF,
FFF,
FFF,
FFF,
FFF,
FFF,
000,
555,
565,
565,
565,
565,
555,
000,
FFF,
FFF,
FFF,
FFF,
FFF,
FFF,
FFF,
FFF,
FFF,
FFF,
FFF,
FFF,
FFF,
FFF,
FFF,
FFF,
FFF,
FFF,
FFF,
FFF,
FFF,
FFF,
FFF,
FFF,
FFF,
FFF,
FFF,
FFF,
FFF,
FFF,
FFF,
FFF,
FFF,
FFF,
FFF,
FFF,
FFF,
FFF,
FFF,
FFF,
FFF,
FFF,
FFF,
FFF,
FFF,
FFF,
FFF,
FFF,
FFF,
FFF,
FFF,
FFF,
FFF,
FFF,
FFF,
FFF,
FFF,
FFF,
FFF,
FFF,
FFF,
FFF,
FFF,
FFF,
FFF,
FFF,
FFF,
FFF,
FFF,
FFF,
FFF,
FFF,
FFF,
FFF,
FFF,
FFF,
FFF,
FFF,
FFF,
FFF,
FFF,
FFF,
FFF,
FFF,
FFF,
FFF,
FFF,
FFF,
FFF,
FFF,
FFF,
FFF,
FFF,
FFF,
FFF,
FFF,
FFF,
FFF,
FFF,
FFF,
FFF,
FFF,
FFF,
FFF,
FFF,
FFF,
FFF,
FFF,
FFF,
FFF,
FFF,
FFF,
FFF,
FFF,
FFF,
FFF,
FFF,
FFF,
FFF,
FFF,
FFF,
FFF,
FFF,
FFF,
FFF,
FFF,
FFF,
FFF,
FFF,
FFF,
FFF,
FFF,
FFF,
FFF,
FFF,
FFF,
FFF,
FFF,
FFF,
FFF,
FFF,
FFF,
FFF,
FFF,
FFF,
FFF,
FFF,
FFF,
FFF,
FFF,
FFF,
FFF,
FFF,
FFF,
FFF,
FFF,
FFF,
FFF,
FFF,
FFF,
FFF,
FFF,
FFF,
FFF,
FFF,
FFF,
FFF,
FFF,
FFF,
FFF,
FFF,
FFF,
FFF,
FFF,
FFF,
FFF,
FFF,
FFF,
FFF,
FFF,
FFF,
FFF,
FFF,
FFF,
FFF,
FFF,
FFF,
FFF,
FFF,
FFF,
FFF,
FFF,
FFF,
FFF,
FFF,
FFF,
FFF,
FFF,
FFF,
FFF,
FFF,
FFF,
FFF,
FFF,
FFF,
FFF,
FFF,
FFF,
FFF,
FFF,
FFF,
FFF,
FFF,
FFF,
FFF,
FFF,
FFF,
FFF,
FFF,
FFF,
FFF,
FFF,
FFF,
FFF,
FFF,
FFF,
FFF,
FFF,
FFF,
FFF,
FFF,
FFF,
FFF,
FFF,
FFF,
FFF,
FFF,
FFF,
FFF,
FFF,
FFF,
FFF,
FFF,
FFF,
FFF,
FFF,
FFF,
FFF,
000,
555,
564,
564,
564,
564,
555,
000,
FFF,
FFF,
FFF,
FFF,
FFF,
FFF,
FFF,
FFF,
FFF,
FFF,
FFF,
FFF,
FFF,
FFF,
FFF,
FFF,
FFF,
FFF,
FFF,
FFF,
FFF,
FFF,
FFF,
FFF,
FFF,
FFF,
FFF,
FFF,
FFF,
FFF,
FFF,
FFF,
FFF,
FFF,
FFF,
FFF,
FFF,
FFF,
FFF,
FFF,
FFF,
FFF,
FFF,
FFF,
FFF,
FFF,
FFF,
FFF,
FFF,
FFF,
FFF,
FFF,
FFF,
FFF,
FFF,
FFF,
FFF,
FFF,
FFF,
FFF,
FFF,
FFF,
FFF,
FFF,
FFF,
FFF,
FFF,
FFF,
FFF,
FFF,
FFF,
FFF,
FFF,
FFF,
FFF,
FFF,
FFF,
FFF,
FFF,
FFF,
FFF,
FFF,
FFF,
FFF,
FFF,
FFF,
FFF,
FFF,
FFF,
FFF,
FFF,
FFF,
FFF,
FFF,
FFF,
FFF,
FFF,
FFF,
FFF,
FFF,
FFF,
FFF,
FFF,
FFF,
FFF,
FFF,
FFF,
FFF,
FFF,
FFF,
FFF,
FFF,
FFF,
FFF,
FFF,
FFF,
FFF,
FFF,
FFF,
FFF,
FFF,
FFF,
FFF,
FFF,
FFF,
FFF,
FFF,
FFF,
FFF,
FFF,
FFF,
FFF,
FFF,
FFF,
FFF,
FFF,
FFF,
FFF,
FFF,
FFF,
FFF,
FFF,
FFF,
FFF,
FFF,
FFF,
FFF,
FFF,
FFF,
FFF,
FFF,
FFF,
FFF,
FFF,
FFF,
FFF,
FFF,
FFF,
FFF,
FFF,
FFF,
FFF,
FFF,
FFF,
FFF,
FFF,
FFF,
FFF,
FFF,
FFF,
FFF,
FFF,
FFF,
FFF,
FFF,
FFF,
FFF,
FFF,
FFF,
FFF,
FFF,
FFF,
FFF,
FFF,
FFF,
FFF,
FFF,
FFF,
FFF,
FFF,
FFF,
FFF,
FFF,
FFF,
FFF,
FFF,
FFF,
FFF,
FFF,
FFF,
FFF,
FFF,
FFF,
FFF,
FFF,
FFF,
FFF,
FFF,
FFF,
FFF,
FFF,
FFF,
FFF,
FFF,
FFF,
FFF,
FFF,
FFF,
FFF,
FFF,
FFF,
FFF,
FFF,
FFF,
FFF,
FFF,
FFF,
FFF,
FFF,
FFF,
FFF,
FFF,
FFF,
FFF,
FFF,
FFF,
FFF,
FFF,
FFF,
FFF,
FFF,
FFF,
FFF,
FFF,
FFF,
FFF,
FFF,
FFF,
000,
555,
564,
564,
564,
564,
555,
000,
FFF,
FFF,
FFF,
FFF,
FFF,
FFF,
FFF,
FFF,
FFF,
FFF,
FFF,
FFF,
FFF,
FFF,
FFF,
FFF,
FFF,
FFF,
FFF,
FFF,
FFF,
FFF,
FFF,
FFF,
FFF,
FFF,
FFF,
FFF,
FFF,
FFF,
FFF,
FFF,
FFF,
FFF,
FFF,
FFF,
FFF,
FFF,
FFF,
FFF,
FFF,
FFF,
FFF,
FFF,
FFF,
FFF,
FFF,
FFF,
FFF,
FFF,
FFF,
FFF,
FFF,
FFF,
FFF,
FFF,
FFF,
FFF,
FFF,
FFF,
FFF,
FFF,
FFF,
FFF,
FFF,
FFF,
FFF,
FFF,
FFF,
FFF,
FFF,
FFF,
FFF,
FFF,
FFF,
FFF,
FFF,
FFF,
FFF,
FFF,
FFF,
FFF,
FFF,
FFF,
FFF,
FFF,
FFF,
FFF,
FFF,
FFF,
FFF,
FFF,
FFF,
FFF,
FFF,
FFF,
FFF,
FFF,
FFF,
FFF,
FFF,
FFF,
FFF,
FFF,
FFF,
FFF,
FFF,
FFF,
FFF,
FFF,
FFF,
FFF,
FFF,
FFF,
FFF,
FFF,
FFF,
FFF,
FFF,
FFF,
FFF,
FFF,
FFF,
FFF,
FFF,
FFF,
FFF,
FFF,
FFF,
FFF,
FFF,
FFF,
FFF,
FFF,
FFF,
FFF,
FFF,
FFF,
FFF,
FFF,
FFF,
FFF,
FFF,
FFF,
FFF,
FFF,
FFF,
FFF,
FFF,
FFF,
FFF,
FFF,
FFF,
FFF,
FFF,
FFF,
FFF,
FFF,
FFF,
FFF,
FFF,
FFF,
FFF,
FFF,
FFF,
FFF,
FFF,
FFF,
FFF,
FFF,
FFF,
FFF,
FFF,
FFF,
FFF,
FFF,
FFF,
FFF,
FFF,
FFF,
FFF,
FFF,
FFF,
FFF,
FFF,
FFF,
FFF,
FFF,
FFF,
FFF,
FFF,
FFF,
FFF,
FFF,
FFF,
FFF,
FFF,
FFF,
FFF,
FFF,
FFF,
FFF,
FFF,
FFF,
FFF,
FFF,
FFF,
FFF,
FFF,
FFF,
FFF,
FFF,
FFF,
FFF,
FFF,
FFF,
FFF,
FFF,
FFF,
FFF,
FFF,
FFF,
FFF,
FFF,
FFF,
FFF,
FFF,
FFF,
FFF,
FFF,
FFF,
FFF,
FFF,
FFF,
FFF,
FFF,
FFF,
FFF,
FFF,
FFF,
FFF,
FFF,
FFF,
FFF,
FFF,
FFF,
FFF,
FFF,
000,
666,
463,
463,
463,
463,
666,
000,
FFF,
FFF,
FFF,
FFF,
FFF,
FFF,
FFF,
FFF,
FFF,
FFF,
FFF,
FFF,
FFF,
FFF,
FFF,
FFF,
FFF,
FFF,
FFF,
FFF,
FFF,
FFF,
FFF,
FFF,
FFF,
FFF,
FFF,
FFF,
FFF,
FFF,
FFF,
FFF,
FFF,
FFF,
FFF,
FFF,
FFF,
FFF,
FFF,
FFF,
FFF,
FFF,
FFF,
FFF,
FFF,
FFF,
FFF,
FFF,
FFF,
FFF,
FFF,
FFF,
FFF,
FFF,
FFF,
FFF,
FFF,
FFF,
FFF,
FFF,
FFF,
FFF,
FFF,
FFF,
FFF,
FFF,
FFF,
FFF,
FFF,
FFF,
FFF,
FFF,
FFF,
FFF,
FFF,
FFF,
FFF,
FFF,
FFF,
FFF,
FFF,
FFF,
FFF,
FFF,
FFF,
FFF,
FFF,
FFF,
FFF,
FFF,
FFF,
FFF,
FFF,
FFF,
FFF,
FFF,
FFF,
FFF,
FFF,
FFF,
FFF,
FFF,
FFF,
FFF,
FFF,
FFF,
FFF,
FFF,
FFF,
FFF,
FFF,
FFF,
FFF,
FFF,
FFF,
FFF,
FFF,
FFF,
FFF,
FFF,
FFF,
FFF,
FFF,
FFF,
FFF,
FFF,
FFF,
FFF,
FFF,
FFF,
FFF,
FFF,
FFF,
FFF,
FFF,
FFF,
FFF,
FFF,
FFF,
FFF,
FFF,
FFF,
FFF,
FFF,
FFF,
FFF,
FFF,
FFF,
FFF,
FFF,
FFF,
FFF,
FFF,
FFF,
FFF,
FFF,
FFF,
FFF,
FFF,
FFF,
FFF,
FFF,
FFF,
FFF,
FFF,
FFF,
FFF,
FFF,
FFF,
FFF,
FFF,
FFF,
FFF,
FFF,
FFF,
FFF,
FFF,
FFF,
FFF,
FFF,
FFF,
FFF,
FFF,
FFF,
FFF,
FFF,
FFF,
FFF,
FFF,
FFF,
FFF,
FFF,
FFF,
FFF,
FFF,
FFF,
FFF,
FFF,
FFF,
FFF,
FFF,
FFF,
FFF,
FFF,
FFF,
FFF,
FFF,
FFF,
FFF,
FFF,
FFF,
FFF,
FFF,
FFF,
FFF,
FFF,
FFF,
FFF,
FFF,
FFF,
FFF,
FFF,
FFF,
FFF,
FFF,
FFF,
FFF,
FFF,
FFF,
FFF,
FFF,
FFF,
FFF,
FFF,
FFF,
FFF,
FFF,
FFF,
FFF,
FFF,
FFF,
FFF,
FFF,
FFF,
FFF,
FFF,
FFF,
FFF,
000,
333,
555,
555,
555,
555,
555,
000,
FFF,
FFF,
FFF,
FFF,
FFF,
FFF,
FFF,
FFF,
FFF,
FFF,
FFF,
FFF,
FFF,
FFF,
FFF,
FFF,
FFF,
FFF,
FFF,
FFF,
FFF,
FFF,
FFF,
FFF,
FFF,
FFF,
FFF,
FFF,
FFF,
FFF,
FFF,
FFF,
FFF,
FFF,
FFF,
FFF,
FFF,
FFF,
FFF,
FFF,
FFF,
FFF,
FFF,
FFF,
FFF,
FFF,
FFF,
FFF,
FFF,
FFF,
FFF,
FFF,
FFF,
FFF,
FFF,
FFF,
FFF,
FFF,
FFF,
FFF,
FFF,
FFF,
FFF,
FFF,
FFF,
FFF,
FFF,
FFF,
FFF,
FFF,
FFF,
FFF,
FFF,
FFF,
FFF,
FFF,
FFF,
FFF,
FFF,
FFF,
FFF,
FFF,
FFF,
FFF,
FFF,
FFF,
FFF,
FFF,
FFF,
FFF,
FFF,
FFF,
FFF,
FFF,
FFF,
FFF,
FFF,
FFF,
FFF,
FFF,
FFF,
FFF,
FFF,
FFF,
FFF,
FFF,
FFF,
FFF,
FFF,
FFF,
FFF,
FFF,
FFF,
FFF,
FFF,
FFF,
FFF,
FFF,
FFF,
FFF,
FFF,
FFF,
FFF,
FFF,
FFF,
FFF,
FFF,
FFF,
FFF,
FFF,
FFF,
FFF,
FFF,
FFF,
FFF,
FFF,
FFF,
FFF,
FFF,
FFF,
FFF,
FFF,
FFF,
FFF,
FFF,
FFF,
FFF,
FFF,
FFF,
FFF,
FFF,
FFF,
FFF,
FFF,
FFF,
FFF,
FFF,
FFF,
FFF,
FFF,
FFF,
FFF,
FFF,
FFF,
FFF,
FFF,
FFF,
FFF,
FFF,
FFF,
FFF,
FFF,
FFF,
FFF,
FFF,
FFF,
FFF,
FFF,
FFF,
FFF,
FFF,
FFF,
FFF,
FFF,
FFF,
FFF,
FFF,
FFF,
FFF,
FFF,
FFF,
FFF,
FFF,
FFF,
FFF,
FFF,
FFF,
FFF,
FFF,
FFF,
FFF,
FFF,
FFF,
FFF,
FFF,
FFF,
FFF,
FFF,
FFF,
FFF,
FFF,
FFF,
FFF,
FFF,
FFF,
FFF,
FFF,
FFF,
FFF,
FFF,
FFF,
FFF,
FFF,
FFF,
FFF,
FFF,
FFF,
FFF,
FFF,
FFF,
FFF,
FFF,
FFF,
FFF,
FFF,
FFF,
FFF,
FFF,
FFF,
FFF,
FFF,
FFF,
FFF,
FFF,
FFF,
FFF,
FFF,
FFF,
FFF,
000,
000,
000,
000,
000,
000,
FFF,
FFF,
FFF,
FFF,
FFF,
FFF,
FFF,
FFF,
FFF,
FFF,
FFF,
FFF,
FFF,
FFF,
FFF,
FFF,
FFF,
FFF,
FFF,
FFF,
FFF,
FFF,
FFF,
FFF,
FFF,
FFF,
FFF,
FFF,
FFF,
FFF,
FFF,
FFF,
FFF,
FFF,
FFF,
FFF,
FFF,
FFF,
FFF,
FFF,
FFF,
FFF,
FFF,
FFF,
FFF,
FFF,
FFF,
FFF,
FFF,
FFF,
FFF,
FFF,
FFF,
FFF,
FFF,
FFF,
FFF,
FFF,
FFF,
FFF,
FFF,
FFF,
FFF,
FFF,
FFF,
FFF,
FFF,
FFF,
FFF,
FFF,
FFF,
FFF,
FFF,
FFF,
FFF,
FFF,
FFF,
FFF,
FFF,
FFF,
FFF,
FFF,
FFF,
FFF,
FFF,
FFF,
FFF,
FFF,
FFF,
FFF,
FFF,
FFF,
FFF,
FFF,
FFF,
FFF,
FFF,
FFF,
FFF,
FFF,
FFF,
FFF,
FFF,
FFF,
FFF,
FFF,
FFF,
FFF,
FFF,
FFF,
FFF,
FFF,
FFF,
FFF,
FFF,
FFF,
FFF,
FFF,
FFF,
FFF,
FFF,
FFF,
FFF,
FFF,
FFF,
FFF,
FFF,
FFF,
FFF,
FFF,
FFF,
FFF,
FFF,
FFF,
FFF,
FFF,
FFF,
FFF,
FFF,
FFF,
FFF,
FFF,
FFF,
FFF,
FFF,
FFF,
FFF,
FFF,
FFF,
FFF,
FFF,
FFF,
FFF,
FFF,
FFF,
FFF,
FFF,
FFF,
FFF,
FFF,
FFF,
FFF,
FFF,
FFF,
FFF,
FFF,
FFF,
FFF,
FFF,
FFF,
FFF,
FFF,
FFF,
FFF,
FFF,
FFF,
FFF,
FFF,
FFF,
FFF,
FFF,
FFF,
FFF,
FFF,
FFF,
FFF,
FFF,
FFF,
FFF,
FFF,
FFF,
FFF,
FFF,
FFF,
FFF,
FFF,
FFF,
FFF,
FFF,
FFF,
FFF,
FFF,
FFF,
FFF,
FFF,
FFF,
FFF,
FFF,
FFF,
FFF,
FFF,
FFF,
FFF,
FFF,
FFF,
FFF,
FFF,
FFF,
FFF,
FFF,
FFF,
FFF,
FFF,
FFF,
FFF,
FFF,
FFF,
FFF,
FFF,
FFF,
FFF,
FFF,
FFF,
FFF,
FFF,
FFF,
FFF,
FFF,
FFF,
FFF,
FFF,
FFF,
FFF,
FFF,
FFF,
FFF,
FFF,
FFF,
FFF,
FFF,
FFF,
FFF,
FFF,
FFF,
FFF,
FFF,
FFF,
FFF,
FFF,
FFF,
FFF,
FFF,
FFF,
FFF,
FFF,
FFF,
FFF,
FFF,
FFF,
FFF,
FFF,
FFF,
FFF,
FFF,
FFF,
FFF,
FFF,
FFF,
FFF,
FFF,
FFF,
FFF,
FFF,
FFF,
FFF,
FFF,
FFF,
FFF,
FFF,
FFF,
FFF,
FFF,
FFF,
FFF,
FFF,
FFF,
FFF,
FFF,
FFF,
FFF,
FFF,
FFF,
FFF,
FFF,
FFF,
FFF,
FFF,
FFF,
FFF,
FFF,
FFF,
FFF,
FFF,
FFF,
FFF,
FFF,
FFF,
FFF,
FFF,
FFF,
FFF,
FFF,
FFF,
FFF,
FFF,
FFF,
FFF,
FFF,
FFF,
FFF,
FFF,
FFF,
FFF,
FFF,
FFF,
FFF,
FFF,
FFF,
FFF,
FFF,
FFF,
FFF,
FFF,
FFF,
FFF,
FFF,
FFF,
FFF,
FFF,
FFF,
FFF,
FFF,
FFF,
FFF,
FFF,
FFF,
FFF,
FFF,
FFF,
FFF,
FFF,
FFF,
FFF,
FFF,
FFF,
FFF,
FFF,
FFF,
FFF,
FFF,
FFF,
FFF,
FFF,
FFF,
FFF,
FFF,
FFF,
FFF,
FFF,
FFF,
FFF,
FFF,
FFF,
FFF,
FFF,
FFF,
FFF,
FFF,
FFF,
FFF,
FFF,
FFF,
FFF,
FFF,
FFF,
FFF,
FFF,
FFF,
FFF,
FFF,
FFF,
FFF,
FFF,
FFF,
FFF,
FFF,
FFF,
FFF,
FFF,
FFF,
FFF,
FFF,
FFF,
FFF,
FFF,
FFF,
FFF,
FFF,
FFF,
FFF,
FFF,
FFF,
FFF,
FFF,
FFF,
FFF,
FFF,
FFF,
FFF,
FFF,
FFF,
FFF,
FFF,
FFF,
FFF,
FFF,
FFF,
FFF,
FFF,
FFF,
FFF,
FFF,
FFF,
FFF,
FFF,
FFF,
FFF,
FFF,
FFF,
FFF,
FFF,
FFF,
FFF,
FFF,
FFF,
FFF,
FFF,
FFF,
FFF,
FFF,
FFF,
FFF,
FFF,
FFF,
FFF,
FFF,
FFF,
FFF,
FFF,
FFF,
FFF,
FFF,
FFF,
FFF,
FFF,
FFF,
FFF,
FFF,
FFF,
FFF,
FFF,
FFF,
FFF,
FFF,
FFF,
FFF,
FFF,
FFF,
FFF,
FFF,
FFF,
FFF,
FFF,
FFF,
FFF,
FFF,
FFF,
FFF,
FFF,
FFF,
FFF,
FFF,
FFF,
FFF,
FFF,
FFF,
FFF,
FFF,
FFF,
FFF,
FFF,
FFF,
FFF,
FFF,
FFF,
FFF,
FFF,
FFF,
FFF,
FFF,
FFF,
FFF,
FFF,
FFF,
FFF,
FFF,
FFF,
FFF,
FFF,
FFF,
FFF,
FFF,
FFF,
FFF,
FFF,
FFF,
FFF,
FFF,
FFF,
FFF,
FFF,
FFF,
FFF,
FFF,
FFF,
FFF,
FFF,
FFF,
FFF,
FFF,
FFF,
FFF,
FFF,
FFF,
FFF,
FFF,
FFF,
FFF,
FFF,
FFF,
FFF,
FFF,
FFF,
FFF,
FFF,
FFF,
FFF,
FFF,
FFF,
FFF,
FFF,
FFF,
FFF,
FFF,
FFF,
FFF,
FFF,
FFF,
FFF,
FFF,
FFF,
FFF,
FFF,
FFF,
FFF,
FFF,
FFF,
FFF,
FFF,
FFF,
FFF,
FFF,
FFF,
FFF,
FFF,
FFF,
FFF,
FFF,
FFF,
FFF,
FFF,
FFF,
FFF,
FFF,
FFF,
FFF,
FFF,
FFF,
FFF,
FFF,
FFF,
FFF,
FFF,
FFF,
FFF,
FFF,
FFF,
FFF,
FFF,
FFF,
FFF,
FFF,
FFF,
FFF,
FFF,
FFF,
FFF,
FFF,
FFF,
FFF,
FFF,
FFF,
FFF,
FFF,
FFF,
FFF,
FFF,
FFF,
FFF,
FFF,
FFF,
FFF,
FFF,
FFF,
FFF,
FFF,
FFF,
FFF,
FFF,
FFF,
FFF,
FFF,
FFF,
FFF,
FFF,
FFF,
FFF,
FFF,
FFF,
FFF,
FFF,
FFF,
FFF,
FFF,
FFF,
FFF,
FFF,
FFF,
FFF,
FFF,
FFF,
FFF,
FFF,
FFF,
FFF,
FFF,
FFF,
FFF,
FFF,
FFF,
FFF,
FFF,
FFF,
FFF,
FFF,
FFF,
FFF,
FFF,
FFF,
FFF,
FFF,
FFF,
FFF,
FFF,
FFF,
FFF,
FFF,
FFF,
FFF,
FFF,
FFF,
FFF,
FFF,
FFF,
FFF,
FFF,
FFF,
FFF,
FFF,
FFF,
FFF,
FFF,
FFF,
FFF,
FFF,
FFF,
FFF,
FFF,
FFF,
FFF,
FFF,
FFF,
FFF,
FFF,
FFF,
FFF,
FFF,
FFF,
FFF,
FFF,
FFF,
FFF,
FFF,
FFF,
FFF,
FFF,
FFF,
FFF,
FFF,
FFF,
FFF,
FFF,
FFF,
FFF,
FFF,
FFF,
FFF,
FFF,
FFF,
FFF,
FFF,
FFF,
FFF,
FFF,
FFF,
FFF,
FFF,
FFF,
FFF,
FFF,
FFF,
FFF,
FFF,
FFF,
FFF,
FFF,
FFF,
FFF,
FFF,
FFF,
FFF,
FFF,
FFF,
FFF,
FFF,
FFF,
FFF,
FFF,
FFF,
FFF,
FFF,
FFF,
FFF,
FFF,
FFF,
FFF,
FFF,
FFF,
FFF,
FFF,
FFF,
FFF,
FFF,
FFF,
FFF,
FFF,
FFF,
FFF,
FFF,
FFF,
FFF,
FFF,
FFF,
FFF,
FFF,
FFF,
FFF,
FFF,
FFF,
FFF,
FFF,
FFF,
FFF,
FFF,
FFF,
FFF,
FFF,
FFF,
FFF,
FFF,
FFF,
FFF,
FFF,
FFF,
FFF,
FFF,
FFF,
FFF,
FFF,
FFF,
FFF,
FFF,
FFF,
FFF,
FFF,
FFF,
FFF,
FFF,
FFF,
FFF,
FFF,
FFF,
FFF,
FFF,
FFF,
FFF,
FFF,
FFF,
FFF,
FFF,
FFF,
FFF,
FFF,
FFF,
FFF,
FFF,
FFF,
FFF,
FFF,
FFF,
FFF,
FFF,
FFF,
FFF,
FFF,
FFF,
FFF,
FFF,
FFF,
FFF,
FFF,
FFF,
FFF,
FFF,
FFF,
FFF,
FFF,
FFF,
FFF,
FFF,
FFF,
FFF,
FFF,
FFF,
FFF,
FFF,
FFF,
FFF,
FFF,
FFF,
FFF,
FFF,
FFF,
FFF,
FFF,
FFF,
FFF,
FFF,
FFF,
FFF,
FFF,
FFF,
FFF,
FFF,
FFF,
FFF,
FFF,
FFF,
FFF,
FFF,
FFF,
FFF,
FFF,
FFF,
FFF,
FFF,
FFF,
FFF,
FFF,
FFF,
FFF,
FFF,
FFF,
FFF,
FFF,
FFF,
FFF,
FFF,
FFF,
FFF,
FFF,
FFF,
FFF,
FFF,
FFF,
FFF,
FFF,
FFF,
FFF,
FFF,
FFF,
FFF,
FFF,
FFF,
FFF,
FFF,
FFF,
FFF,
FFF,
FFF,
FFF,
FFF,
FFF,
FFF,
FFF,
FFF,
FFF,
FFF,
FFF,
FFF,
FFF,
FFF,
FFF,
FFF,
FFF,
FFF,
FFF,
FFF,
FFF,
FFF,
FFF,
FFF,
FFF,
FFF,
FFF,
FFF,
FFF,
FFF,
FFF,
FFF,
FFF,
FFF,
FFF,
FFF,
FFF,
FFF,
FFF,
FFF,
FFF,
FFF,
FFF,
FFF,
FFF,
FFF,
FFF,
FFF,
FFF,
FFF,
FFF,
FFF,
FFF,
FFF,
FFF,
FFF,
FFF,
FFF,
FFF,
FFF,
FFF,
FFF,
FFF,
FFF,
FFF,
FFF,
FFF,
FFF,
FFF,
FFF,
FFF,
FFF,
FFF,
FFF,
FFF,
FFF,
FFF,
FFF,
FFF,
FFF,
FFF,
FFF,
FFF,
FFF,
FFF,
FFF,
FFF,
FFF,
FFF,
FFF,
FFF,
FFF,
FFF,
FFF,
FFF,
FFF,
FFF,
FFF,
FFF,
FFF,
FFF,
FFF,
FFF,
FFF,
FFF,
FFF,
FFF,
FFF,
FFF,
FFF,
FFF,
FFF,
FFF,
FFF,
FFF,
FFF,
FFF,
FFF,
FFF,
FFF,
FFF,
FFF,
FFF,
FFF,
FFF,
FFF,
FFF,
FFF,
FFF,
FFF,
FFF,
FFF,
FFF,
FFF,
FFF,
FFF,
FFF,
FFF,
FFF,
FFF,
FFF,
FFF,
FFF,
FFF,
FFF,
FFF,
FFF,
FFF,
FFF,
FFF,
FFF,
FFF,
FFF,
FFF,
FFF,
FFF,
FFF,
FFF,
FFF,
FFF,
FFF,
FFF,
FFF,
FFF,
FFF,
FFF,
FFF,
FFF,
FFF,
FFF,
FFF,
FFF,
FFF,
FFF,
FFF,
FFF,
FFF,
FFF,
FFF,
FFF,
FFF,
FFF,
FFF,
FFF,
FFF,
FFF,
FFF,
FFF,
FFF,
FFF,
FFF,
FFF,
FFF,
FFF,
FFF,
FFF,
FFF,
FFF,
FFF,
FFF,
FFF,
FFF,
FFF,
FFF,
FFF,
FFF,
FFF,
FFF,
FFF,
FFF,
FFF,
FFF,
FFF,
FFF,
FFF,
FFF,
FFF,
FFF,
FFF,
FFF,
FFF,
FFF,
FFF,
FFF,
FFF,
FFF,
FFF,
FFF,
FFF,
FFF,
FFF,
FFF,
FFF,
FFF,
FFF,
FFF,
FFF,
FFF,
FFF,
FFF,
FFF,
FFF,
FFF,
FFF,
FFF,
FFF,
FFF,
FFF,
FFF,
FFF,
FFF,
FFF,
FFF,
FFF,
FFF,
FFF,
FFF,
FFF,
FFF,
FFF,
FFF,
FFF,
FFF,
FFF,
FFF,
FFF,
FFF,
FFF,
FFF,
FFF,
FFF,
FFF,
FFF,
FFF,
FFF,
FFF,
FFF,
FFF,
FFF,
FFF,
FFF,
FFF,
FFF,
FFF,
FFF,
FFF,
FFF,
FFF,
FFF,
FFF,
FFF,
FFF,
FFF,
FFF,
FFF,
FFF,
FFF,
FFF,
FFF,
FFF,
FFF,
FFF,
FFF,
FFF,
FFF,
FFF,
FFF,
FFF,
FFF,
FFF,
FFF,
FFF,
FFF,
FFF,
FFF,
FFF,
FFF,
FFF,
FFF,
FFF,
FFF,
FFF,
FFF,
FFF,
FFF,
FFF,
FFF,
FFF,
FFF,
FFF,
FFF,
FFF,
FFF,
FFF,
FFF,
FFF,
FFF,
FFF,
FFF,
FFF,
FFF,
FFF,
FFF,
FFF,
FFF,
FFF,
FFF,
FFF,
FFF,
FFF,
FFF,
FFF,
FFF,
FFF,
FFF,
FFF,
FFF,
FFF,
FFF,
FFF,
FFF,
FFF,
FFF,
FFF,
FFF,
FFF,
FFF,
FFF,
FFF,
FFF,
FFF,
FFF,
FFF,
FFF,
FFF,
FFF,
FFF,
FFF,
FFF,
FFF,
FFF,
FFF,
FFF,
FFF,
FFF,
FFF,
FFF,
FFF,
FFF,
FFF,
FFF,
FFF,
FFF,
FFF,
FFF,
FFF,
FFF,
FFF,
FFF,
FFF,
FFF,
FFF,
FFF,
FFF,
FFF,
FFF,
FFF,
FFF,
FFF,
FFF,
FFF,
FFF,
FFF,
FFF,
FFF,
FFF,
FFF,
FFF,
FFF,
FFF,
FFF,
FFF,
FFF,
FFF,
FFF,
FFF,
FFF,
FFF,
FFF,
FFF,
FFF,
FFF,
FFF,
FFF,
FFF,
FFF,
FFF,
FFF,
FFF,
FFF,
FFF,
FFF,
FFF,
FFF,
FFF,
FFF,
FFF,
FFF,
FFF,
FFF,
FFF,
FFF,
FFF,
FFF,
FFF,
FFF,
FFF,
FFF,
FFF,
FFF,
FFF,
FFF,
FFF,
FFF,
FFF,
FFF,
FFF,
FFF,
FFF,
FFF,
FFF,
FFF,
FFF,
FFF,
FFF,
FFF,
FFF,
FFF,
FFF,
FFF,
FFF,
FFF,
FFF,
FFF,
FFF,
FFF,
FFF,
FFF,
FFF,
FFF,
FFF,
FFF,
FFF,
FFF,
FFF,
FFF,
FFF,
FFF,
FFF,
FFF,
FFF,
FFF,
FFF,
FFF,
FFF,
FFF,
FFF,
FFF,
FFF,
FFF,
FFF,
FFF,
FFF,
FFF,
FFF,
FFF,
FFF,
FFF,
FFF,
FFF,
FFF,
FFF,
FFF,
FFF,
FFF,
FFF,
FFF,
FFF,
FFF,
FFF,
FFF,
FFF,
FFF,
FFF,
FFF,
FFF,
FFF,
FFF,
FFF,
FFF,
FFF,
FFF,
FFF,
FFF,
FFF,
FFF,
FFF,
FFF,
FFF,
FFF,
FFF,
FFF,
FFF,
FFF,
FFF,
FFF,
FFF,
FFF,
FFF,
FFF,
FFF,
FFF,
FFF,
FFF,
FFF,
FFF,
FFF,
FFF,
FFF,
FFF,
FFF,
FFF,
FFF,
FFF,
FFF,
FFF,
FFF,
FFF,
FFF,
FFF,
FFF,
FFF,
FFF,
FFF,
FFF,
FFF,
FFF,
FFF,
FFF,
FFF,
FFF,
FFF,
FFF,
FFF,
FFF,
FFF,
FFF,
FFF,
FFF,
FFF,
FFF,
FFF,
FFF,
FFF,
FFF,
FFF,
FFF,
FFF,
FFF,
FFF,
FFF,
FFF,
FFF,
FFF,
FFF,
FFF,
FFF,
FFF,
FFF,
FFF,
FFF,
FFF,
FFF,
FFF,
FFF,
FFF,
FFF,
FFF,
FFF,
FFF,
FFF,
FFF,
FFF,
FFF,
FFF,
FFF,
FFF,
FFF,
FFF,
FFF,
FFF,
FFF,
FFF,
FFF,
FFF,
FFF,
FFF,
FFF,
FFF,
FFF,
FFF,
FFF,
FFF,
FFF,
FFF,
FFF,
FFF,
FFF,
FFF,
FFF,
FFF,
FFF,
FFF,
FFF,
FFF,
FFF,
FFF,
FFF,
FFF,
FFF,
FFF,
FFF,
FFF,
FFF,
FFF,
FFF,
FFF,
FFF,
FFF,
FFF,
FFF,
FFF,
FFF,
FFF,
FFF,
FFF,
FFF,
FFF,
FFF,
FFF,
FFF,
FFF,
FFF,
FFF,
FFF,
FFF,
FFF,
FFF,
FFF,
FFF,
FFF,
FFF,
FFF,
FFF,
FFF,
FFF,
FFF,
FFF,
FFF,
FFF,
FFF,
FFF,
FFF,
FFF,
FFF,
FFF,
FFF,
FFF,
FFF,
FFF,
FFF,
FFF,
FFF,
FFF,
FFF,
FFF,
FFF,
FFF,
FFF,
FFF,
FFF,
FFF,
FFF,
FFF,
FFF,
FFF,
FFF,
FFF,
FFF,
FFF,
FFF,
FFF,
FFF,
FFF,
FFF,
FFF,
FFF,
FFF,
FFF,
FFF,
FFF,
FFF,
FFF,
FFF,
FFF,
FFF,
FFF,
FFF,
FFF,
FFF,
FFF,
FFF,
FFF,
FFF,
FFF,
FFF,
FFF,
FFF,
FFF,
FFF,
FFF,
FFF,
FFF,
FFF,
FFF,
FFF,
FFF,
FFF,
FFF,
FFF,
FFF,
FFF,
FFF,
FFF,
FFF,
FFF,
FFF,
FFF,
FFF,
FFF,
FFF,
FFF,
FFF,
FFF,
FFF,
FFF,
FFF,
FFF,
FFF,
FFF,
FFF,
FFF,
FFF,
FFF,
FFF,
FFF,
FFF,
FFF,
FFF,
FFF,
FFF,
FFF,
FFF,
FFF,
FFF,
FFF,
FFF,
FFF,
FFF,
FFF,
FFF,
FFF,
FFF,
FFF,
FFF,
FFF,
FFF,
FFF,
FFF,
FFF,
FFF,
FFF,
FFF,
FFF,
FFF;
