10000
1110
1110
11101
101010
110100
110011
110111
111010
111011
111010
111010
111011
111111
111100
111011
110110
111010
111010
111010
111011
111011
111010
110011
101110
100101
11000
100010
110
10000
0
0
1110
1110
1110
11000
1001
110110
111010
110111
111010
111010
111010
111010
111011
111111
111011
110101
110101
110101
110101
110101
110101
110101
111010
111010
110011
101011
11110
1110
10011
10
0
0
1110
1110
1110
11101
101010
110100
110011
110111
111010
111011
110101
110101
110101
110101
110101
111011
110110
111010
111010
111010
111011
111011
110101
110011
101110
100101
11000
100010
110
10000
0
0
11101
11000
11101
100000
110100
111010
110101
110101
110101
110101
111011
111011
111010
111010
111010
111011
111010
111010
111010
111010
111010
110110
110101
110110
101100
101010
10100
10011
110
1
0
0
101010
1001
101010
110100
110100
110101
110101
110011
110100
110011
111010
111010
111010
111010
111011
111010
111010
111010
111010
110011
110011
110011
110101
110110
100001
100001
100011
11010
10000
10
0
0
110100
110110
110100
111010
110101
111010
111010
110011
111010
110011
110100
111010
111010
111011
111010
111010
111101
111101
111010
110011
110011
110011
110101
110001
11101
100
100
110
10000
10000
0
0
110011
111010
110011
110101
110101
111010
111010
111010
110111
110111
111010
111010
111010
111010
111011
111010
111010
111010
110011
110011
111010
111010
110101
111010
100101
1011
11
1110
10000
110
0
0
110111
110111
110111
110101
110011
110011
111010
110111
110111
111010
111010
110111
111010
111010
111010
111010
110111
110011
111010
111010
111010
111010
110101
110010
100000
10011
1111
1000
1111
1110
0
0
111010
111010
111010
110101
110100
111010
110100
110011
110011
111010
111010
111000
111010
111010
111010
111010
110011
111010
111100
111011
111010
111010
110101
110110
110010
100010
1010
100
10000
10000
0
0
111011
111010
111011
110101
110011
110011
111010
110011
110011
111010
111010
111010
111010
110100
110100
111011
111010
110100
111010
111010
111010
111011
110101
110011
101101
1100
10101
1110
101
10
0
0
111010
111010
110101
111011
111010
110100
111111
111010
110100
111010
111010
111011
111011
111010
110011
111010
111010
110101
110101
110011
111010
111010
110101
111010
1001
1010
10101
10101
10000
1
0
0
111010
111010
110101
111011
111010
111010
111010
111011
111011
110110
111010
111010
111011
111010
110011
111010
111010
111011
110101
110101
110110
110011
110101
111010
100110
11101
100111
100100
1
1
0
0
111011
111011
110101
111010
111010
111010
110100
111011
111010
110100
111110
111110
111010
111010
110011
101110
111010
111011
110101
110101
110011
111010
110101
111010
110000
11110
1001
100001
110
10
0
0
111111
111111
110101
111010
111010
111011
110110
111011
111010
111010
111111
111011
111010
111010
110100
110011
111010
111010
110101
110100
110101
111111
110101
110110
110000
100110
11011
10011
10001
1000
0
0
111100
111011
110101
111010
111011
111010
111010
111011
111111
111010
111010
111010
110011
110100
110100
111010
111010
110110
110011
110101
110101
110101
110101
110110
110000
1001
11110
10000
110
10000
0
0
111011
110101
111011
111011
111010
111010
111010
111011
111111
111010
110100
110011
110011
110110
110011
111010
111010
110011
110011
110011
110101
110101
111010
111010
110110
11110
1010
10000
1100
110
0
0
110110
110101
110110
111010
111010
111101
111010
111010
111011
111011
111010
110011
111010
111010
110100
110100
111010
111010
110011
110011
110011
110101
111011
111111
111010
101000
11110
11111
10000
1110
0
0
111010
110101
111010
111010
111010
111101
110100
110100
111010
111010
111010
111010
111010
111011
111010
110100
111010
111010
110011
110111
111010
111011
110101
111010
110011
100111
10010
11111
1110
10001
0
0
111010
110101
111010
111010
111010
111010
110110
111010
111010
110011
110110
111010
111100
111011
111011
111010
111010
111000
111010
110011
111010
111010
110101
110000
110110
1001
1100
10000
110
110
0
0
111010
110101
111010
111010
110011
110011
110100
110011
110011
110100
111010
111011
111100
111011
111010
111010
110011
111010
111010
111010
110011
110011
110011
110101
100110
101001
11010
1000
1110
1110
0
0
111011
110101
111011
111010
110011
110011
111010
111010
111010
110011
110011
111010
111011
111110
111010
111010
110100
110100
111010
111010
110111
111010
111010
111010
100110
10001
10000
111
1111
10001
0
0
111011
110101
111011
110110
110011
110011
110100
111011
111010
110011
111010
111010
110011
110011
110100
111010
111010
111010
111010
111010
110111
110011
110011
111011
1001
101
10001
11001
10110
1111
0
0
111010
111010
110101
110101
110101
110101
111010
111010
110011
110011
110011
110101
110101
111011
111010
110101
110101
110101
110101
110101
110101
111011
111010
110011
1100
1110
1111
10000
1111
110
0
0
110011
111010
111010
110101
111010
110100
110011
110101
111010
110101
110101
110000
111010
111111
111010
110110
110110
111010
111010
111010
110011
110011
100110
101001
10101
1111
101
1111
1111
110
0
0
101110
110011
110011
110011
111010
111010
110011
110101
110101
110101
100110
110110
110011
111010
110110
110000
110000
110000
100110
1001
101101
1100
101001
1100
1100
1111
110
11000
10000
110
0
0
100101
101011
101111
101111
101111
101111
101011
100101
10011
10010
101001
1001
100111
101000
11110
1001
100110
11110
11101
1010
1100
10000
110
10000
101
10001
10001
110
110
10001
0
0
11000
11110
1001
100101
100001
1001
100000
1001
10010
100100
11010
1100
10010
11110
1010
11110
11011
1001
100111
10101
10101
1111
10000
1000
10
11001
10001
101
110
10001
0
0
100010
1110
110
100100
1110
11010
11000
1010
100001
11000
1000
10000
11111
11111
10000
10000
10011
100001
100100
10101
1110
10111
110
110
1000
11001
1110
1101
10
10001
0
0
110
10011
10001
10110
110
10000
10001
10000
1110
1000
1110
110
1110
10000
1100
110
10001
110
1
10000
101
10000
110
10000
110
110
1
110
10000
111
0
0
10000
10
101
1111
101
110
10000
110
110
110
1110
110
10001
1110
110
10000
1000
10
1
1
10
110
1111
10001
10000
110
10000
10
10000
110
0
0
0
0
0
0
0
0
0
0
0
0
0
0
0
0
0
0
0
0
0
0
0
0
0
0
0
0
0
0
0
0
0
0
0
0
0
0
0
0
0
0
0
0
0
0
0
0
0
0
0
0
0
0
0
0
0
0
0
0
0
0
0
0
0
0
