memory_initialization_radix=2;
memory_initialization_vector=
110,
10000,
10,
10000,
110,
10000,
10001,
1111,
110,
10,
1,
1,
10,
1000,
10000,
110,
1110,
10001,
110,
1110,
110,
110,
110,
10000,
110,
101,
1111,
101,
10,
10000,
0,
0,
111,
10000,
110,
1,
110,
110,
10000,
110,
10000,
101,
10000,
1,
110,
10001,
110,
1100,
10000,
1110,
110,
1110,
1000,
1110,
10000,
10001,
10000,
110,
10110,
10001,
10011,
110,
0,
0,
10001,
10,
1101,
1110,
11001,
1000,
110,
110,
10111,
1110,
10101,
100100,
100001,
10011,
10000,
10000,
11111,
11111,
10000,
1000,
11000,
100001,
1010,
11000,
11010,
1110,
100100,
110,
1110,
100010,
0,
0,
10001,
110,
101,
10001,
11001,
10,
1000,
10000,
1111,
10101,
10101,
100111,
1001,
11011,
11110,
1010,
11110,
10010,
1100,
11010,
100100,
10010,
1001,
100000,
1001,
100001,
100101,
1001,
11110,
11000,
0,
0,
10001,
110,
110,
10001,
10001,
101,
10000,
110,
10000,
1100,
1010,
11101,
11110,
100110,
1001,
11110,
101000,
100111,
1001,
101001,
10010,
10011,
100101,
101011,
101111,
101111,
101111,
101111,
101011,
100101,
0,
0,
110,
10000,
11000,
110,
1111,
1100,
1100,
101001,
1100,
101101,
1001,
100110,
110000,
110000,
110000,
110110,
111010,
110011,
110110,
100110,
110101,
110101,
110101,
110011,
111010,
111010,
110011,
110011,
110011,
101110,
0,
0,
110,
1111,
1111,
101,
1111,
10101,
101001,
100110,
110011,
110011,
111010,
111010,
111010,
110110,
110110,
111010,
111111,
111010,
110000,
110101,
110101,
111010,
110101,
110011,
110100,
111010,
110101,
111010,
111010,
110011,
0,
0,
110,
1111,
10000,
1111,
1110,
1100,
110011,
111010,
111011,
110101,
110101,
110101,
110101,
110101,
110101,
111010,
111011,
110101,
110101,
110011,
110011,
110011,
111010,
111010,
110101,
110101,
110101,
110101,
111010,
111010,
0,
0,
1111,
10110,
11001,
10001,
101,
1001,
111011,
110011,
110011,
110111,
111010,
111010,
111010,
111010,
111010,
110100,
110011,
110011,
111010,
111010,
110011,
111010,
111011,
110100,
110011,
110011,
110110,
111011,
110101,
111011,
0,
0,
10001,
1111,
111,
10000,
10001,
100110,
111010,
111010,
111010,
110111,
111010,
111010,
110100,
110100,
111010,
111010,
111110,
111011,
111010,
110011,
110011,
111010,
111010,
111010,
110011,
110011,
111010,
111011,
110101,
111011,
0,
0,
1110,
1110,
1000,
11010,
101001,
100110,
110101,
110011,
110011,
110011,
111010,
111010,
111010,
110011,
111010,
111010,
111011,
111100,
111011,
111010,
110100,
110011,
110011,
110100,
110011,
110011,
111010,
111010,
110101,
111010,
0,
0,
110,
110,
10000,
1100,
1001,
110110,
110000,
110101,
111010,
111010,
110011,
111010,
111000,
111010,
111010,
111011,
111011,
111100,
111010,
110110,
110011,
111010,
111010,
110110,
111010,
111010,
111010,
111010,
110101,
111010,
0,
0,
10001,
1110,
11111,
10010,
100111,
110011,
111010,
110101,
111011,
111010,
110111,
110011,
111010,
111010,
110100,
111010,
111011,
111010,
111010,
111010,
111010,
111010,
110100,
110100,
111101,
111010,
111010,
111010,
110101,
111010,
0,
0,
1110,
10000,
11111,
11110,
101000,
111010,
111111,
111011,
110101,
110011,
110011,
110011,
111010,
111010,
110100,
110100,
111010,
111010,
110011,
111010,
111011,
111011,
111010,
111010,
111101,
111010,
111010,
110110,
110101,
110110,
0,
0,
110,
1100,
10000,
1010,
11110,
110110,
111010,
111010,
110101,
110101,
110011,
110011,
110011,
111010,
111010,
110011,
110110,
110011,
110011,
110100,
111010,
111111,
111011,
111010,
111010,
111010,
111011,
111011,
110101,
111011,
0,
0,
10000,
110,
10000,
11110,
1001,
110000,
110110,
110101,
110101,
110101,
110101,
110011,
110110,
111010,
111010,
110100,
110100,
110011,
111010,
111010,
111010,
111111,
111011,
111010,
111010,
111011,
111010,
110101,
111011,
111100,
0,
0,
1000,
10001,
10011,
11011,
100110,
110000,
110110,
110101,
111111,
110101,
110100,
110101,
111010,
111010,
110011,
110100,
111010,
111010,
111011,
111111,
111010,
111010,
111011,
110110,
111011,
111010,
111010,
110101,
111111,
111111,
0,
0,
10,
110,
100001,
1001,
11110,
110000,
111010,
110101,
111010,
110011,
110101,
110101,
111011,
111010,
101110,
110011,
111010,
111010,
111110,
111110,
110100,
111010,
111011,
110100,
111010,
111010,
111010,
110101,
111011,
111011,
0,
0,
1,
1,
100100,
100111,
11101,
100110,
111010,
110101,
110011,
110110,
110101,
110101,
111011,
111010,
111010,
110011,
111010,
111011,
111010,
111010,
110110,
111011,
111011,
111010,
111010,
111010,
111011,
110101,
111010,
111010,
0,
0,
1,
10000,
10101,
10101,
1010,
1001,
111010,
110101,
111010,
111010,
110011,
110101,
110101,
111010,
111010,
110011,
111010,
111011,
111011,
111010,
111010,
110100,
111010,
111111,
110100,
111010,
111011,
110101,
111010,
111010,
0,
0,
10,
101,
1110,
10101,
1100,
101101,
110011,
110101,
111011,
111010,
111010,
111010,
110100,
111010,
111011,
110100,
110100,
111010,
111010,
111010,
111010,
110011,
110011,
111010,
110011,
110011,
110101,
111011,
111010,
111011,
0,
0,
10000,
10000,
100,
1010,
100010,
110010,
110110,
110101,
111010,
111010,
111011,
111100,
111010,
110011,
111010,
111010,
111010,
111010,
111000,
111010,
111010,
110011,
110011,
110100,
111010,
110100,
110101,
111010,
111010,
111010,
0,
0,
1110,
1111,
1000,
1111,
10011,
100000,
110010,
110101,
111010,
111010,
111010,
111010,
110011,
110111,
111010,
111010,
111010,
111010,
110111,
111010,
111010,
110111,
110111,
111010,
110011,
110011,
110101,
110111,
110111,
110111,
0,
0,
110,
10000,
1110,
11,
1011,
100101,
111010,
110101,
111010,
111010,
110011,
110011,
111010,
111010,
111010,
111011,
111010,
111010,
111010,
111010,
110111,
110111,
111010,
111010,
111010,
110101,
110101,
110011,
111010,
110011,
0,
0,
10000,
10000,
110,
100,
100,
11101,
110001,
110101,
110011,
110011,
110011,
111010,
111101,
111101,
111010,
111010,
111011,
111010,
111010,
110100,
110011,
111010,
110011,
111010,
111010,
110101,
111010,
110100,
110110,
110100,
0,
0,
10,
10000,
11010,
100011,
100001,
100001,
110110,
110101,
110011,
110011,
110011,
111010,
111010,
111010,
111010,
111011,
111010,
111010,
111010,
111010,
110011,
110100,
110011,
110101,
110101,
110100,
110100,
101010,
1001,
101010,
0,
0,
1,
110,
10011,
10100,
101010,
101100,
110110,
110101,
110110,
111010,
111010,
111010,
111010,
111010,
111011,
111010,
111010,
111010,
111011,
111011,
110101,
110101,
110101,
110101,
111010,
110100,
100000,
11101,
11000,
11101,
0,
0,
10000,
110,
100010,
11000,
100101,
101110,
110011,
110101,
111011,
111011,
111010,
111010,
111010,
110110,
111011,
110101,
110101,
110101,
110101,
110101,
111011,
111010,
110111,
110011,
110100,
101010,
11101,
1110,
1110,
1110,
0,
0,
10,
10011,
1110,
11110,
101011,
110011,
111010,
111010,
110101,
110101,
110101,
110101,
110101,
110101,
110101,
111011,
111111,
111011,
111010,
111010,
111010,
111010,
110111,
111010,
110110,
1001,
11000,
1110,
1110,
1110,
0,
0,
10000,
110,
100010,
11000,
100101,
101110,
110011,
111010,
111011,
111011,
111010,
111010,
111010,
110110,
111011,
111100,
111111,
111011,
111010,
111010,
111011,
111010,
110111,
110011,
110100,
101010,
11101,
1110,
1110,
10000,
0,
0,
0,
0,
0,
0,
0,
0,
0,
0,
0,
0,
0,
0,
0,
0,
0,
0,
0,
0,
0,
0,
0,
0,
0,
0,
0,
0,
0,
0,
0,
0,
0,
0,
0,
0,
0,
0,
0,
0,
0,
0,
0,
0,
0,
0,
0,
0,
0,
0,
0,
0,
0,
0,
0,
0,
0,
0,
0,
0,
0,
0,
0,
0,
0,
0;
