memory_initialization_radix=2;
memory_initialization_vector=
100111,
111000,
10110,
111001,
110100,
110010,
1000100,
1000100,
1010101,
1011111,
1010001,
111110,
1000010,
1010111,
1000010,
1000010,
1000010,
1000010,
111111,
1000010,
1010011,
1011101,
1010011,
1011111,
1101111,
1110101,
1100111,
1100111,
1101110,
1100111,
0,
0,
101000,
111000,
100111,
10101,
101111,
110001,
110010,
101111,
1000100,
1000100,
101110,
111110,
1011110,
1011110,
1010011,
1000010,
1000010,
100010,
1010100,
1100011,
1010011,
1000011,
1010100,
1010011,
1011101,
1100111,
1101110,
1101110,
1101010,
1010011,
0,
0,
111001,
10110,
110011,
110101,
101111,
1000011,
1000010,
1000100,
1001000,
110010,
1010001,
1011110,
1010011,
1100111,
1010011,
1010011,
1100001,
1011110,
1100111,
1100010,
1010011,
1011001,
1011001,
110001,
110000,
1000010,
1101110,
1101010,
1010111,
1010011,
0,
0,
111001,
100111,
100101,
110110,
100001,
101111,
1000010,
1001000,
1001001,
1000011,
1010011,
1011110,
1010011,
1100111,
1101110,
1101110,
1100111,
1110000,
1110000,
1010100,
1100111,
1110000,
1010011,
1010100,
1000011,
110001,
110001,
101110,
101110,
110000,
0,
0,
111001,
100111,
100111,
110110,
100001,
100001,
110010,
110010,
1000100,
1010100,
1011111,
1100001,
1101110,
1110000,
1110000,
1110100,
1110011,
1110011,
1110100,
1101110,
1110000,
1110010,
1101010,
1100000,
1100010,
1000010,
110010,
110010,
101111,
111111,
0,
0,
100111,
111000,
1001011,
100111,
100000,
110010,
1000011,
101111,
1000000,
1101000,
1101110,
1101010,
1101110,
1101110,
1110011,
1110011,
1110011,
1110011,
1110011,
1110000,
1110011,
1110100,
1100111,
1100010,
1110100,
1100010,
1010101,
1010100,
110001,
1000001,
0,
0,
100111,
110110,
110110,
100101,
110011,
110001,
110001,
101111,
1000011,
1011010,
1011001,
1011111,
1011111,
1101000,
1100111,
1100111,
1110011,
1110010,
1110011,
1110011,
1110100,
1110011,
1101110,
1101110,
1101010,
1101010,
1100001,
1010010,
1000010,
1010010,
0,
0,
100111,
110110,
111000,
110110,
110011,
1101,
1101,
101111,
1000011,
1010100,
1011111,
1100011,
1000011,
1000010,
1010011,
1100111,
1101110,
1101110,
1110000,
1110011,
1110011,
1110000,
1011110,
1100111,
1110011,
1011110,
1000010,
110001,
110010,
1000011,
0,
0,
110110,
1000101,
1001101,
111001,
100100,
1101,
11100,
1000011,
1000100,
1000011,
1011111,
1011110,
1010011,
1011110,
1010011,
1011110,
1011111,
1110011,
1110011,
1101110,
1101110,
1101110,
1010011,
1010011,
1110000,
1010011,
100001,
110001,
1000010,
1000010,
0,
0,
111001,
110110,
101000,
111000,
110110,
100100,
11100,
1000011,
1000011,
101111,
1000011,
1000010,
1000010,
1010011,
101110,
101111,
1010011,
1101110,
1110000,
1011110,
1011101,
1101001,
1101110,
1011110,
110001,
110001,
1000001,
1000001,
1101110,
1100110,
0,
0,
111000,
101000,
100111,
101001,
101001,
110110,
100000,
100001,
101111,
100001,
1000100,
1000011,
1000010,
111111,
1000010,
1000010,
110001,
1011110,
1010010,
1000001,
1011101,
1100110,
1101010,
1011110,
110001,
1011110,
1101110,
1100110,
1101110,
1011101,
0,
0,
1001011,
100111,
111000,
100111,
111000,
100111,
101000,
1111,
1101,
11100,
101111,
101110,
1000000,
1000010,
1010011,
1000010,
110001,
1011110,
1000001,
1011110,
1101110,
1010010,
1100110,
1011101,
1100111,
1100111,
1101001,
1110000,
1100111,
1010010,
0,
0,
100111,
111000,
100111,
111000,
111000,
111000,
111001,
100100,
1101,
1101,
11100,
11100,
110001,
110001,
110000,
111111,
1000010,
1010011,
1010011,
1100010,
1010011,
101110,
1010011,
1100001,
1110011,
1101001,
1100110,
1100110,
1011101,
1010011,
0,
0,
100111,
111000,
100111,
100111,
10110,
101001,
100111,
100111,
10010,
10000,
10000,
11100,
11101,
11101,
11100,
100000,
1000001,
1000100,
1000011,
1000010,
1000000,
110001,
1010100,
1010100,
1100001,
1011110,
1010011,
1100111,
1101110,
1010011,
0,
0,
100111,
100111,
100111,
100111,
10110,
100111,
1000,
100111,
111000,
100100,
1101,
10000,
10000,
1101,
1101,
10000,
11100,
110010,
110010,
110001,
1000100,
1000100,
1000011,
1000111,
1011110,
1011000,
1000100,
1100111,
1100110,
1000111,
0,
0,
101001,
100111,
100111,
111000,
101001,
10110,
100111,
100111,
111001,
1001011,
100100,
10000,
1101,
1101,
11100,
11100,
11100,
100001,
11100,
11101,
110010,
110010,
100000,
1010010,
1010010,
101111,
1010011,
1100001,
1010100,
1010100,
0,
0,
100111,
100111,
10110,
111001,
111000,
10110,
100111,
100111,
110110,
111001,
10110,
110110,
100101,
100100,
1111,
10000,
11100,
10000,
11100,
11100,
11100,
11100,
11100,
11100,
11100,
11100,
101110,
1000010,
1000100,
1010100,
0,
0,
100111,
111000,
111000,
111000,
100111,
111001,
101001,
100111,
100111,
110110,
100111,
111001,
100111,
100101,
100011,
101,
1101,
1101,
11100,
11100,
1101,
11100,
1101,
1010,
1101,
11100,
1100,
11100,
110010,
110010,
0,
0,
10110,
111000,
1001011,
111001,
100111,
100111,
111001,
101001,
100111,
111000,
111000,
100111,
100111,
100111,
100101,
11111,
1111,
1100,
1111,
1100,
11,
1100,
1010,
11,
11000,
101100,
101100,
101100,
111100,
11001,
0,
0,
100111,
100111,
110110,
1001100,
111000,
10110,
1001011,
111001,
101001,
10110,
111000,
10110,
111000,
100111,
100111,
110110,
10001,
110,
1110,
1110,
1110,
1110,
11,
11,
11001,
111101,
111100,
111100,
1001110,
1001110,
0,
0,
111001,
100111,
10110,
100111,
1001011,
101001,
100111,
100111,
100111,
10101,
100101,
100111,
101001,
100111,
1001011,
110110,
10101,
10001,
1110,
10001,
1110,
1110,
11,
11000,
1001110,
101100,
101010,
111100,
1001110,
1001110,
0,
0,
100111,
110110,
100111,
100111,
1001011,
111000,
10110,
100111,
100111,
101001,
100111,
111010,
111001,
100111,
111001,
110110,
100111,
110110,
100011,
1111,
1110,
11011,
1011011,
1101100,
111101,
11000,
11000,
111100,
111100,
111100,
0,
0,
111000,
100111,
110110,
111000,
111000,
111000,
111000,
100111,
111000,
111000,
100111,
100111,
100111,
100111,
100111,
111001,
111001,
110101,
100111,
10011,
11011,
111100,
1001110,
101010,
11000,
1010,
1010,
1100100,
1101100,
1011011,
0,
0,
111011,
110110,
1001011,
111000,
110110,
110110,
100111,
100111,
100111,
111001,
100111,
10101,
111000,
100111,
100111,
111001,
110110,
111001,
111000,
111000,
100101,
100100,
11010,
11011,
11010,
1100,
11011,
1100101,
1101101,
1001111,
0,
0,
1001011,
111001,
110110,
110110,
111000,
100111,
100111,
111001,
100111,
110110,
10101,
101000,
111001,
111000,
111010,
111001,
100111,
111001,
100111,
100111,
111000,
111001,
10110,
110011,
11110,
100011,
10001,
1010000,
1110001,
1001110,
0,
0,
110110,
1000101,
110110,
1001011,
1001010,
100111,
100111,
111001,
1000101,
1000101,
100111,
111000,
110110,
111001,
1001011,
110110,
111001,
111001,
101000,
100111,
111000,
110110,
100111,
111001,
110110,
110110,
100101,
1010001,
1011100,
101101,
0,
0,
110110,
101000,
111001,
100111,
110110,
100101,
111000,
100111,
110110,
110110,
111000,
101001,
111001,
100111,
110110,
100111,
111001,
100111,
100111,
100111,
111000,
111001,
100111,
100111,
100111,
111000,
100111,
1001100,
1000001,
110101,
0,
0,
111000,
10110,
101001,
10110,
100111,
100111,
10110,
100111,
111011,
101001,
101001,
100111,
10110,
10110,
110110,
111001,
111001,
100111,
100111,
101001,
111000,
110101,
100111,
10110,
1001011,
110110,
10110,
110110,
110101,
100111,
0,
0,
111000,
100111,
111000,
10101,
100111,
111011,
101001,
111000,
111000,
10110,
111001,
100111,
10101,
10101,
100111,
1001011,
100111,
111000,
111000,
10110,
101001,
101001,
111000,
10110,
1001011,
110110,
100101,
111001,
111000,
10110,
0,
0,
110110,
100111,
111000,
100110,
110110,
111000,
101001,
100111,
110101,
100111,
111000,
111011,
110110,
101000,
100111,
1001011,
100111,
110110,
100111,
100111,
100111,
100111,
111000,
100111,
111000,
111001,
100111,
111000,
100111,
100111,
0,
0,
0,
0,
0,
0,
0,
0,
0,
0,
0,
0,
0,
0,
0,
0,
0,
0,
0,
0,
0,
0,
0,
0,
0,
0,
0,
0,
0,
0,
0,
0,
0,
0,
0,
0,
0,
0,
0,
0,
0,
0,
0,
0,
0,
0,
0,
0,
0,
0,
0,
0,
0,
0,
0,
0,
0,
0,
0,
0,
0,
0,
0,
0,
0,
0;
