0011011
0101001
0001111
0101001
0011011
0101001
0101010
0100111
0011011
0110101
0111110
1001001
1011011
1100010
1100100
1100010
1011111
1010101
1000111
0101000
0101010
0011101
0011011
0011011
0101001
0011101
0110101
0100111
0100111
0001110
0000000
0000000
0011100
0101001
0011011
0001110
0011011
0011011
0101001
0011100
1000010
1011011
1100100
1100010
1100010
1011101
1011100
1011010
1011001
1011101
1100010
1100000
1001110
0101010
0001111
0001111
0101001
0011011
0100111
0011011
0101010
0011011
0000000
0000000
0101010
0001111
0100100
0100110
0110111
0011011
0101010
1001101
1100001
1100100
1010000
0101110
0011110
0100001
0100001
0100001
0100001
0110000
1000001
1011001
1100011
1001101
0011011
0011101
0011100
0101011
0100111
0011011
0101001
0011011
0000000
0000000
0101010
0011011
0011001
0101010
0110111
0011011
1001000
1100010
1011010
0111000
0100001
0111000
0111001
1000011
1001010
1000011
1000000
0111010
0101101
0101101
1010011
1100100
1000110
0001110
0011100
0100111
0101001
0011011
0101001
0011011
0000000
0000000
0101010
0011011
0011011
0101010
0101010
0011100
1011000
1011101
0111111
0101101
0111111
1001100
1010010
1010001
1010000
1010000
1001011
1001100
1000011
0111000
0111111
1011110
1010001
0011100
0011011
0001110
0101001
0100110
0011011
0101001
0000000
0000000
0011011
0101001
0110101
0011011
0100111
0101000
1010100
1100010
1000100
0111111
1001011
1010010
1010001
1001111
1010000
1010000
1001011
1001011
1000100
1000011
1000001
1011101
1000011
0011001
0011011
0001111
0101001
0011011
0011011
0011011
0000000
0000000
0011011
0100111
0100111
0011001
0100111
0011011
1001011
1100100
1011000
1000001
1001111
1010000
1001011
1010000
1010000
1010000
1001111
1001011
1000100
1000000
1010000
1100100
0110000
0001110
0011011
0011011
0101001
0101100
0100111
0011100
0000000
0000000
0011011
0100111
0101001
0100111
0100110
0101001
0111111
1010110
1100100
1011000
1001011
1000011
1000011
1001011
1001010
1000100
1000100
1000011
1000011
1010000
1100100
1010110
0101111
0100111
0001111
0011011
0001111
0101001
0100111
0100110
0000000
0000000
0100111
0110011
0110111
0101010
0011001
0100111
1010110
1001011
1010011
1100001
1100010
1011000
1010001
1000100
1000011
1000011
1000011
1001100
1011001
1100010
1010111
0110000
0011110
0100111
0011101
0101001
0101001
0001110
0100111
0100111
0000000
0000000
0101010
0100111
0011100
0101001
0101010
0100100
1001100
1011001
1001100
1001011
1010110
1100001
1100010
1100011
1100010
1100100
1100010
1100010
1100010
1001011
0111000
1000011
0100001
0100110
0101001
0100110
0100111
0011011
0100111
0100100
0000000
0000000
0101001
0011100
0011011
0011101
0011101
0110001
1000000
1001100
1011101
1010111
1001011
1001100
1001111
1010010
1010011
1000100
0111111
0111111
0110000
0101111
1000011
1000011
0010010
0010111
0101001
0100111
0100111
0100111
0001110
0100111
0000000
0000000
0110101
0011011
0101001
0011011
0101001
0100101
1001011
1001100
1000011
1011101
1011101
1010010
1001111
1010001
1010010
0111111
0111111
0111111
1000000
1001111
0111111
0100001
0101101
0010110
0011001
0001101
0001101
0100100
0011011
0110011
0000000
0000000
0011011
0101001
0011011
0101001
0101001
0110010
1001011
1010100
1001100
1000000
0111010
1010111
1011101
1011110
1100010
1100010
1011001
1010100
1001011
0011110
0100001
0110000
0101101
0001000
0000100
0000100
0001001
0000100
0000100
0100100
0000000
0000000
0011011
0101001
0011011
0011011
0001111
0111011
1001100
1011000
1010011
1001111
1000100
0110000
0110000
0100001
0100001
0100001
0100001
0011111
0100001
0101101
0110000
0111111
0110000
0010001
0000100
0001001
0001001
0000100
0001001
0010111
0000000
0000000
0011011
0011011
0011011
0011011
0001111
1000000
1001100
1010010
1010110
1011001
1010111
1000001
1000100
1000011
0111111
0111000
0111111
0110000
0111111
1000000
0111111
0111010
0110000
0010010
0001001
0001001
0000100
0001001
0000100
0001011
0000000
0000000
0011101
0011011
0011011
0101001
0011101
1000100
1010011
1000011
1001011
1011000
1011000
1000100
1011001
1011101
1011000
1010000
1010000
1000011
1010000
1001011
1000000
0100001
0100001
0010010
0001001
0001001
0001001
0001001
0000100
0001011
0000000
0000000
0011011
0011011
0001111
0101010
0101001
1000100
1011001
1010000
0101101
1010000
1001011
1000101
1010110
1011001
1010110
1010001
1001100
0111111
1010000
1000100
0111001
0000110
0010010
0011111
0001001
0001001
0001001
0001001
0000100
0001101
0000000
0000000
0011011
0101001
0101001
0101001
0011011
0111111
1010001
1000100
0100001
1010011
1000011
1000001
1000011
1000000
1000011
1000000
0111111
0101110
0111111
0111010
0111010
0010010
0011110
0011111
0000111
0001001
0001001
0001010
0001001
0001101
0000000
0000000
0001111
0101001
0110101
0101010
0100111
1000011
1010011
0111010
0111010
1011001
1010010
1010000
1010011
1010010
0000110
0010000
1001100
1000011
1000100
1000011
1000011
0101110
0100001
0101101
0001000
0001011
0001001
0001001
0001001
0001101
0000000
0000000
0011011
0011011
0100111
0110110
0110010
1000011
1011001
1010001
1001111
1011001
1010011
1010110
1011001
1011000
0000010
0000011
1010010
1010001
1001111
1000011
0111111
0110000
0100001
0110000
0000110
0001011
0001011
0001001
0000100
0010111
0000000
0000000
0101010
0011011
0001111
0011011
0111001
1001100
1011001
1010110
1001111
1001100
1000100
1010110
1011001
1011101
0000010
0000101
1010010
1001100
1001011
0111000
0100001
0101101
0100001
0100001
0000110
0001011
0001001
0001001
0001011
0011001
0000000
0000000
0011011
0100111
0011011
0011011
0111010
1010001
1000101
1010110
1010000
1011001
1010010
0111111
0111000
1000011
0100001
0101101
0111010
0101110
0100001
0111111
1000100
0111010
0100001
0100001
0010010
0001011
0000100
0001001
0001011
0011001
0000000
0000000
0101001
0011011
0100111
0101001
0111001
1010111
1010000
0111111
1010001
1011000
1011100
1011101
1010000
1011000
1011100
1010110
1001100
0111000
1001011
1010001
1010000
0111111
0011111
1000000
0100001
0001001
0001001
0001011
0000100
0011011
0000000
0000000
0101100
0100111
0110101
0101001
0111011
1010110
1010010
1000001
1000001
1010001
1010110
1011101
0111000
1010001
1011001
1010010
1001100
0111000
1010001
1001111
1000011
0101101
0111111
1000011
0101111
0001001
0001001
0001011
0011001
0101001
0000000
0000000
0110101
0101010
0100111
0100111
0111101
1001011
1010001
1001100
0000110
0111010
1000101
1010000
0100001
1000100
1000011
1001011
0111111
0011111
1000011
0111111
0111000
0010000
0110000
1000000
0010101
0001011
0001011
0011011
0101001
0100111
0000000
0000000
0100111
0110011
0100111
0110101
0101010
0111100
1000001
1000001
0111111
1011001
1010000
0101101
1000000
1011001
1010010
1010111
1010110
0111010
0110000
0111010
1000011
0011110
0100001
0100000
0010110
0100111
0101001
0011100
0001111
0101001
0000000
0000000
0100111
0011100
0101010
0011011
0100111
0011010
0110010
0101111
0111010
1011001
1011001
1000100
1100011
0111111
0000000
0000000
0101101
1011101
0111111
1000011
0111111
0010010
0010100
0011000
0011011
0101001
0011011
0100111
0011011
0101001
0000000
0000000
0101001
0001111
0011101
0001111
0011011
0011011
0011001
0011000
0100011
1000011
1000101
0111010
1100010
0010011
0000001
0000001
0000110
1011010
0100001
0110000
0101111
0010110
0011001
0001111
0110101
0100111
0001111
0100111
0101001
0011011
0000000
0000000
0101001
0011011
0101001
0001110
0011011
0101100
0011101
0101001
0100111
0011000
0100010
0100011
1010010
0010000
0000001
0000001
0000110
1000100
0100010
0001100
0011001
0101001
0101001
0001111
0110101
0100111
0011001
0101010
0101001
0001111
0000000
0000000
0100111
0011011
0101001
0011010
0100111
0101001
0011101
0011011
0100110
0011011
0100110
0101010
0110100
0011000
0001101
0100100
0001101
0100100
0011100
0011011
0011011
0011011
0101001
0011011
0101001
0101010
0011011
0101001
0011011
0011011
0000000
0000000
0000000
0000000
0000000
0000000
0000000
0000000
0000000
0000000
0000000
0000000
0000000
0000000
0000000
0000000
0000000
0000000
0000000
0000000
0000000
0000000
0000000
0000000
0000000
0000000
0000000
0000000
0000000
0000000
0000000
0000000
0000000
0000000
0000000
0000000
0000000
0000000
0000000
0000000
0000000
0000000
0000000
0000000
0000000
0000000
0000000
0000000
0000000
0000000
0000000
0000000
0000000
0000000
0000000
0000000
0000000
0000000
0000000
0000000
0000000
0000000
0000000
0000000
0000000
0000000
