memory_initialization_radix=16;
memory_initialization_vector=
380,
490,
280,
490,
380,
490,
491,
481,
380,
490,
481,
380,
481,
471,
481,
490,
491,
481,
390,
381,
491,
390,
380,
380,
490,
390,
591,
481,
481,
270,
000,
000,
381,
490,
380,
270,
380,
380,
490,
380,
490,
390,
481,
481,
270,
481,
370,
380,
490,
380,
490,
380,
481,
390,
280,
280,
490,
380,
481,
380,
491,
380,
000,
000,
491,
280,
471,
480,
5A0,
390,
380,
380,
590,
280,
380,
591,
380,
581,
481,
380,
591,
380,
490,
380,
380,
491,
380,
390,
381,
492,
481,
380,
490,
380,
000,
000,
491,
380,
370,
491,
5A0,
280,
390,
490,
481,
381,
380,
380,
280,
591,
370,
370,
380,
490,
380,
491,
280,
490,
490,
280,
381,
481,
490,
380,
490,
380,
000,
000,
491,
380,
380,
491,
491,
370,
490,
380,
490,
481,
481,
380,
490,
490,
280,
481,
380,
490,
380,
390,
280,
390,
490,
380,
380,
270,
490,
480,
380,
490,
000,
000,
380,
490,
591,
380,
481,
481,
380,
380,
490,
591,
591,
5A0,
380,
380,
490,
4A0,
380,
380,
380,
380,
280,
481,
380,
380,
380,
280,
490,
380,
380,
380,
000,
000,
380,
481,
481,
370,
481,
380,
491,
280,
491,
5A1,
581,
491,
581,
490,
380,
490,
390,
380,
380,
490,
390,
280,
381,
380,
380,
380,
490,
4A0,
481,
381,
000,
000,
380,
481,
490,
481,
480,
390,
490,
370,
481,
591,
481,
380,
280,
490,
380,
380,
380,
380,
280,
491,
490,
280,
380,
491,
280,
380,
280,
490,
481,
480,
000,
000,
481,
581,
5A0,
491,
370,
380,
481,
371,
490,
490,
491,
490,
280,
280,
280,
380,
380,
490,
490,
490,
380,
491,
390,
490,
390,
490,
490,
270,
481,
481,
000,
000,
491,
481,
381,
490,
491,
380,
481,
380,
490,
280,
380,
4A0,
491,
390,
380,
380,
280,
490,
591,
491,
380,
380,
491,
490,
490,
480,
481,
380,
481,
471,
000,
000,
490,
381,
380,
390,
390,
481,
491,
380,
380,
280,
380,
491,
481,
490,
591,
280,
380,
380,
481,
592,
490,
280,
491,
380,
490,
481,
481,
481,
270,
481,
000,
000,
591,
380,
490,
380,
490,
380,
481,
270,
280,
280,
490,
381,
380,
490,
491,
280,
491,
380,
280,
380,
591,
390,
390,
380,
480,
380,
380,
591,
380,
581,
000,
000,
380,
490,
380,
490,
490,
490,
491,
380,
380,
380,
490,
491,
270,
480,
481,
380,
380,
481,
380,
380,
591,
490,
380,
490,
380,
270,
490,
380,
280,
591,
000,
000,
380,
490,
380,
380,
280,
390,
380,
390,
280,
380,
491,
4A0,
491,
481,
380,
380,
490,
380,
481,
490,
490,
490,
280,
380,
380,
390,
380,
270,
490,
490,
000,
000,
380,
380,
380,
380,
280,
380,
170,
380,
490,
591,
381,
490,
490,
491,
481,
481,
581,
481,
491,
481,
381,
390,
380,
390,
380,
490,
280,
390,
380,
380,
000,
000,
390,
380,
380,
490,
390,
280,
380,
380,
491,
591,
370,
381,
490,
481,
491,
481,
381,
481,
491,
581,
491,
380,
490,
280,
390,
490,
490,
490,
270,
390,
000,
000,
380,
380,
280,
491,
490,
280,
380,
380,
481,
491,
280,
481,
380,
491,
380,
490,
380,
380,
490,
480,
490,
280,
490,
390,
490,
380,
380,
390,
380,
490,
000,
000,
380,
490,
490,
490,
380,
491,
390,
380,
380,
481,
380,
491,
380,
380,
480,
380,
481,
380,
490,
390,
491,
280,
490,
390,
390,
380,
380,
481,
380,
490,
000,
000,
280,
490,
591,
491,
380,
380,
491,
390,
380,
490,
490,
380,
380,
380,
380,
591,
481,
280,
490,
380,
490,
490,
380,
380,
490,
490,
380,
491,
491,
380,
000,
000,
380,
380,
481,
592,
490,
280,
591,
491,
390,
280,
490,
280,
490,
380,
380,
591,
491,
380,
380,
380,
490,
490,
390,
380,
380,
490,
490,
481,
380,
490,
000,
000,
491,
380,
280,
380,
591,
390,
380,
380,
380,
270,
370,
380,
390,
380,
591,
481,
370,
380,
491,
491,
490,
490,
280,
490,
380,
490,
390,
491,
490,
490,
000,
000,
380,
481,
380,
380,
591,
490,
280,
380,
380,
390,
380,
492,
491,
380,
491,
481,
380,
491,
491,
381,
380,
481,
380,
490,
481,
490,
270,
491,
390,
490,
000,
000,
490,
380,
481,
490,
490,
490,
490,
380,
490,
490,
380,
380,
380,
380,
380,
491,
491,
480,
490,
380,
480,
481,
481,
381,
590,
481,
481,
5A0,
280,
380,
000,
000,
4A0,
481,
591,
490,
481,
481,
380,
380,
380,
491,
380,
270,
490,
380,
380,
491,
481,
491,
490,
490,
380,
481,
380,
380,
5A0,
490,
491,
490,
390,
490,
000,
000,
591,
491,
481,
481,
490,
380,
380,
491,
380,
481,
270,
381,
491,
490,
492,
491,
380,
491,
380,
380,
490,
491,
380,
591,
481,
490,
380,
480,
490,
481,
000,
000,
481,
581,
481,
591,
590,
380,
380,
491,
581,
581,
380,
490,
481,
491,
591,
481,
491,
491,
381,
380,
490,
481,
380,
491,
481,
591,
490,
381,
280,
490,
000,
000,
481,
381,
491,
380,
481,
370,
490,
380,
481,
481,
490,
390,
491,
380,
481,
380,
491,
380,
380,
380,
490,
491,
380,
380,
380,
490,
380,
481,
380,
490,
000,
000,
490,
280,
390,
280,
380,
380,
280,
380,
4A0,
390,
390,
380,
280,
280,
481,
491,
491,
380,
380,
390,
490,
480,
380,
280,
591,
481,
280,
481,
490,
380,
000,
000,
490,
380,
490,
270,
380,
4A0,
390,
490,
490,
280,
491,
380,
270,
270,
380,
591,
380,
490,
490,
280,
390,
390,
490,
280,
591,
481,
370,
491,
490,
280,
000,
000,
481,
380,
490,
371,
481,
490,
390,
380,
480,
380,
490,
4A0,
481,
381,
380,
591,
380,
481,
380,
380,
380,
380,
490,
380,
490,
491,
380,
490,
380,
380,
000,
000,
000,
000,
000,
000,
000,
000,
000,
000,
000,
000,
000,
000,
000,
000,
000,
000,
000,
000,
000,
000,
000,
000,
000,
000,
000,
000,
000,
000,
000,
000,
000,
000,
000,
000,
000,
000,
000,
000,
000,
000,
000,
000,
000,
000,
000,
000,
000,
000,
000,
000,
000,
000,
000,
000,
000,
000,
000,
000,
000,
000,
000,
000,
000,
000,
490,
380,
681,
591,
760,
961,
A71,
B82,
B83,
B83,
B82,
B82,
B82,
A82,
B83,
B93,
C93,
B83,
B82,
B82,
B83,
B82,
B71,
A71,
A72,
860,
660,
480,
480,
490,
000,
000,
280,
570,
480,
661,
870,
A71,
B82,
B82,
B82,
B82,
B82,
A71,
B82,
B82,
B82,
B83,
C93,
B83,
B82,
B82,
B82,
B82,
B71,
B82,
A82,
450,
591,
480,
480,
490,
000,
000,
370,
491,
380,
450,
971,
A71,
B82,
B82,
A71,
A71,
A72,
A71,
B82,
A72,
C82,
B82,
B82,
B82,
B82,
B82,
A72,
A71,
B71,
A82,
660,
660,
770,
591,
380,
480,
000,
000,
481,
581,
691,
760,
971,
A71,
A81,
B71,
A71,
A71,
A71,
B82,
B83,
B82,
B82,
B71,
B82,
B82,
B82,
B82,
A72,
A71,
B71,
A72,
860,
651,
760,
490,
480,
280,
000,
000,
370,
380,
480,
680,
971,
B82,
B82,
B82,
B82,
A82,
971,
B82,
B83,
A72,
B82,
A71,
B82,
C93,
C93,
B82,
A82,
A71,
B82,
B82,
761,
650,
661,
570,
280,
380,
000,
000,
380,
490,
5A1,
450,
971,
B82,
A72,
B82,
B82,
B82,
A71,
A71,
B71,
B71,
A72,
A71,
B82,
B83,
B82,
B82,
A72,
B82,
B82,
B82,
A72,
960,
581,
470,
580,
491,
000,
000,
490,
491,
591,
671,
870,
A71,
A71,
B82,
B82,
A82,
B82,
B82,
B81,
B71,
A71,
A82,
A71,
A71,
A82,
A72,
B82,
B82,
A82,
A82,
871,
860,
571,
570,
380,
270,
000,
000,
380,
490,
460,
450,
760,
A81,
A81,
B82,
B82,
B82,
B82,
B82,
B71,
B71,
A71,
A71,
A71,
A72,
B82,
B83,
B82,
A82,
B83,
A82,
680,
680,
690,
5A1,
490,
280,
000,
000,
380,
480,
680,
560,
570,
A81,
B82,
A71,
B82,
B71,
B82,
B82,
B82,
B82,
B82,
A72,
A71,
A71,
B82,
B82,
A71,
B82,
B83,
981,
660,
360,
360,
380,
490,
490,
000,
000,
380,
390,
591,
691,
560,
A81,
A81,
A71,
B71,
B71,
B82,
B82,
A72,
A72,
B82,
B82,
C83,
B83,
B82,
A71,
A71,
B82,
B82,
B82,
760,
461,
350,
480,
490,
380,
000,
000,
480,
480,
390,
5A1,
791,
761,
A81,
A71,
A71,
A71,
B82,
B82,
B82,
A71,
B82,
B82,
B83,
B93,
B83,
B82,
A72,
A71,
A71,
982,
671,
570,
481,
390,
481,
480,
000,
000,
380,
380,
490,
470,
450,
A82,
972,
A81,
B82,
B82,
A71,
B82,
B72,
B82,
B82,
B83,
B83,
B93,
B82,
A82,
A71,
B82,
B82,
A82,
982,
681,
460,
360,
490,
490,
000,
000,
491,
480,
670,
560,
770,
A71,
B82,
A81,
B83,
B82,
B71,
A71,
B82,
B82,
A72,
B82,
B83,
B82,
B82,
B82,
B82,
B82,
B82,
A71,
960,
470,
580,
480,
370,
280,
000,
000,
480,
490,
670,
661,
781,
B82,
C93,
B83,
A81,
A71,
A71,
A71,
B82,
B82,
A72,
A72,
B82,
B82,
A71,
B82,
B83,
B83,
B82,
B82,
450,
460,
580,
580,
490,
270,
000,
000,
380,
470,
490,
460,
661,
A82,
B82,
B82,
A81,
A81,
A71,
A71,
A71,
B82,
B82,
A71,
A82,
A71,
A71,
A72,
B82,
C93,
B83,
B82,
761,
660,
770,
691,
270,
270,
000,
000,
490,
380,
490,
661,
450,
972,
A82,
A81,
A81,
A81,
A81,
A71,
A82,
B82,
B82,
A72,
A72,
A71,
B82,
B82,
B82,
C93,
B83,
B82,
972,
661,
450,
680,
380,
280,
000,
000,
390,
491,
570,
650,
761,
972,
A82,
A81,
C93,
A81,
A72,
A81,
B82,
B82,
A71,
A72,
B82,
B82,
B83,
C93,
B82,
B82,
B83,
A82,
972,
761,
650,
570,
491,
390,
000,
000,
280,
380,
680,
450,
661,
972,
B82,
A81,
B82,
A71,
A81,
A81,
B83,
B82,
961,
A71,
B82,
B82,
C83,
C83,
A72,
B82,
B83,
A82,
972,
450,
661,
490,
380,
490,
000,
000,
270,
270,
691,
770,
660,
761,
B82,
A81,
A71,
A82,
A81,
A81,
B83,
B82,
B82,
A71,
B82,
B83,
B82,
B82,
A82,
B83,
B83,
B82,
A82,
661,
460,
570,
470,
380,
000,
000,
270,
490,
580,
580,
460,
450,
B82,
A81,
B82,
B82,
A71,
A81,
A81,
B82,
B82,
A71,
B82,
B83,
B83,
B82,
B82,
A72,
B82,
C93,
B82,
781,
661,
670,
490,
480,
000,
000,
280,
370,
480,
580,
470,
960,
A71,
A81,
B83,
B82,
B82,
B82,
A72,
B82,
B83,
A72,
A72,
B82,
B82,
B82,
B82,
A71,
A71,
B82,
A71,
770,
560,
670,
480,
491,
000,
000,
490,
490,
360,
460,
681,
982,
A82,
A81,
B82,
B82,
B83,
B93,
B82,
A71,
B82,
B82,
B82,
B82,
B72,
B82,
B82,
A71,
A71,
972,
A82,
450,
470,
490,
380,
380,
000,
000,
480,
481,
390,
481,
570,
671,
982,
A81,
B82,
B82,
B82,
B82,
A71,
B71,
B82,
B82,
B82,
B82,
B71,
B82,
B82,
B71,
B71,
B82,
761,
791,
5A1,
390,
480,
480,
000,
000,
380,
490,
480,
350,
461,
760,
B82,
A81,
B82,
B82,
A71,
A71,
B82,
B82,
B82,
B83,
B82,
B82,
B82,
B82,
B71,
B71,
B82,
B82,
A71,
560,
691,
591,
390,
380,
000,
000,
490,
490,
380,
360,
360,
660,
981,
A81,
A71,
A71,
A71,
B82,
C82,
C82,
B82,
B82,
B83,
B82,
B82,
A72,
A71,
B82,
A71,
B82,
681,
570,
560,
680,
480,
380,
000,
000,
280,
490,
5A1,
690,
680,
680,
A82,
A81,
A71,
A71,
A71,
B82,
B82,
B82,
B82,
B83,
B82,
B82,
B82,
B82,
A71,
A72,
A71,
A81,
A81,
760,
450,
460,
490,
380,
000,
000,
270,
380,
570,
571,
860,
871,
A82,
A81,
A82,
B82,
B82,
B82,
B82,
B82,
B83,
B82,
B82,
B82,
B83,
B83,
A81,
A81,
A81,
A81,
A71,
870,
671,
591,
491,
490,
000,
000,
490,
380,
681,
591,
760,
961,
A71,
A81,
B83,
B83,
B82,
B82,
B82,
A82,
B83,
A81,
A81,
A81,
A81,
A81,
B83,
B82,
B71,
A71,
A72,
860,
660,
480,
480,
490,
000,
000,
280,
570,
480,
661,
870,
A71,
B82,
B82,
A81,
A81,
A81,
A81,
A81,
A81,
A81,
B83,
C93,
B83,
B82,
B82,
B82,
B82,
B71,
B82,
A82,
450,
591,
480,
480,
490,
000,
000,
490,
380,
681,
591,
760,
961,
A71,
B82,
B83,
B83,
B82,
B82,
B82,
A82,
B83,
B93,
C93,
B83,
B82,
B82,
B83,
B82,
B71,
A71,
A72,
860,
660,
480,
480,
490,
000,
000,
000,
000,
000,
000,
000,
000,
000,
000,
000,
000,
000,
000,
000,
000,
000,
000,
000,
000,
000,
000,
000,
000,
000,
000,
000,
000,
000,
000,
000,
000,
000,
000,
000,
000,
000,
000,
000,
000,
000,
000,
000,
000,
000,
000,
000,
000,
000,
000,
000,
000,
000,
000,
000,
000,
000,
000,
000,
000,
000,
000,
000,
000,
000,
000,
490,
280,
490,
270,
280,
490,
380,
480,
490,
280,
270,
270,
280,
390,
490,
380,
480,
491,
380,
480,
380,
380,
380,
490,
380,
370,
481,
370,
280,
490,
000,
000,
380,
570,
380,
380,
490,
490,
490,
481,
490,
370,
490,
270,
380,
491,
380,
470,
490,
480,
380,
480,
390,
480,
490,
491,
490,
380,
581,
491,
570,
380,
000,
000,
681,
480,
681,
570,
5A1,
380,
480,
390,
360,
480,
580,
691,
680,
570,
490,
490,
670,
670,
490,
390,
591,
680,
460,
591,
5A1,
480,
691,
380,
480,
681,
000,
000,
591,
661,
591,
571,
690,
360,
350,
481,
460,
580,
580,
770,
450,
650,
661,
460,
661,
560,
470,
5A1,
691,
560,
450,
671,
450,
680,
760,
450,
661,
591,
000,
000,
760,
870,
760,
860,
680,
360,
461,
570,
681,
470,
460,
660,
661,
761,
450,
661,
781,
770,
450,
791,
560,
570,
760,
870,
971,
971,
971,
971,
870,
760,
000,
000,
961,
A71,
961,
871,
680,
660,
760,
671,
982,
960,
450,
761,
972,
972,
972,
A82,
B82,
A71,
A82,
761,
A81,
A81,
A81,
A71,
B82,
B82,
A71,
A71,
A71,
961,
000,
000,
A71,
B82,
A71,
A82,
A82,
981,
B82,
982,
A82,
A71,
B82,
B82,
B82,
A82,
A82,
B82,
C93,
B82,
972,
A81,
A81,
B82,
A81,
A71,
A72,
B82,
A81,
B82,
B82,
A71,
000,
000,
B82,
B82,
A81,
A81,
A81,
A81,
A81,
A81,
A81,
A81,
A81,
A81,
A81,
A81,
A81,
B82,
B83,
A81,
A81,
A71,
A71,
A71,
B82,
B82,
B82,
B82,
B71,
B82,
B82,
B82,
000,
000,
B83,
A81,
B83,
A82,
A71,
A71,
B82,
B82,
B82,
B83,
B82,
A71,
B82,
C93,
A81,
A81,
A81,
B83,
B82,
A71,
B71,
B82,
B82,
B82,
B82,
B82,
A71,
A71,
B82,
B83,
000,
000,
B83,
A81,
B83,
B82,
A71,
A71,
B82,
B82,
B82,
B82,
B82,
A82,
A71,
A81,
A81,
A81,
A71,
B82,
B82,
A71,
B71,
B71,
B82,
A82,
B82,
A82,
A71,
A71,
B82,
B83,
000,
000,
B82,
A81,
B82,
B82,
A71,
A71,
A71,
B82,
B83,
B82,
A71,
A81,
A81,
A72,
A81,
A71,
A71,
B71,
A71,
B82,
B82,
B82,
B82,
B82,
A71,
971,
A71,
A72,
B82,
B82,
000,
000,
B82,
A81,
B82,
B82,
B82,
B82,
A71,
B82,
B93,
B82,
A81,
A81,
A81,
A81,
A71,
A71,
A71,
A71,
B82,
B82,
B82,
B82,
B82,
B82,
A71,
B82,
B82,
A71,
A71,
B82,
000,
000,
B82,
A81,
B82,
B82,
B82,
C82,
B82,
A71,
B82,
A72,
A81,
B83,
B83,
B82,
A82,
A71,
B82,
B82,
B72,
B82,
A72,
B82,
B71,
B81,
B71,
B83,
B83,
B82,
B82,
B82,
000,
000,
A82,
A81,
A82,
B82,
B82,
C82,
B82,
B71,
A71,
B82,
B82,
B82,
B82,
B82,
B82,
B82,
B82,
B82,
B82,
A71,
A72,
B82,
B71,
B71,
B71,
A72,
B82,
A72,
B82,
A82,
000,
000,
B83,
A81,
B83,
B83,
B82,
B82,
B82,
B82,
B82,
B83,
B82,
B82,
961,
A71,
B82,
B82,
A72,
A72,
B82,
B82,
B82,
B82,
A71,
A71,
A72,
B82,
B82,
C82,
B82,
B83,
000,
000,
B93,
B83,
A81,
B82,
B83,
B82,
B83,
B82,
B82,
A72,
A71,
A71,
A71,
A72,
A72,
A71,
A72,
B82,
B83,
B82,
B82,
A72,
A71,
A82,
A71,
A71,
B71,
B82,
B83,
B93,
000,
000,
C93,
C93,
A81,
B82,
B82,
B83,
B82,
B82,
B82,
A72,
B82,
B82,
B82,
B82,
A72,
A82,
B82,
B83,
B83,
B83,
C83,
A71,
A71,
A71,
B82,
B82,
B82,
B82,
C93,
C93,
000,
000,
B83,
B83,
A81,
B82,
B82,
B82,
B82,
B82,
B82,
B82,
B83,
B83,
B82,
B82,
A71,
A71,
B82,
B82,
B93,
B93,
B83,
A71,
A72,
A71,
B83,
C93,
B82,
B82,
B83,
B83,
000,
000,
B82,
B82,
A81,
B83,
B82,
B82,
B82,
B71,
B72,
B82,
B83,
B82,
C83,
B83,
B82,
A71,
A71,
B82,
B82,
B83,
B82,
B82,
B82,
A82,
B82,
C93,
B82,
B82,
B82,
B82,
000,
000,
B82,
B82,
A81,
B83,
B82,
A72,
B82,
B82,
B82,
B82,
B82,
B82,
C83,
C93,
B82,
A72,
B82,
B82,
A82,
B82,
A71,
B82,
B83,
A72,
B82,
B82,
B82,
B82,
B82,
B82,
000,
000,
B83,
B82,
B83,
A81,
A71,
A71,
B71,
B82,
B82,
B82,
B82,
A82,
A72,
B82,
B82,
B82,
B83,
B82,
A71,
A72,
A71,
A71,
B82,
B82,
A72,
A82,
A72,
A72,
B82,
B83,
000,
000,
B82,
B82,
B82,
A81,
A72,
B82,
B71,
B71,
A71,
A71,
A72,
B83,
B82,
B82,
C93,
C93,
B83,
B82,
B82,
A71,
B82,
B82,
A82,
B82,
B82,
A71,
A71,
A71,
B82,
B82,
000,
000,
B71,
B71,
B71,
A81,
A71,
A71,
B82,
B71,
A71,
A71,
B82,
B83,
B83,
B83,
B83,
B83,
B82,
B82,
B82,
A71,
B82,
B83,
B83,
A82,
B82,
B82,
B71,
B71,
B71,
B71,
000,
000,
A71,
B82,
A71,
A81,
A81,
B82,
B82,
B82,
972,
B82,
C93,
B82,
A82,
A82,
B82,
B82,
B82,
A71,
A82,
982,
B82,
981,
A82,
A82,
B82,
B82,
A72,
A82,
B82,
A71,
000,
000,
A72,
A82,
A72,
A71,
A81,
681,
A71,
761,
A82,
A71,
B82,
A82,
972,
972,
972,
761,
450,
960,
982,
671,
760,
660,
680,
871,
A72,
761,
860,
660,
A82,
A72,
000,
000,
860,
450,
860,
870,
760,
570,
560,
791,
450,
770,
781,
661,
450,
761,
661,
660,
460,
470,
681,
570,
461,
360,
680,
860,
960,
650,
651,
660,
450,
860,
000,
000,
660,
591,
660,
671,
450,
560,
691,
5A1,
470,
560,
661,
460,
661,
650,
450,
770,
580,
580,
460,
481,
350,
360,
690,
571,
581,
661,
760,
770,
591,
660,
000,
000,
480,
480,
480,
591,
460,
680,
591,
390,
490,
670,
670,
570,
490,
570,
680,
691,
580,
480,
360,
390,
480,
380,
5A1,
570,
470,
570,
490,
591,
480,
480,
000,
000,
480,
480,
480,
491,
490,
480,
390,
480,
380,
480,
490,
470,
380,
491,
380,
270,
490,
370,
490,
481,
490,
490,
490,
380,
580,
280,
480,
380,
480,
480,
000,
000,
490,
490,
490,
490,
380,
380,
380,
480,
380,
491,
480,
380,
490,
390,
280,
270,
270,
280,
490,
480,
380,
490,
280,
270,
491,
380,
280,
480,
490,
490,
000,
000,
000,
000,
000,
000,
000,
000,
000,
000,
000,
000,
000,
000,
000,
000,
000,
000,
000,
000,
000,
000,
000,
000,
000,
000,
000,
000,
000,
000,
000,
000,
000,
000,
000,
000,
000,
000,
000,
000,
000,
000,
000,
000,
000,
000,
000,
000,
000,
000,
000,
000,
000,
000,
000,
000,
000,
000,
000,
000,
000,
000,
000,
000,
000,
000,
490,
480,
480,
660,
860,
A72,
A71,
B71,
B82,
B83,
B82,
B82,
B83,
C93,
B93,
B83,
A82,
B82,
B82,
B82,
B83,
B83,
B82,
A71,
961,
760,
591,
681,
380,
490,
000,
000,
480,
480,
480,
591,
450,
A82,
B82,
B71,
B82,
B82,
B82,
B82,
B83,
C93,
B83,
A81,
A81,
A81,
A81,
A81,
A81,
A81,
B82,
B82,
A71,
870,
661,
480,
570,
280,
000,
000,
480,
480,
480,
660,
860,
A72,
A71,
B71,
B82,
B83,
A81,
A81,
A81,
A81,
A81,
B83,
A82,
B82,
B82,
B82,
B83,
B83,
A81,
A71,
961,
760,
591,
681,
380,
490,
000,
000,
660,
591,
660,
671,
A72,
B82,
A81,
A81,
A81,
A81,
B83,
B83,
B82,
B82,
B82,
B83,
B82,
B82,
B82,
B82,
B82,
A82,
A81,
A82,
871,
860,
571,
570,
380,
270,
000,
000,
860,
450,
860,
A72,
A72,
A81,
A81,
A71,
A72,
A71,
B82,
B82,
B82,
B82,
B83,
B82,
B82,
B82,
B82,
A71,
A71,
A71,
A81,
A82,
680,
680,
690,
5A1,
490,
280,
000,
000,
A72,
A82,
A72,
B82,
A81,
B82,
B82,
A71,
B82,
A71,
A72,
B82,
B82,
B83,
B82,
B82,
C82,
C82,
B82,
A71,
A71,
A71,
A81,
981,
660,
360,
360,
380,
490,
490,
000,
000,
A71,
B82,
A71,
A81,
A81,
B82,
B82,
B82,
B71,
B71,
B82,
B82,
B82,
B82,
B83,
B82,
B82,
B82,
A71,
A71,
B82,
B82,
A81,
B82,
760,
461,
350,
480,
490,
380,
000,
000,
B71,
B71,
B71,
A81,
A71,
A71,
B82,
B71,
B71,
B82,
B82,
B71,
B82,
B82,
B82,
B82,
B71,
A71,
B82,
B82,
B82,
B82,
A81,
982,
671,
570,
481,
390,
481,
480,
000,
000,
B82,
B82,
B82,
A81,
A72,
B82,
A72,
A71,
A71,
B82,
B82,
B72,
B82,
B82,
B82,
B82,
A71,
B82,
B93,
B83,
B82,
B82,
A81,
A82,
982,
681,
460,
360,
490,
490,
000,
000,
B83,
B82,
B83,
A81,
A71,
A71,
B82,
A71,
A71,
B82,
B82,
B82,
B82,
A72,
A72,
B83,
B82,
A72,
B82,
B82,
B82,
B83,
A81,
A71,
960,
470,
580,
480,
370,
280,
000,
000,
B82,
B82,
A81,
B83,
B82,
A72,
C93,
B82,
A72,
B82,
B82,
B83,
B83,
B82,
A71,
B82,
B82,
A81,
A81,
A71,
B82,
B82,
A81,
B82,
450,
460,
580,
580,
490,
270,
000,
000,
B82,
B82,
A81,
B83,
B82,
B82,
B82,
B83,
B83,
A82,
B82,
B82,
B83,
B82,
A71,
B82,
B82,
B83,
A81,
A81,
A82,
A71,
A81,
B82,
761,
660,
770,
691,
270,
270,
000,
000,
B83,
B83,
A81,
B82,
B82,
B82,
A72,
B83,
B82,
A72,
C83,
C83,
B82,
B82,
A71,
961,
B82,
B83,
A81,
A81,
A71,
B82,
A81,
B82,
972,
661,
450,
680,
380,
280,
000,
000,
C93,
C93,
A81,
B82,
B82,
B83,
A82,
B83,
B82,
B82,
C93,
B83,
B82,
B82,
A72,
A71,
B82,
B82,
A81,
A72,
A81,
C93,
A81,
A82,
972,
761,
650,
570,
491,
390,
000,
000,
B93,
B83,
A81,
B82,
B83,
B82,
B82,
B83,
C93,
B82,
B82,
B82,
A71,
A72,
A72,
B82,
B82,
A82,
A71,
A81,
A81,
A81,
A81,
A82,
972,
450,
661,
490,
380,
490,
000,
000,
B83,
A81,
B83,
B83,
B82,
B82,
B82,
B83,
C93,
B82,
A72,
A71,
A71,
A82,
A71,
B82,
B82,
A71,
A71,
A71,
A81,
A81,
B82,
B82,
A82,
661,
460,
490,
470,
380,
000,
000,
A82,
A81,
A82,
B82,
B82,
C82,
B82,
B82,
B83,
B83,
B82,
A71,
B82,
B82,
A72,
A72,
B82,
B82,
A71,
A71,
A71,
A81,
B83,
C93,
B82,
781,
661,
670,
490,
480,
000,
000,
B82,
A81,
B82,
B82,
B82,
C82,
A72,
A72,
B82,
B82,
B82,
B82,
B82,
B83,
B82,
A72,
B82,
B82,
A71,
B71,
B82,
B83,
A81,
B82,
A71,
770,
560,
670,
480,
491,
000,
000,
B82,
A81,
B82,
B82,
B82,
B82,
A82,
B82,
B82,
A71,
A82,
B82,
B93,
B83,
B83,
B82,
B82,
B72,
B82,
A71,
B82,
B82,
A81,
972,
A82,
450,
470,
490,
380,
380,
000,
000,
B82,
A81,
B82,
B82,
A71,
A71,
A72,
A71,
A71,
A72,
B82,
B83,
B93,
B83,
B82,
B82,
A71,
B82,
B82,
B82,
A71,
A71,
A71,
A81,
761,
791,
5A1,
390,
480,
480,
000,
000,
B83,
A81,
B83,
B82,
A71,
A71,
B82,
B82,
B82,
A71,
A71,
B82,
B83,
C83,
B82,
B82,
A72,
A72,
B82,
B82,
B71,
B82,
B82,
B82,
761,
491,
490,
381,
481,
491,
000,
000,
B83,
A81,
B83,
A82,
A71,
A71,
A72,
B83,
B82,
A71,
B82,
B82,
A71,
A71,
A72,
B82,
B82,
B82,
B82,
B82,
B71,
A71,
A71,
B83,
450,
370,
491,
5A0,
581,
481,
000,
000,
B82,
B82,
A81,
A81,
A81,
A81,
B82,
B82,
A71,
A71,
A71,
A81,
A81,
B83,
B82,
A81,
A81,
A81,
A81,
A81,
A81,
B83,
B82,
A71,
470,
480,
481,
490,
481,
380,
000,
000,
A71,
B82,
B82,
A81,
B82,
A72,
A71,
A81,
B82,
A81,
A81,
972,
B82,
C93,
B82,
A82,
A82,
B82,
B82,
B82,
A71,
A71,
761,
791,
580,
481,
370,
481,
481,
380,
000,
000,
961,
A71,
A71,
A71,
B82,
B82,
A71,
A81,
A81,
A81,
761,
A82,
A71,
B82,
A82,
972,
972,
972,
761,
450,
960,
470,
791,
470,
470,
481,
380,
591,
490,
380,
000,
000,
760,
870,
971,
971,
971,
971,
870,
760,
570,
560,
791,
450,
770,
781,
661,
450,
761,
661,
660,
460,
470,
490,
380,
490,
370,
491,
491,
380,
380,
491,
000,
000,
591,
661,
450,
760,
680,
450,
671,
450,
560,
691,
5A1,
470,
560,
661,
460,
661,
650,
450,
770,
580,
580,
481,
490,
390,
280,
5A0,
491,
370,
380,
491,
000,
000,
681,
480,
380,
691,
480,
5A1,
591,
460,
680,
591,
390,
490,
670,
670,
490,
490,
570,
680,
691,
580,
480,
590,
380,
380,
390,
5A0,
480,
471,
280,
491,
000,
000,
380,
570,
491,
581,
380,
490,
491,
490,
480,
390,
480,
380,
480,
490,
470,
380,
491,
380,
270,
490,
370,
490,
380,
490,
380,
380,
270,
380,
490,
381,
000,
000,
490,
280,
370,
481,
370,
380,
490,
380,
380,
380,
480,
380,
491,
480,
380,
490,
390,
280,
270,
270,
280,
380,
481,
491,
490,
380,
490,
280,
490,
380,
000,
000,
000,
000,
000,
000,
000,
000,
000,
000,
000,
000,
000,
000,
000,
000,
000,
000,
000,
000,
000,
000,
000,
000,
000,
000,
000,
000,
000,
000,
000,
000,
000,
000,
000,
000,
000,
000,
000,
000,
000,
000,
000,
000,
000,
000,
000,
000,
000,
000,
000,
000,
000,
000,
000,
000,
000,
000,
000,
000,
000,
000,
000,
000,
000,
000,
490,
380,
681,
591,
760,
961,
A71,
B82,
B83,
B83,
B82,
B82,
B82,
A82,
B83,
B93,
C93,
B83,
B82,
B82,
B83,
B82,
B71,
A71,
A72,
860,
660,
480,
480,
490,
000,
000,
280,
570,
480,
661,
870,
A71,
B82,
B82,
A81,
A81,
A81,
A81,
A81,
A81,
A81,
B83,
C93,
B83,
B82,
B82,
B82,
B82,
B71,
B82,
A82,
450,
591,
480,
480,
480,
000,
000,
370,
491,
380,
450,
971,
A71,
B82,
A81,
B83,
B83,
B82,
B82,
B82,
A82,
B83,
A81,
A81,
A81,
A81,
A81,
B83,
B82,
B71,
A71,
A72,
860,
660,
480,
480,
480,
000,
000,
481,
581,
691,
760,
971,
A71,
A81,
A81,
A82,
B82,
B82,
B82,
B82,
B82,
B83,
B82,
B82,
B82,
B83,
B83,
A81,
A81,
A81,
A81,
B82,
A72,
671,
660,
591,
660,
000,
000,
370,
380,
480,
680,
971,
B82,
B82,
A81,
A71,
A71,
A71,
B82,
B82,
B82,
B82,
B83,
B82,
B82,
B82,
B82,
A71,
A72,
A71,
A81,
A81,
A72,
A72,
860,
450,
860,
000,
000,
380,
490,
5A1,
450,
971,
B82,
A72,
A81,
A71,
A71,
A71,
B82,
C82,
C82,
B82,
B82,
B83,
B82,
B82,
A72,
A71,
B82,
A71,
B82,
B82,
A81,
B82,
A72,
A82,
A72,
000,
000,
490,
491,
591,
671,
870,
A71,
A71,
B82,
A72,
B82,
A72,
A82,
A72,
B82,
B82,
B82,
A82,
A72,
B82,
C93,
B82,
A72,
B82,
B82,
B82,
A81,
A81,
A71,
B82,
A71,
000,
000,
380,
490,
460,
450,
760,
A81,
A81,
B82,
B83,
B82,
A71,
B82,
A72,
B82,
B83,
B83,
B83,
B83,
B83,
B82,
A71,
A71,
B71,
B82,
A71,
A71,
A81,
B71,
B71,
B71,
000,
000,
380,
480,
680,
560,
570,
A81,
B82,
A71,
B82,
B82,
A71,
B82,
B82,
B83,
C93,
C93,
B82,
B82,
B83,
A72,
A71,
A71,
B71,
B71,
B82,
A72,
A81,
B82,
B82,
B82,
000,
000,
380,
390,
591,
691,
560,
A81,
A81,
A71,
A71,
A71,
A72,
A71,
B82,
B83,
B82,
B82,
B82,
A72,
A82,
B82,
B82,
B82,
B82,
B71,
A71,
A71,
A81,
B83,
B82,
B83,
000,
000,
480,
480,
390,
5A1,
791,
761,
A81,
A71,
B82,
A71,
B82,
A82,
B82,
B82,
A72,
B82,
C93,
C83,
B82,
B82,
B82,
B82,
B82,
B82,
A72,
B82,
B83,
A81,
B82,
B82,
000,
000,
380,
380,
490,
470,
450,
A82,
972,
A81,
B82,
B82,
B83,
B82,
B82,
A71,
A71,
B82,
B83,
C83,
B82,
B83,
B82,
B72,
B71,
B82,
B82,
B82,
B83,
A81,
B82,
B82,
000,
000,
491,
480,
670,
560,
770,
A71,
B82,
A81,
A71,
B83,
B93,
B93,
B82,
B82,
A71,
A71,
B82,
B82,
B83,
B83,
B82,
B82,
B82,
B82,
B82,
B82,
B82,
A81,
B83,
B83,
000,
000,
480,
490,
670,
661,
781,
B82,
C93,
B83,
A71,
C83,
B83,
B83,
B83,
B82,
A82,
A72,
B82,
B82,
B82,
B82,
A72,
B82,
B82,
B82,
B83,
B82,
B82,
A81,
C93,
C93,
000,
000,
380,
470,
490,
460,
661,
A82,
B82,
B82,
A72,
B82,
B82,
B83,
B82,
A72,
A71,
A72,
A72,
A71,
A71,
A71,
A72,
B82,
B82,
B83,
B82,
B83,
B82,
A81,
B83,
B93,
000,
000,
490,
380,
490,
661,
450,
972,
A82,
A81,
B82,
B82,
B82,
B82,
A72,
A72,
B82,
B82,
A71,
961,
B82,
B82,
B83,
B82,
B82,
B82,
B82,
B82,
B83,
B83,
A81,
B83,
000,
000,
390,
491,
570,
650,
761,
972,
A82,
A81,
B82,
A72,
A71,
B82,
B82,
B82,
B82,
B82,
B82,
B82,
B82,
B82,
B82,
A71,
B71,
B82,
C82,
B82,
B82,
A82,
A81,
A82,
000,
000,
280,
380,
680,
450,
661,
972,
B82,
A81,
B82,
A72,
B82,
B72,
B82,
B82,
A71,
A82,
B82,
B83,
B83,
A81,
A72,
B82,
A71,
B82,
C82,
B82,
B82,
B82,
A81,
B82,
000,
000,
270,
270,
691,
770,
660,
761,
B82,
A81,
B82,
B82,
B82,
B82,
A71,
A71,
A71,
A71,
A81,
A81,
A81,
A81,
B82,
B93,
B82,
A71,
B82,
B82,
B82,
B82,
A81,
B82,
000,
000,
270,
490,
580,
580,
460,
450,
B82,
A81,
B82,
B82,
B82,
A71,
B71,
A71,
A71,
A81,
A72,
A81,
A81,
A71,
B82,
B83,
B82,
A71,
A71,
A71,
B82,
B82,
A81,
B82,
000,
000,
280,
370,
480,
580,
470,
960,
A71,
A81,
B71,
B71,
A71,
B82,
B82,
A71,
A81,
A81,
A81,
A71,
A82,
B82,
B82,
B82,
B82,
B82,
A71,
A71,
B82,
B83,
A81,
B83,
000,
000,
380,
490,
590,
481,
490,
470,
A71,
B83,
A71,
B82,
A71,
B82,
B83,
A81,
A81,
A81,
C93,
B82,
A71,
B82,
B83,
B82,
B82,
B82,
A71,
A71,
A82,
B83,
A81,
B83,
000,
000,
481,
380,
380,
490,
380,
791,
761,
B82,
A71,
B82,
A71,
A81,
A81,
B83,
B82,
A81,
A81,
A81,
A81,
A81,
A81,
A81,
A81,
A81,
A81,
A81,
A81,
A81,
B82,
B82,
000,
000,
491,
490,
380,
390,
490,
470,
791,
A71,
B83,
B82,
A81,
972,
B82,
C93,
B82,
A82,
A82,
B82,
B82,
B82,
A71,
A82,
982,
B82,
981,
A82,
A82,
A71,
B82,
A71,
000,
000,
490,
380,
390,
280,
370,
470,
580,
470,
450,
761,
761,
A82,
A71,
B82,
A82,
972,
972,
972,
761,
450,
960,
982,
671,
760,
660,
680,
871,
961,
A71,
961,
000,
000,
380,
380,
5A0,
5A0,
491,
481,
481,
480,
370,
491,
791,
450,
770,
781,
661,
450,
761,
661,
660,
460,
470,
681,
570,
461,
360,
680,
860,
760,
870,
760,
000,
000,
490,
270,
480,
491,
491,
380,
370,
481,
491,
490,
5A1,
470,
560,
661,
460,
661,
650,
450,
770,
580,
580,
460,
481,
350,
360,
690,
571,
591,
661,
591,
000,
000,
280,
380,
471,
370,
380,
591,
481,
490,
5A0,
381,
390,
490,
670,
670,
490,
490,
570,
680,
691,
580,
480,
360,
390,
480,
380,
5A1,
570,
681,
480,
681,
000,
000,
490,
490,
280,
380,
380,
490,
481,
481,
581,
481,
480,
380,
480,
490,
470,
380,
491,
380,
270,
490,
370,
490,
481,
490,
490,
490,
380,
380,
570,
380,
000,
000,
380,
381,
491,
491,
491,
380,
380,
380,
481,
491,
480,
380,
491,
480,
380,
490,
390,
280,
270,
270,
280,
490,
480,
380,
490,
280,
270,
490,
280,
490,
000,
000,
000,
000,
000,
000,
000,
000,
000,
000,
000,
000,
000,
000,
000,
000,
000,
000,
000,
000,
000,
000,
000,
000,
000,
000,
000,
000,
000,
000,
000,
000,
000,
000,
000,
000,
000,
000,
000,
000,
000,
000,
000,
000,
000,
000,
000,
000,
000,
000,
000,
000,
000,
000,
000,
000,
000,
000,
000,
000,
000,
000,
000,
000,
000,
000,
490,
280,
490,
270,
280,
490,
380,
480,
490,
280,
270,
270,
280,
390,
490,
380,
480,
491,
380,
480,
491,
481,
380,
380,
380,
491,
491,
491,
381,
380,
000,
000,
380,
570,
380,
380,
490,
490,
490,
481,
490,
370,
490,
270,
380,
491,
380,
470,
490,
480,
380,
480,
481,
581,
481,
481,
490,
380,
380,
280,
490,
490,
000,
000,
681,
480,
681,
570,
5A1,
380,
480,
390,
360,
480,
580,
691,
680,
570,
490,
490,
670,
670,
490,
390,
381,
5A0,
490,
481,
591,
380,
370,
471,
380,
280,
000,
000,
591,
661,
591,
571,
690,
360,
350,
481,
460,
580,
580,
770,
450,
650,
661,
460,
661,
560,
470,
5A1,
490,
491,
481,
370,
380,
491,
491,
480,
270,
490,
000,
000,
760,
870,
760,
860,
680,
360,
461,
570,
681,
470,
460,
660,
661,
761,
450,
661,
781,
770,
450,
791,
491,
370,
480,
481,
481,
491,
5A0,
5A0,
380,
380,
000,
000,
961,
A71,
961,
871,
680,
660,
760,
671,
982,
960,
450,
761,
972,
972,
972,
A82,
B82,
A71,
A82,
761,
761,
450,
470,
580,
470,
370,
280,
390,
380,
490,
000,
000,
A71,
B82,
A71,
A82,
A82,
981,
B82,
982,
A82,
A71,
B82,
B82,
B82,
A82,
A82,
B82,
C93,
B82,
972,
A81,
B82,
B83,
A71,
791,
470,
490,
390,
380,
490,
491,
000,
000,
B82,
B82,
A81,
A81,
A81,
A81,
A81,
A81,
A81,
A81,
A81,
A81,
A81,
A81,
A81,
B82,
B83,
A81,
A81,
A71,
B82,
A71,
B82,
761,
791,
380,
490,
380,
380,
481,
000,
000,
B83,
A81,
B83,
A82,
A71,
A71,
B82,
B82,
B82,
B83,
B82,
A71,
B82,
C93,
A81,
A81,
A81,
B83,
B82,
A71,
B82,
A71,
B83,
A71,
470,
490,
481,
590,
490,
380,
000,
000,
B83,
A81,
B83,
B82,
A71,
A71,
B82,
B82,
B82,
B82,
B82,
A82,
A71,
A81,
A81,
A81,
A71,
B82,
B82,
A71,
B71,
B71,
A81,
A71,
960,
470,
580,
480,
370,
280,
000,
000,
B82,
A81,
B82,
B82,
A71,
A71,
A71,
B82,
B83,
B82,
A71,
A81,
A81,
A72,
A81,
A71,
A71,
B71,
A71,
B82,
B82,
B82,
A81,
B82,
450,
460,
580,
580,
490,
270,
000,
000,
B82,
A81,
B82,
B82,
B82,
B82,
A71,
B82,
B93,
B82,
A81,
A81,
A81,
A81,
A71,
A71,
A71,
A71,
B82,
B82,
B82,
B82,
A81,
B82,
761,
660,
770,
691,
270,
270,
000,
000,
B82,
A81,
B82,
B82,
B82,
C82,
B82,
A71,
B82,
A72,
A81,
B83,
B83,
B82,
A82,
A71,
B82,
B82,
B72,
B82,
A72,
B82,
A81,
B82,
972,
661,
450,
680,
380,
280,
000,
000,
A82,
A81,
A82,
B82,
B82,
C82,
B82,
B71,
A71,
B82,
B82,
B82,
B82,
B82,
B82,
B82,
B82,
B82,
B82,
A71,
A72,
B82,
A81,
A82,
972,
761,
650,
570,
491,
390,
000,
000,
B83,
A81,
B83,
B83,
B82,
B82,
B82,
B82,
B82,
B83,
B82,
B82,
961,
A71,
B82,
B82,
A72,
A72,
B82,
B82,
B82,
B82,
A81,
A82,
972,
450,
661,
490,
380,
490,
000,
000,
B93,
B83,
A81,
B82,
B83,
B82,
B83,
B82,
B82,
A72,
A71,
A71,
A71,
A72,
A72,
A71,
A72,
B82,
B83,
B82,
B82,
A72,
B82,
B82,
A82,
661,
460,
490,
470,
380,
000,
000,
C93,
C93,
A81,
B82,
B82,
B83,
B82,
B82,
B82,
A72,
B82,
B82,
B82,
B82,
A72,
A82,
B82,
B83,
B83,
B83,
C83,
A71,
B83,
C93,
B82,
781,
661,
670,
490,
480,
000,
000,
B83,
B83,
A81,
B82,
B82,
B82,
B82,
B82,
B82,
B82,
B83,
B83,
B82,
B82,
A71,
A71,
B82,
B82,
B93,
B93,
B83,
A71,
A81,
B82,
A71,
770,
560,
670,
480,
491,
000,
000,
B82,
B82,
A81,
B83,
B82,
B82,
B82,
B71,
B72,
B82,
B83,
B82,
C83,
B83,
B82,
A71,
A71,
B82,
B82,
B83,
B82,
B82,
A81,
972,
A82,
450,
470,
490,
380,
380,
000,
000,
B82,
B82,
A81,
B83,
B82,
A72,
B82,
B82,
B82,
B82,
B82,
B82,
C83,
C93,
B82,
A72,
B82,
B82,
A82,
B82,
A71,
B82,
A71,
A81,
761,
791,
5A1,
390,
480,
480,
000,
000,
B83,
B82,
B83,
A81,
A71,
A71,
B71,
B82,
B82,
B82,
B82,
A82,
A72,
B82,
B82,
B82,
B83,
B82,
A71,
A72,
A71,
A71,
A71,
A81,
A81,
560,
691,
591,
390,
380,
000,
000,
B82,
B82,
B82,
A81,
A72,
B82,
B71,
B71,
A71,
A71,
A72,
B83,
B82,
B82,
C93,
C93,
B83,
B82,
B82,
A71,
B82,
B82,
A71,
B82,
A81,
570,
560,
680,
480,
380,
000,
000,
B71,
B71,
B71,
A81,
A71,
A71,
B82,
B71,
A71,
A71,
B82,
B83,
B83,
B83,
B83,
B83,
B82,
A72,
B82,
A71,
B82,
B83,
B82,
A81,
A81,
760,
450,
460,
490,
380,
000,
000,
A71,
B82,
A71,
A81,
A81,
B82,
B82,
B82,
A72,
B82,
C93,
B82,
A72,
A82,
B82,
B82,
B82,
A72,
A82,
A72,
B82,
A72,
B82,
A71,
A71,
870,
671,
591,
491,
490,
000,
000,
A72,
A82,
A72,
B82,
A81,
B82,
B82,
A71,
B82,
A71,
A72,
B82,
B82,
B83,
B82,
B82,
C82,
C82,
B82,
A71,
A71,
A71,
A81,
A72,
B82,
971,
450,
5A1,
490,
380,
000,
000,
860,
450,
860,
A72,
A72,
A81,
A81,
A71,
A72,
A71,
B82,
B82,
B82,
B82,
B83,
B82,
B82,
B82,
B82,
A71,
A71,
A71,
A81,
B82,
B82,
971,
680,
480,
380,
370,
000,
000,
660,
591,
660,
671,
A72,
B82,
A81,
A81,
A81,
A81,
B83,
B83,
B82,
B82,
B82,
B83,
B82,
B82,
B82,
B82,
B82,
A82,
A81,
A81,
A71,
971,
760,
691,
581,
481,
000,
000,
480,
480,
480,
660,
860,
A72,
A71,
B71,
B82,
B83,
A81,
A81,
A81,
A81,
A81,
B83,
A82,
B82,
B82,
B82,
B83,
B83,
A81,
B82,
A71,
971,
450,
380,
491,
370,
000,
000,
480,
480,
480,
591,
450,
A82,
B82,
B71,
B82,
B82,
B82,
B82,
B83,
C93,
B83,
A81,
A81,
A81,
A81,
A81,
A81,
A81,
B82,
B82,
A71,
870,
661,
480,
570,
280,
000,
000,
490,
480,
480,
660,
860,
A72,
A71,
B71,
B82,
B83,
B82,
B82,
B83,
C93,
B93,
B83,
A82,
B82,
B82,
B82,
B83,
B83,
B82,
A71,
961,
760,
591,
681,
380,
490,
000,
000,
000,
000,
000,
000,
000,
000,
000,
000,
000,
000,
000,
000,
000,
000,
000,
000,
000,
000,
000,
000,
000,
000,
000,
000,
000,
000,
000,
000,
000,
000,
000,
000,
000,
000,
000,
000,
000,
000,
000,
000,
000,
000,
000,
000,
000,
000,
000,
000,
000,
000,
000,
000,
000,
000,
000,
000,
000,
000,
000,
000,
000,
000,
000,
000,
380,
490,
280,
490,
380,
490,
491,
481,
380,
280,
270,
270,
280,
390,
490,
380,
480,
491,
380,
480,
380,
380,
380,
490,
380,
370,
481,
370,
280,
490,
000,
000,
381,
490,
380,
270,
380,
380,
490,
380,
490,
370,
490,
270,
380,
491,
380,
470,
490,
480,
380,
480,
390,
480,
490,
491,
490,
380,
581,
491,
570,
380,
000,
000,
491,
280,
471,
480,
5A0,
390,
380,
380,
590,
480,
580,
691,
680,
570,
490,
490,
670,
670,
490,
390,
591,
680,
460,
591,
5A1,
480,
691,
380,
480,
681,
000,
000,
491,
380,
370,
491,
5A0,
280,
390,
490,
481,
580,
580,
770,
450,
650,
661,
460,
661,
560,
470,
5A1,
691,
560,
450,
671,
450,
680,
760,
450,
661,
591,
000,
000,
491,
380,
380,
491,
491,
370,
490,
380,
490,
470,
460,
660,
661,
761,
450,
661,
781,
770,
450,
791,
560,
570,
760,
870,
971,
971,
971,
971,
870,
760,
000,
000,
380,
490,
591,
380,
481,
470,
470,
791,
470,
960,
450,
761,
972,
972,
972,
A82,
B82,
A71,
A82,
761,
A81,
A81,
A81,
A71,
B82,
B82,
A71,
A71,
A71,
961,
000,
000,
380,
481,
481,
370,
481,
580,
791,
761,
A71,
A71,
B82,
B82,
B82,
A82,
A82,
B82,
C93,
B82,
972,
A81,
A81,
B82,
A81,
A71,
A72,
B82,
A81,
B82,
B82,
A71,
000,
000,
380,
481,
490,
481,
480,
470,
A71,
B82,
B83,
A81,
A81,
A81,
A81,
A81,
A81,
B82,
B83,
A81,
A81,
A71,
A71,
A71,
B82,
B82,
A81,
A81,
A81,
A81,
B82,
B82,
000,
000,
481,
581,
5A0,
491,
370,
450,
B83,
A71,
A71,
B71,
B82,
B82,
B82,
B82,
B82,
A72,
A71,
A71,
B82,
B82,
A71,
B82,
B83,
A72,
A71,
A71,
A82,
B83,
A81,
B83,
000,
000,
491,
481,
381,
490,
491,
761,
B82,
B82,
B82,
B71,
B82,
B82,
A72,
A72,
B82,
B82,
C83,
B83,
B82,
A71,
A71,
B82,
B82,
B82,
A71,
A71,
B82,
B83,
A81,
B83,
000,
000,
480,
480,
390,
5A1,
791,
761,
A81,
A71,
A71,
A71,
B82,
B82,
B82,
A71,
B82,
B82,
B83,
B93,
B83,
B82,
A72,
A71,
A71,
A72,
A71,
A71,
B82,
B82,
A81,
B82,
000,
000,
380,
380,
490,
470,
450,
A82,
972,
A81,
B82,
B82,
A71,
B82,
B72,
B82,
B82,
B83,
B83,
B93,
B82,
A82,
A71,
B82,
B82,
A82,
B82,
B82,
B82,
B82,
A81,
B82,
000,
000,
491,
480,
670,
560,
770,
A71,
B82,
A81,
B83,
B82,
B71,
A71,
B82,
B82,
A72,
B82,
B83,
B82,
B82,
B82,
B82,
B82,
A72,
A72,
C82,
B82,
B82,
B82,
A81,
B82,
000,
000,
480,
490,
670,
661,
781,
B82,
C93,
B83,
A81,
A71,
A71,
A71,
B82,
B82,
A72,
A72,
B82,
B82,
A71,
B82,
B83,
B83,
B82,
B82,
C82,
B82,
B82,
A82,
A81,
A82,
000,
000,
380,
470,
490,
460,
661,
A82,
B82,
B82,
A81,
A81,
A71,
A71,
A71,
B82,
B82,
A71,
A82,
A71,
A71,
A72,
B82,
C93,
B83,
B82,
B82,
B82,
B83,
B83,
A81,
B83,
000,
000,
490,
380,
490,
661,
450,
972,
A82,
A81,
A81,
A81,
A81,
A71,
A82,
B82,
B82,
A72,
A72,
A71,
B82,
B82,
B82,
C93,
B83,
B82,
B82,
B83,
B82,
A81,
B83,
B93,
000,
000,
390,
491,
570,
650,
761,
972,
A82,
A81,
C93,
A81,
A72,
A81,
B82,
B82,
A71,
A72,
B82,
B82,
B83,
C93,
B82,
B82,
B83,
A82,
B83,
B82,
B82,
A81,
C93,
C93,
000,
000,
280,
380,
680,
450,
661,
972,
B82,
A81,
B82,
A71,
A81,
A81,
B83,
B82,
961,
A71,
B82,
B82,
C83,
C83,
A72,
B82,
B83,
A72,
B82,
B82,
B82,
A81,
B83,
B83,
000,
000,
270,
270,
691,
770,
660,
761,
B82,
A81,
A71,
A82,
A81,
A81,
B83,
B82,
B82,
A71,
B82,
B83,
B82,
B82,
A82,
B83,
B83,
B82,
B82,
B82,
B83,
A81,
B82,
B82,
000,
000,
270,
490,
580,
580,
460,
450,
B82,
A81,
B82,
B82,
A71,
A81,
A81,
B82,
B82,
A71,
B82,
B83,
B83,
B82,
B82,
A72,
B82,
C93,
A72,
B82,
B83,
A81,
B82,
B82,
000,
000,
280,
370,
480,
580,
470,
960,
A71,
A81,
B83,
B82,
B82,
B82,
A72,
B82,
B83,
A72,
A72,
B82,
B82,
B82,
B82,
A71,
A71,
B82,
A71,
A71,
A81,
B83,
B82,
B83,
000,
000,
490,
490,
360,
460,
681,
982,
A82,
A81,
B82,
B82,
B83,
B93,
B82,
A71,
B82,
B82,
B82,
B82,
B72,
B82,
B82,
A71,
A71,
A72,
B82,
A72,
A81,
B82,
B82,
B82,
000,
000,
480,
481,
390,
481,
570,
671,
982,
A81,
B82,
B82,
B82,
B82,
A71,
B71,
B82,
B82,
B82,
B82,
B71,
B82,
B82,
B71,
B71,
B82,
A71,
A71,
A81,
B71,
B71,
B71,
000,
000,
380,
490,
480,
350,
461,
760,
B82,
A81,
B82,
B82,
A71,
A71,
B82,
B82,
B82,
B83,
B82,
B82,
B82,
B82,
B71,
B71,
B82,
B82,
B82,
A81,
A81,
A71,
B82,
A71,
000,
000,
490,
490,
380,
360,
360,
660,
981,
A81,
A71,
A71,
A71,
B82,
C82,
C82,
B82,
B82,
B83,
B82,
B82,
A72,
A71,
B82,
A71,
B82,
B82,
A81,
B82,
A72,
A82,
A72,
000,
000,
280,
490,
5A1,
690,
680,
680,
A82,
A81,
A71,
A71,
A71,
B82,
B82,
B82,
B82,
B83,
B82,
B82,
B82,
B82,
A71,
A72,
A71,
A81,
A81,
A72,
A72,
860,
450,
860,
000,
000,
270,
380,
570,
571,
860,
871,
A82,
A81,
A82,
B82,
B82,
B82,
B82,
B82,
B83,
B82,
B82,
B82,
B83,
B83,
A81,
A81,
A81,
A81,
B82,
A72,
671,
660,
591,
660,
000,
000,
490,
380,
681,
591,
760,
961,
A71,
A81,
B83,
B83,
B82,
B82,
B82,
A82,
B83,
A81,
A81,
A81,
A81,
A81,
B83,
B82,
B71,
A71,
A72,
860,
660,
480,
480,
480,
000,
000,
280,
570,
480,
661,
870,
A71,
B82,
B82,
A81,
A81,
A81,
A81,
A81,
A81,
A81,
B83,
C93,
B83,
B82,
B82,
B82,
B82,
B71,
B82,
A82,
450,
591,
480,
480,
480,
000,
000,
490,
380,
681,
591,
760,
961,
A71,
B82,
B83,
B83,
B82,
B82,
B82,
A82,
B83,
B93,
C93,
B83,
B82,
B82,
B83,
B82,
B71,
A71,
A72,
860,
660,
480,
480,
490,
000,
000,
000,
000,
000,
000,
000,
000,
000,
000,
000,
000,
000,
000,
000,
000,
000,
000,
000,
000,
000,
000,
000,
000,
000,
000,
000,
000,
000,
000,
000,
000,
000,
000,
000,
000,
000,
000,
000,
000,
000,
000,
000,
000,
000,
000,
000,
000,
000,
000,
000,
000,
000,
000,
000,
000,
000,
000,
000,
000,
000,
000,
000,
000,
000,
000,
490,
480,
480,
660,
860,
A72,
A71,
B71,
B82,
B83,
B82,
B82,
B83,
C93,
B93,
B83,
A82,
B82,
B82,
B82,
B83,
B83,
B71,
A71,
A72,
860,
660,
480,
480,
490,
000,
000,
480,
480,
480,
591,
450,
A82,
B82,
B71,
B82,
B82,
B82,
B82,
B83,
C93,
B83,
A81,
A81,
A81,
A81,
A81,
A81,
A81,
B71,
B82,
A82,
450,
591,
480,
480,
480,
000,
000,
480,
480,
480,
660,
860,
A72,
A71,
B71,
B82,
B83,
A81,
A81,
A81,
A81,
A81,
B83,
A82,
B82,
B82,
B82,
B83,
B83,
B71,
A71,
A72,
860,
660,
480,
480,
480,
000,
000,
660,
591,
660,
671,
A72,
B82,
A81,
A81,
A81,
A81,
B83,
B83,
B82,
B82,
B82,
B83,
B82,
B82,
B82,
B82,
B82,
A82,
A81,
A81,
B82,
A72,
671,
660,
591,
660,
000,
000,
860,
450,
860,
A72,
A72,
A81,
A81,
A71,
A72,
A71,
B82,
B82,
B82,
B82,
B83,
B82,
B82,
B82,
B82,
A71,
A71,
A71,
A71,
A81,
A81,
A72,
A72,
860,
450,
860,
000,
000,
A72,
A82,
A72,
B82,
A81,
B82,
B82,
A71,
B82,
A71,
A72,
B82,
B82,
B83,
B82,
B82,
C82,
C82,
B82,
A71,
A71,
A71,
A71,
B82,
B82,
A81,
B82,
A72,
A82,
A72,
000,
000,
A71,
B82,
A71,
A81,
A81,
B82,
B82,
B82,
A71,
A71,
B82,
B82,
B82,
A82,
A82,
B82,
C93,
B82,
972,
A81,
A81,
B82,
B82,
B82,
B82,
A81,
A81,
A71,
B82,
A71,
000,
000,
B71,
B71,
B71,
A81,
A71,
A71,
B82,
B71,
B83,
A81,
A81,
A81,
A81,
A81,
A81,
B82,
B83,
A81,
A81,
A71,
A71,
A71,
B71,
B82,
A71,
A71,
A81,
B71,
B71,
B71,
000,
000,
B82,
B82,
B82,
A81,
A72,
B82,
B83,
A71,
A71,
B71,
B82,
B82,
B82,
B82,
B82,
A72,
A71,
A71,
B82,
B82,
A71,
B82,
B83,
A72,
A71,
A71,
A82,
B83,
A81,
B83,
000,
000,
B83,
B82,
B83,
A81,
A71,
A71,
B82,
B82,
B82,
B71,
B82,
B82,
A72,
A72,
B82,
B82,
C83,
B83,
B82,
A71,
A71,
B82,
B82,
B82,
A71,
A71,
B82,
B83,
A81,
B83,
000,
000,
B82,
B82,
A81,
B83,
B82,
A72,
A81,
A71,
A71,
A71,
B82,
B82,
B82,
A71,
B82,
B82,
B83,
B93,
B83,
B82,
A72,
A71,
A71,
A72,
A71,
A71,
B82,
B82,
A81,
B82,
000,
000,
B82,
B82,
A81,
B83,
B82,
B82,
972,
A81,
B82,
B82,
A71,
B82,
B72,
B82,
B82,
B83,
B83,
B93,
B82,
A82,
A71,
B82,
B82,
A82,
B82,
B82,
B82,
B82,
A81,
B82,
000,
000,
B83,
B83,
A81,
B82,
B82,
B82,
B82,
A81,
B83,
B82,
B71,
A71,
B82,
B82,
A72,
B82,
B83,
B82,
B82,
B82,
B82,
B82,
A72,
A72,
C82,
B82,
B82,
B82,
A81,
B82,
000,
000,
C93,
C93,
A81,
B82,
B82,
B83,
C93,
B83,
A81,
A71,
A71,
A71,
B82,
B82,
A72,
A72,
B82,
B82,
A71,
B82,
B83,
B83,
B82,
B82,
C82,
B82,
B82,
A82,
A81,
A82,
000,
000,
B93,
B83,
A81,
B82,
B83,
B82,
B82,
B82,
A81,
A81,
A71,
A71,
A71,
B82,
B82,
A71,
A82,
A71,
A71,
A72,
B82,
C93,
B83,
B82,
B82,
B82,
B83,
B83,
A81,
B83,
000,
000,
B83,
A81,
B83,
B83,
B82,
B82,
A82,
A81,
A81,
A81,
A81,
A71,
A82,
B82,
B82,
A72,
A72,
A71,
B82,
B82,
B82,
C93,
B83,
B82,
B82,
B83,
B82,
A81,
B83,
B93,
000,
000,
A82,
A81,
A82,
B82,
B82,
C82,
A82,
A81,
C93,
A81,
A72,
A81,
B82,
B82,
A71,
A72,
B82,
B82,
B83,
C93,
B82,
B82,
B83,
A82,
B83,
B82,
B82,
A81,
C93,
C93,
000,
000,
B82,
A81,
B82,
B82,
B82,
C82,
B82,
A81,
B82,
A71,
A81,
A81,
B83,
B82,
961,
A71,
B82,
B82,
C83,
C83,
A72,
B82,
B83,
A72,
B82,
B82,
B82,
A81,
B83,
B83,
000,
000,
B82,
A81,
B82,
B82,
B82,
B82,
B82,
A81,
A71,
A82,
A81,
A81,
B83,
B82,
B82,
A71,
B82,
B83,
B82,
B82,
A82,
B83,
B83,
B82,
B82,
B82,
B83,
A81,
B82,
B82,
000,
000,
B82,
A81,
B82,
B82,
A71,
A71,
B82,
A81,
B82,
B82,
A71,
A81,
A81,
B82,
B82,
A71,
B82,
B83,
B83,
B82,
B82,
A72,
B82,
C93,
A72,
B82,
B83,
A81,
B82,
B82,
000,
000,
B83,
A81,
B83,
B82,
A71,
A71,
A71,
A81,
B83,
B82,
B82,
B82,
A72,
B82,
B83,
A72,
A72,
B82,
B82,
B82,
B82,
A71,
A71,
B82,
A71,
A71,
A81,
B83,
B82,
B83,
000,
000,
B83,
A81,
B83,
A82,
A71,
A71,
A82,
A81,
B82,
B82,
B83,
B93,
B82,
A71,
B82,
B82,
B82,
B82,
B72,
B82,
B82,
A71,
A71,
A72,
B82,
A72,
A81,
B82,
B82,
B82,
000,
000,
B71,
B71,
B71,
A81,
A71,
A71,
B82,
B71,
B82,
B82,
B82,
B82,
A71,
B71,
B82,
B82,
B82,
B82,
B71,
B82,
B82,
B71,
B71,
B82,
A71,
A71,
A81,
B71,
B71,
B71,
000,
000,
A71,
B82,
A71,
A81,
A81,
B82,
B82,
B82,
B82,
B82,
A71,
A71,
B82,
B82,
B82,
B83,
B82,
B82,
B82,
B82,
B71,
B71,
B82,
B82,
B82,
A81,
A81,
A71,
B82,
A71,
000,
000,
A72,
A82,
A72,
B82,
A81,
B82,
B82,
A71,
A71,
A71,
A71,
B82,
C82,
C82,
B82,
B82,
B83,
B82,
B82,
A72,
A71,
B82,
A71,
B82,
B82,
A81,
B82,
A72,
A82,
A72,
000,
000,
860,
450,
860,
A72,
A72,
A81,
A81,
A71,
A71,
A71,
A71,
B82,
B82,
B82,
B82,
B83,
B82,
B82,
B82,
B82,
A71,
A72,
A71,
A81,
A81,
A72,
A72,
860,
450,
860,
000,
000,
660,
591,
660,
671,
A72,
B82,
A81,
A81,
A82,
B82,
B82,
B82,
B82,
B82,
B83,
B82,
B82,
B82,
B83,
B83,
A81,
A81,
A81,
A81,
B82,
A72,
671,
660,
591,
660,
000,
000,
480,
480,
480,
660,
860,
A72,
A71,
B71,
B83,
B83,
B82,
B82,
B82,
A82,
B83,
A81,
A81,
A81,
A81,
A81,
B83,
B82,
B71,
A71,
A72,
860,
660,
480,
480,
480,
000,
000,
480,
480,
480,
591,
450,
A82,
B82,
B71,
A81,
A81,
A81,
A81,
A81,
A81,
A81,
B83,
C93,
B83,
B82,
B82,
B82,
B82,
B71,
B82,
A82,
450,
591,
480,
480,
480,
000,
000,
490,
480,
480,
660,
860,
A72,
A71,
B71,
B83,
B83,
B82,
B82,
B82,
A82,
B83,
B93,
C93,
B83,
B82,
B82,
B83,
B82,
B71,
A71,
A72,
860,
660,
480,
480,
490,
000,
000,
000,
000,
000,
000,
000,
000,
000,
000,
000,
000,
000,
000,
000,
000,
000,
000,
000,
000,
000,
000,
000,
000,
000,
000,
000,
000,
000,
000,
000,
000,
000,
000,
000,
000,
000,
000,
000,
000,
000,
000,
000,
000,
000,
000,
000,
000,
000,
000,
000,
000,
000,
000,
000,
000,
000,
000,
000,
000,
000,
000,
000,
000,
000,
000,
380,
490,
280,
490,
380,
490,
491,
481,
380,
490,
481,
380,
481,
471,
481,
490,
491,
481,
390,
381,
491,
390,
380,
380,
490,
390,
591,
481,
481,
270,
000,
000,
381,
490,
380,
270,
380,
380,
490,
380,
490,
390,
481,
481,
270,
481,
370,
380,
490,
380,
490,
380,
481,
390,
280,
280,
490,
380,
481,
380,
491,
380,
000,
000,
491,
280,
471,
480,
5A0,
390,
380,
380,
590,
280,
582,
794,
481,
581,
481,
380,
591,
380,
490,
380,
380,
491,
380,
390,
381,
492,
481,
380,
490,
380,
000,
000,
491,
380,
370,
491,
5A0,
280,
390,
490,
481,
684,
786,
AA9,
897,
591,
370,
370,
380,
490,
380,
491,
280,
490,
490,
280,
381,
481,
490,
380,
490,
380,
000,
000,
491,
380,
380,
491,
491,
370,
490,
481,
896,
BBA,
998,
887,
AA9,
785,
482,
481,
481,
591,
482,
481,
280,
390,
490,
380,
380,
270,
490,
480,
380,
490,
000,
000,
380,
490,
591,
380,
481,
481,
481,
8A6,
CCB,
DDC,
AA9,
665,
887,
997,
AA8,
997,
775,
886,
AB9,
8A7,
371,
481,
381,
380,
380,
280,
490,
380,
380,
380,
000,
000,
380,
481,
481,
371,
481,
380,
591,
8A7,
CCB,
CCB,
886,
665,
998,
AA9,
AA9,
AA9,
998,
997,
BBA,
BBA,
796,
371,
381,
380,
380,
380,
490,
4A0,
481,
381,
000,
000,
380,
481,
490,
481,
480,
390,
582,
886,
BBA,
AA9,
554,
876,
BBA,
BBA,
A98,
998,
AA9,
AA9,
887,
987,
AA9,
896,
481,
491,
280,
380,
280,
490,
481,
480,
000,
000,
481,
581,
5A0,
491,
370,
481,
786,
887,
998,
776,
543,
776,
887,
887,
BBA,
CCB,
CBA,
998,
886,
998,
AA9,
BA9,
685,
591,
390,
490,
490,
270,
481,
481,
000,
000,
491,
481,
381,
490,
592,
AA9,
BBA,
987,
887,
654,
553,
765,
765,
876,
887,
987,
AA9,
887,
998,
AA9,
BBA,
AA9,
775,
582,
490,
480,
481,
380,
481,
471,
000,
000,
490,
381,
380,
490,
AA9,
DCC,
BBA,
887,
664,
543,
543,
665,
654,
876,
876,
887,
776,
887,
AA9,
CCB,
CCB,
776,
765,
563,
490,
481,
481,
481,
270,
481,
000,
000,
591,
380,
490,
381,
AA9,
CCB,
998,
876,
776,
665,
654,
664,
665,
776,
776,
765,
554,
765,
998,
AA9,
998,
665,
665,
563,
481,
380,
380,
591,
380,
581,
000,
000,
380,
490,
380,
490,
998,
998,
987,
BBA,
CCB,
BBA,
998,
776,
776,
765,
554,
543,
543,
776,
998,
AA8,
887,
654,
554,
553,
371,
270,
490,
380,
280,
591,
000,
000,
380,
490,
380,
380,
887,
887,
998,
BBA,
BBA,
AA9,
987,
887,
998,
887,
775,
654,
443,
775,
998,
998,
665,
543,
543,
443,
461,
490,
380,
270,
490,
490,
000,
000,
380,
380,
380,
481,
776,
876,
998,
AA9,
AA9,
998,
776,
998,
BBA,
AA9,
AA9,
887,
554,
765,
876,
776,
654,
443,
432,
331,
341,
370,
270,
390,
380,
380,
000,
000,
390,
380,
380,
674,
886,
AA9,
AA9,
AA9,
A98,
887,
998,
BBA,
AA9,
AA9,
BAA,
998,
665,
654,
554,
776,
887,
664,
664,
886,
553,
250,
370,
490,
270,
390,
000,
000,
380,
380,
371,
997,
BBA,
CCB,
AA9,
998,
887,
876,
BBA,
CBB,
AA9,
AA9,
BBA,
997,
665,
654,
664,
987,
998,
776,
BBA,
CBB,
998,
453,
250,
370,
380,
490,
000,
000,
380,
490,
785,
CBA,
BBA,
998,
997,
998,
987,
998,
886,
AA9,
CBB,
BBA,
AA9,
776,
765,
765,
765,
998,
887,
775,
AA9,
998,
887,
664,
241,
361,
380,
490,
000,
000,
280,
490,
775,
CCB,
AA9,
887,
998,
998,
BBA,
BBA,
665,
554,
BBA,
CCB,
AA9,
765,
775,
776,
654,
886,
665,
665,
998,
887,
654,
543,
442,
371,
491,
380,
000,
000,
380,
380,
553,
665,
887,
997,
998,
BA9,
DDC,
BBA,
664,
442,
886,
CCB,
998,
765,
765,
765,
554,
543,
543,
443,
776,
765,
432,
553,
453,
361,
380,
490,
000,
000,
491,
380,
371,
664,
765,
776,
998,
CCB,
DDC,
BBA,
665,
554,
665,
BA9,
A98,
765,
554,
554,
665,
554,
442,
554,
664,
554,
442,
543,
443,
461,
490,
490,
000,
000,
380,
481,
380,
351,
442,
654,
887,
BBA,
CCB,
A98,
765,
654,
664,
A98,
987,
765,
654,
543,
554,
543,
442,
554,
664,
554,
442,
442,
332,
471,
390,
490,
000,
000,
490,
380,
481,
470,
341,
453,
776,
A98,
998,
776,
776,
665,
543,
776,
776,
887,
887,
554,
443,
432,
432,
442,
553,
553,
442,
331,
241,
480,
280,
380,
000,
000,
4A0,
481,
591,
490,
371,
453,
765,
665,
554,
665,
765,
554,
432,
543,
887,
998,
776,
654,
442,
331,
331,
341,
341,
442,
341,
240,
471,
490,
390,
490,
000,
000,
591,
491,
481,
481,
490,
471,
563,
553,
543,
654,
553,
442,
331,
543,
887,
776,
654,
442,
442,
241,
240,
251,
140,
241,
241,
370,
380,
480,
490,
481,
000,
000,
481,
581,
481,
591,
590,
380,
381,
472,
452,
341,
241,
341,
241,
342,
553,
554,
543,
341,
241,
140,
240,
240,
140,
360,
471,
491,
490,
381,
280,
490,
000,
000,
481,
381,
491,
380,
481,
370,
490,
380,
481,
381,
370,
250,
250,
240,
351,
452,
461,
250,
240,
250,
370,
371,
370,
380,
380,
490,
380,
481,
380,
490,
000,
000,
490,
280,
390,
280,
380,
380,
280,
380,
4A0,
390,
390,
380,
280,
280,
481,
491,
491,
380,
380,
390,
490,
480,
380,
280,
591,
481,
280,
481,
490,
380,
000,
000,
490,
380,
490,
270,
380,
4A0,
390,
490,
490,
280,
491,
380,
270,
270,
380,
591,
380,
490,
490,
280,
390,
390,
490,
280,
591,
481,
370,
491,
490,
280,
000,
000,
481,
380,
490,
371,
481,
490,
390,
380,
480,
380,
490,
4A0,
481,
381,
380,
591,
380,
481,
380,
380,
380,
380,
490,
380,
490,
491,
380,
490,
380,
380,
000,
000,
000,
000,
000,
000,
000,
000,
000,
000,
000,
000,
000,
000,
000,
000,
000,
000,
000,
000,
000,
000,
000,
000,
000,
000,
000,
000,
000,
000,
000,
000,
000,
000,
000,
000,
000,
000,
000,
000,
000,
000,
000,
000,
000,
000,
000,
000,
000,
000,
000,
000,
000,
000,
000,
000,
000,
000,
000,
000,
000,
000,
000,
000,
000,
000,
565,
AAA,
BCB,
DDD,
BCB,
DDD,
CCC,
666,
ABA,
666,
CDC,
888,
DDD,
777,
DDD,
CCC,
DED,
BCB,
CCC,
BCB,
454,
CCB,
555,
DED,
665,
CDB,
453,
BCA,
AB9,
BDB,
000,
000,
666,
999,
666,
666,
555,
555,
555,
333,
555,
444,
666,
444,
555,
333,
B66,
655,
665,
555,
555,
555,
444,
565,
333,
666,
333,
555,
444,
666,
666,
666,
000,
000,
666,
DED,
444,
777,
777,
777,
888,
888,
888,
888,
777,
777,
777,
877,
FBB,
632,
766,
777,
999,
999,
888,
777,
888,
777,
777,
DAA,
D99,
755,
777,
777,
000,
000,
555,
555,
333,
888,
AA9,
999,
999,
999,
999,
AAA,
888,
999,
899,
C88,
FBC,
732,
743,
888,
9A9,
999,
999,
999,
AAA,
888,
A99,
FAA,
FBB,
843,
999,
888,
000,
000,
555,
EFE,
444,
898,
999,
AAA,
DDD,
666,
DDD,
666,
EEE,
444,
D99,
F99,
E99,
954,
843,
CCC,
EEE,
DDD,
444,
DDD,
444,
FBC,
FAB,
E99,
FBC,
843,
843,
A98,
000,
000,
555,
666,
444,
AAA,
AAA,
AAA,
888,
444,
777,
555,
777,
444,
E89,
D88,
D78,
A65,
954,
754,
777,
777,
444,
666,
777,
F9A,
E99,
D88,
FBC,
943,
843,
843,
000,
000,
666,
FFF,
444,
999,
BBB,
999,
DED,
555,
999,
AAA,
BBB,
877,
D77,
D77,
B65,
A66,
954,
732,
632,
BBB,
ABB,
BBB,
F9A,
E9A,
E9A,
D77,
FBC,
944,
943,
843,
000,
000,
555,
BBB,
444,
999,
BBB,
ABA,
ABA,
555,
222,
999,
654,
C88,
C76,
C77,
B66,
954,
843,
732,
731,
654,
C87,
C88,
C77,
FAA,
FAB,
D89,
FCC,
832,
732,
944,
000,
000,
555,
EEE,
444,
999,
AAA,
BBB,
BBB,
666,
222,
666,
655,
C88,
A55,
C76,
B66,
943,
853,
732,
732,
654,
C77,
D88,
D88,
E9A,
FAB,
E9A,
FCD,
732,
A65,
B76,
000,
000,
656,
BCB,
444,
999,
BBB,
999,
CCB,
666,
333,
666,
BAA,
432,
A54,
954,
955,
732,
732,
631,
211,
877,
A65,
A65,
C77,
B77,
B76,
D99,
FBC,
954,
A65,
A65,
000,
000,
555,
666,
444,
999,
AAA,
AAA,
888,
444,
444,
666,
BBB,
EED,
BAA,
544,
421,
321,
322,
888,
666,
333,
D99,
EAA,
E99,
B65,
C77,
E99,
FBC,
732,
832,
943,
000,
000,
665,
BCB,
444,
999,
BBB,
AAA,
CCC,
666,
333,
777,
BBB,
BBA,
FEE,
EED,
998,
A99,
999,
554,
333,
333,
C77,
EAA,
D88,
B66,
E99,
D99,
FCC,
832,
732,
843,
000,
000,
565,
666,
444,
999,
AAA,
AAA,
888,
444,
444,
777,
999,
DDD,
BBB,
BBA,
777,
555,
555,
444,
888,
BAA,
B76,
E99,
B65,
E99,
E99,
EAA,
FCC,
842,
732,
732,
000,
000,
676,
BCB,
444,
AAA,
AAA,
BBA,
CCB,
444,
222,
777,
666,
777,
CBB,
CCC,
AAA,
776,
666,
222,
CCC,
A99,
B66,
D88,
B65,
E9A,
FAA,
EAA,
FCC,
832,
843,
731,
000,
000,
665,
665,
444,
999,
BCB,
999,
777,
555,
222,
222,
CCB,
CBB,
444,
777,
555,
444,
444,
333,
CCC,
999,
832,
843,
C77,
FAB,
D88,
EAA,
FBC,
843,
732,
732,
000,
000,
565,
EEE,
444,
AAA,
BBB,
999,
BBB,
555,
544,
555,
AAA,
BBB,
444,
444,
444,
555,
555,
444,
CCB,
A99,
BBA,
998,
FAA,
E99,
E9A,
D99,
FAB,
842,
832,
732,
000,
000,
665,
666,
444,
999,
AAA,
999,
777,
344,
444,
544,
CBB,
BBB,
333,
333,
444,
544,
555,
444,
BBB,
665,
555,
555,
E99,
E9A,
E99,
EBB,
D99,
732,
832,
732,
000,
000,
565,
EFE,
444,
999,
ABA,
AAA,
DED,
777,
444,
555,
999,
BBB,
333,
444,
556,
A91,
762,
555,
CCB,
444,
BBA,
AAA,
D99,
E99,
FDD,
666,
777,
876,
732,
732,
000,
000,
565,
666,
444,
999,
AAA,
AAA,
888,
444,
444,
544,
BBB,
BBB,
333,
433,
666,
FD0,
A91,
444,
DCC,
444,
CCC,
CCC,
C88,
FCD,
BAA,
BBB,
DDC,
666,
843,
732,
000,
000,
565,
EFE,
444,
888,
AAA,
999,
DED,
777,
444,
544,
777,
BBB,
444,
555,
777,
CA1,
981,
553,
DDC,
544,
DDD,
DDD,
DBB,
444,
555,
887,
888,
777,
555,
866,
000,
000,
676,
BCB,
444,
999,
BBB,
AAA,
CCB,
444,
444,
544,
544,
877,
555,
555,
B66,
998,
666,
444,
BBB,
777,
665,
666,
333,
BBB,
333,
BBB,
222,
EED,
333,
888,
000,
000,
665,
FFF,
444,
999,
AAA,
999,
DED,
555,
444,
444,
544,
888,
555,
555,
E89,
966,
666,
444,
AAA,
555,
777,
766,
666,
DDD,
BBB,
DDD,
CCC,
EEE,
CCC,
CCB,
000,
000,
665,
BBB,
444,
999,
BBB,
ABA,
ABA,
555,
444,
444,
555,
888,
555,
A66,
FBC,
732,
632,
444,
777,
999,
AAA,
EED,
999,
DDD,
222,
DDD,
222,
DDD,
111,
AAA,
000,
000,
665,
666,
444,
999,
BBB,
AAA,
777,
444,
444,
544,
544,
888,
C88,
F99,
E99,
A54,
843,
443,
333,
333,
222,
CCC,
999,
888,
998,
888,
777,
777,
777,
887,
000,
000,
665,
BCB,
444,
999,
AAA,
999,
CCB,
666,
444,
444,
544,
877,
E99,
D88,
D78,
954,
843,
532,
333,
333,
111,
DDD,
555,
888,
998,
999,
998,
999,
988,
777,
000,
000,
665,
666,
444,
999,
BBB,
999,
888,
444,
444,
444,
544,
866,
C76,
D77,
B66,
954,
843,
732,
632,
444,
222,
888,
999,
666,
777,
888,
888,
888,
998,
DDD,
000,
000,
665,
BCB,
444,
999,
BBB,
999,
CCC,
565,
444,
444,
543,
A66,
B66,
C77,
A65,
843,
732,
732,
631,
777,
222,
766,
888,
554,
777,
666,
666,
666,
555,
998,
000,
000,
565,
666,
444,
999,
BBB,
AAA,
888,
444,
444,
444,
655,
A66,
954,
B66,
A54,
832,
732,
732,
732,
654,
221,
444,
555,
333,
333,
443,
444,
333,
333,
777,
000,
000,
665,
FFF,
444,
AAA,
AAA,
AAA,
DDD,
555,
444,
444,
BAA,
432,
B66,
743,
743,
732,
732,
631,
211,
877,
444,
444,
333,
666,
666,
333,
555,
666,
444,
444,
000,
000,
665,
665,
444,
999,
BBB,
AAA,
777,
555,
444,
444,
FEE,
999,
E89,
843,
732,
632,
522,
332,
777,
555,
222,
222,
444,
555,
666,
666,
766,
766,
777,
776,
000,
000,
000,
000,
000,
000,
000,
000,
000,
000,
000,
000,
000,
000,
000,
000,
000,
000,
000,
000,
000,
000,
000,
000,
000,
000,
000,
000,
000,
000,
000,
000,
000,
000,
000,
000,
000,
000,
000,
000,
000,
000,
000,
000,
000,
000,
000,
000,
000,
000,
000,
000,
000,
000,
000,
000,
000,
000,
000,
000,
000,
000,
000,
000,
000,
000,
555,
EEE,
444,
9A9,
AAA,
AA9,
BBB,
555,
444,
444,
999,
A77,
FBC,
B65,
633,
988,
999,
554,
333,
333,
333,
444,
555,
777,
777,
888,
888,
777,
777,
777,
000,
000,
666,
BCB,
444,
9A9,
BBA,
AAA,
CCB,
666,
444,
444,
B77,
F99,
E99,
B66,
843,
433,
333,
444,
444,
333,
555,
555,
333,
887,
877,
333,
777,
888,
333,
777,
000,
000,
555,
EFE,
444,
999,
BBB,
999,
DDD,
777,
555,
544,
E99,
D88,
D78,
B65,
843,
532,
333,
222,
222,
222,
333,
444,
666,
655,
655,
655,
555,
555,
555,
666,
000,
000,
555,
EFE,
444,
999,
BBB,
999,
DDD,
777,
555,
544,
E99,
D88,
D78,
B65,
843,
532,
333,
222,
222,
222,
333,
444,
666,
655,
655,
655,
555,
555,
555,
666,
000,
000,
666,
BCB,
444,
999,
AAA,
999,
CCC,
555,
544,
765,
C76,
D77,
B66,
A55,
843,
732,
632,
444,
444,
333,
333,
333,
444,
666,
666,
555,
433,
777,
666,
666,
000,
000,
555,
EFE,
444,
888,
AAA,
AAA,
DDD,
676,
666,
A66,
B66,
C77,
A65,
A55,
732,
732,
631,
777,
444,
222,
333,
333,
665,
777,
777,
777,
444,
888,
999,
AAA,
000,
000,
676,
BCB,
444,
AAA,
ABA,
AAA,
CCB,
444,
AAA,
A66,
954,
B66,
A54,
A54,
732,
732,
732,
654,
444,
222,
333,
333,
544,
666,
555,
877,
888,
999,
665,
333,
000,
000,
666,
665,
444,
999,
ABA,
999,
777,
444,
FEE,
432,
954,
944,
743,
732,
732,
631,
211,
877,
333,
222,
333,
333,
333,
333,
444,
666,
666,
AAA,
222,
222,
000,
000,
666,
BBB,
444,
999,
AAA,
AAA,
ABA,
555,
BBA,
CCB,
532,
632,
732,
732,
522,
332,
777,
555,
444,
333,
333,
333,
222,
777,
888,
888,
766,
AAA,
222,
222,
000,
000,
666,
666,
444,
999,
BBB,
AAA,
777,
333,
BBB,
BBA,
FEE,
EED,
998,
A99,
999,
554,
333,
333,
444,
222,
222,
222,
222,
444,
333,
443,
333,
444,
222,
333,
000,
000,
666,
BCB,
444,
999,
BBB,
AAA,
CCB,
555,
AAA,
BBB,
BBB,
BBB,
777,
777,
555,
444,
444,
333,
333,
222,
222,
322,
333,
333,
433,
554,
444,
433,
444,
444,
000,
000,
656,
666,
444,
999,
ABA,
999,
888,
444,
777,
777,
CBB,
CCC,
AAA,
888,
666,
322,
222,
222,
444,
444,
444,
444,
444,
766,
777,
655,
666,
777,
766,
666,
000,
000,
666,
FFF,
554,
AAA,
AAA,
999,
DED,
555,
888,
BBB,
444,
666,
555,
444,
444,
443,
444,
333,
444,
444,
444,
444,
777,
666,
665,
777,
777,
777,
777,
777,
000,
000,
666,
665,
444,
999,
AAA,
999,
777,
555,
777,
CBB,
555,
AAA,
AA9,
666,
555,
444,
444,
222,
444,
444,
444,
444,
766,
766,
776,
655,
666,
777,
666,
777,
000,
000,
555,
EEE,
555,
9A9,
AAA,
AAA,
BBB,
555,
988,
BBB,
888,
888,
665,
666,
444,
555,
444,
222,
433,
444,
444,
544,
555,
766,
655,
777,
777,
777,
766,
777,
000,
000,
666,
BBB,
444,
888,
AAA,
AAA,
BCB,
666,
BCB,
666,
CCC,
555,
BCB,
666,
BCB,
BBB,
CCC,
CCC,
BBB,
BBB,
555,
BBB,
444,
BBB,
555,
CCC,
666,
BBB,
BCB,
CDC,
000,
000,
555,
EEE,
444,
999,
BBB,
AAA,
EEE,
888,
EFE,
666,
EEE,
444,
FFF,
776,
FFE,
EEE,
FFF,
EFE,
FFF,
DED,
444,
EED,
444,
FFF,
555,
FFF,
666,
FFF,
EEE,
FFF,
000,
000,
666,
CCC,
444,
999,
AAA,
AAA,
444,
333,
222,
333,
333,
333,
333,
333,
333,
333,
333,
333,
333,
333,
333,
333,
555,
333,
333,
333,
444,
444,
444,
444,
000,
000,
555,
FFE,
444,
AAA,
AAA,
BBB,
888,
888,
888,
777,
888,
888,
888,
888,
777,
888,
999,
888,
888,
888,
777,
888,
999,
888,
888,
888,
888,
888,
888,
888,
000,
000,
555,
CCB,
666,
BBB,
BBB,
CCC,
BBB,
777,
AAA,
777,
CCC,
777,
BBB,
555,
BBB,
CCC,
CCC,
CCC,
AAA,
BBB,
677,
BBB,
555,
BBB,
666,
CCC,
555,
AAA,
BBB,
CCC,
000,
000,
666,
555,
555,
666,
666,
666,
777,
555,
777,
555,
777,
444,
777,
555,
777,
777,
666,
777,
777,
777,
444,
666,
555,
777,
555,
666,
555,
666,
AAA,
999,
000,
000,
666,
222,
333,
333,
444,
444,
444,
444,
444,
444,
444,
444,
444,
444,
444,
444,
444,
444,
444,
444,
444,
444,
444,
444,
444,
444,
444,
444,
AAA,
888,
000,
000,
666,
888,
666,
666,
666,
777,
777,
777,
444,
666,
888,
888,
888,
777,
999,
666,
777,
777,
888,
888,
888,
888,
777,
999,
CCC,
777,
666,
888,
BBB,
AAA,
000,
000,
666,
000,
666,
666,
333,
000,
666,
666,
222,
666,
777,
777,
888,
888,
666,
111,
555,
666,
666,
777,
777,
777,
888,
666,
DDD,
555,
BBB,
777,
888,
888,
000,
000,
666,
999,
999,
888,
777,
666,
777,
555,
333,
888,
888,
999,
888,
888,
666,
111,
555,
888,
888,
999,
888,
888,
888,
666,
DDD,
555,
BBB,
BBB,
DDD,
DDD,
000,
000,
666,
999,
999,
888,
777,
777,
777,
555,
444,
888,
888,
888,
888,
888,
777,
111,
555,
888,
888,
888,
888,
888,
888,
777,
DDD,
555,
BBB,
999,
222,
222,
000,
000,
555,
888,
888,
888,
777,
777,
666,
555,
444,
666,
666,
666,
777,
666,
777,
111,
444,
777,
666,
666,
666,
777,
666,
777,
BBB,
555,
BBB,
999,
222,
222,
000,
000,
555,
888,
888,
666,
666,
666,
666,
555,
444,
777,
888,
888,
888,
777,
666,
111,
333,
777,
777,
777,
777,
777,
666,
666,
AAA,
444,
BBB,
999,
222,
222,
000,
000,
666,
777,
444,
BBB,
333,
444,
666,
777,
333,
777,
888,
888,
777,
777,
444,
111,
333,
777,
777,
666,
777,
777,
777,
444,
AAA,
333,
999,
AAA,
222,
222,
000,
000,
555,
666,
333,
BBB,
333,
222,
555,
666,
222,
666,
666,
555,
555,
444,
333,
111,
333,
555,
666,
555,
555,
555,
444,
333,
888,
333,
888,
BBB,
222,
222,
000,
000,
000,
000,
000,
000,
000,
000,
000,
000,
000,
000,
000,
000,
000,
000,
000,
000,
000,
000,
000,
000,
000,
000,
000,
000,
000,
000,
000,
000,
000,
000,
000,
000,
000,
000,
000,
000,
000,
000,
000,
000,
000,
000,
000,
000,
000,
000,
000,
000,
000,
000,
000,
000,
000,
000,
000,
000,
000,
000,
000,
000,
000,
000,
000,
000,
380,
490,
280,
490,
380,
490,
491,
481,
380,
490,
9A5,
CC7,
665,
565,
472,
490,
591,
AA7,
BA7,
8A5,
491,
390,
380,
380,
490,
390,
591,
481,
481,
270,
000,
000,
381,
490,
380,
270,
380,
380,
490,
380,
490,
591,
FE8,
EE8,
CC7,
886,
565,
381,
451,
774,
985,
A96,
A96,
390,
280,
280,
490,
380,
481,
380,
491,
380,
000,
000,
491,
280,
471,
480,
5A0,
390,
380,
380,
591,
FE9,
EE8,
874,
763,
442,
565,
795,
7B5,
573,
432,
764,
A85,
672,
380,
390,
381,
492,
481,
380,
490,
380,
000,
000,
481,
271,
261,
262,
372,
270,
593,
592,
481,
FE9,
DC7,
874,
321,
231,
153,
431,
8C5,
8D5,
663,
542,
B96,
461,
490,
280,
381,
481,
490,
380,
490,
380,
000,
000,
491,
380,
380,
381,
253,
143,
9D6,
8D6,
6B4,
974,
DC7,
764,
221,
022,
143,
242,
572,
7B4,
773,
432,
985,
462,
490,
380,
5A3,
7B4,
593,
451,
380,
490,
000,
000,
380,
490,
591,
380,
471,
143,
573,
7B4,
8C5,
783,
CA6,
653,
121,
022,
143,
154,
131,
341,
CA7,
B96,
CB7,
553,
553,
6B4,
8D6,
593,
441,
370,
380,
380,
000,
000,
380,
481,
481,
370,
481,
262,
154,
221,
331,
763,
BA5,
BA6,
432,
122,
143,
154,
011,
221,
874,
653,
653,
A96,
CB7,
683,
583,
441,
490,
4A0,
481,
381,
000,
000,
380,
481,
490,
481,
480,
381,
164,
010,
011,
111,
974,
CB6,
331,
132,
133,
133,
010,
874,
EC7,
CA6,
643,
653,
764,
673,
441,
240,
280,
490,
481,
480,
000,
000,
481,
581,
5A0,
491,
370,
380,
373,
000,
010,
011,
652,
BA6,
642,
332,
232,
432,
B95,
EC7,
C95,
642,
121,
443,
653,
975,
543,
380,
490,
270,
481,
481,
000,
000,
491,
481,
381,
490,
491,
380,
371,
000,
011,
011,
542,
A84,
974,
431,
321,
DC7,
B95,
974,
652,
322,
542,
542,
653,
864,
442,
480,
481,
380,
481,
471,
000,
000,
490,
381,
370,
240,
380,
481,
372,
000,
010,
011,
653,
863,
A85,
763,
CB7,
863,
542,
542,
542,
542,
653,
985,
B96,
653,
321,
131,
253,
153,
153,
481,
000,
000,
591,
260,
120,
111,
331,
250,
251,
000,
010,
764,
653,
432,
753,
BA6,
763,
432,
321,
542,
543,
653,
653,
643,
542,
111,
000,
132,
264,
153,
153,
581,
000,
000,
380,
490,
380,
121,
221,
221,
221,
000,
774,
553,
221,
321,
985,
864,
432,
543,
331,
221,
321,
321,
331,
221,
110,
010,
011,
164,
274,
254,
143,
481,
000,
000,
380,
490,
380,
131,
352,
583,
594,
352,
885,
331,
000,
432,
763,
321,
221,
432,
542,
321,
211,
011,
000,
011,
000,
132,
122,
164,
374,
264,
143,
372,
000,
000,
380,
380,
370,
221,
211,
352,
573,
473,
764,
221,
000,
542,
432,
221,
111,
221,
332,
542,
542,
221,
011,
121,
010,
132,
132,
154,
264,
264,
133,
153,
000,
000,
390,
380,
240,
221,
010,
221,
231,
231,
553,
321,
000,
542,
221,
211,
000,
111,
321,
542,
663,
875,
995,
553,
332,
111,
021,
011,
153,
154,
122,
132,
000,
000,
380,
380,
221,
211,
000,
221,
221,
000,
431,
221,
100,
432,
221,
000,
110,
000,
000,
321,
321,
221,
332,
885,
885,
542,
221,
000,
122,
143,
122,
132,
000,
000,
380,
341,
221,
211,
000,
211,
221,
000,
321,
321,
211,
332,
231,
131,
111,
000,
000,
000,
321,
332,
321,
221,
221,
774,
321,
000,
000,
122,
022,
132,
000,
000,
140,
211,
221,
211,
000,
100,
211,
000,
221,
321,
221,
231,
231,
121,
000,
000,
000,
000,
221,
321,
321,
221,
221,
553,
432,
000,
000,
122,
122,
133,
000,
000,
110,
211,
221,
111,
000,
000,
111,
000,
000,
221,
221,
221,
121,
110,
000,
000,
000,
110,
211,
321,
221,
221,
221,
221,
111,
000,
000,
022,
122,
261,
000,
000,
120,
111,
221,
110,
000,
000,
000,
000,
000,
111,
221,
110,
100,
000,
000,
100,
110,
110,
111,
221,
221,
111,
211,
111,
000,
000,
011,
122,
361,
490,
000,
000,
130,
111,
221,
110,
000,
000,
000,
000,
000,
000,
111,
111,
110,
000,
100,
110,
110,
110,
111,
221,
211,
211,
110,
000,
000,
000,
021,
251,
390,
490,
000,
000,
360,
241,
351,
110,
000,
000,
000,
000,
000,
000,
110,
110,
110,
000,
000,
000,
000,
000,
110,
221,
211,
100,
000,
010,
000,
010,
011,
130,
280,
380,
000,
000,
4A0,
481,
591,
370,
000,
010,
000,
000,
000,
000,
000,
100,
100,
000,
000,
000,
000,
000,
110,
111,
111,
121,
231,
131,
110,
011,
000,
000,
370,
490,
000,
000,
591,
491,
481,
371,
240,
380,
250,
000,
000,
000,
000,
000,
000,
000,
000,
000,
000,
000,
100,
110,
111,
221,
121,
110,
000,
000,
000,
000,
130,
481,
000,
000,
481,
581,
481,
481,
590,
380,
370,
000,
000,
000,
000,
000,
000,
000,
000,
000,
000,
000,
000,
110,
100,
110,
110,
000,
000,
000,
000,
000,
000,
370,
000,
000,
481,
381,
491,
380,
481,
370,
490,
010,
000,
000,
000,
000,
000,
000,
000,
000,
000,
000,
000,
110,
111,
000,
000,
000,
000,
000,
010,
240,
370,
490,
000,
000,
490,
280,
390,
280,
380,
380,
280,
140,
250,
260,
250,
140,
010,
000,
000,
000,
000,
000,
000,
110,
110,
010,
120,
140,
471,
371,
280,
481,
490,
380,
000,
000,
490,
380,
490,
270,
380,
4A0,
390,
490,
490,
280,
491,
380,
270,
140,
120,
000,
000,
000,
000,
120,
370,
390,
490,
280,
591,
481,
370,
491,
490,
280,
000,
000,
481,
380,
490,
371,
481,
490,
390,
380,
480,
380,
490,
4A0,
481,
371,
380,
361,
010,
000,
120,
380,
380,
380,
490,
380,
490,
491,
380,
490,
380,
380,
000,
000,
000,
000,
000,
000,
000,
000,
000,
000,
000,
000,
000,
000,
000,
000,
000,
000,
000,
000,
000,
000,
000,
000,
000,
000,
000,
000,
000,
000,
000,
000,
000,
000,
000,
000,
000,
000,
000,
000,
000,
000,
000,
000,
000,
000,
000,
000,
000,
000,
000,
000,
000,
000,
000,
000,
000,
000,
000,
000,
000,
000,
000,
000,
000,
000,
380,
490,
280,
490,
380,
490,
491,
481,
380,
591,
693,
8A6,
DDA,
FEC,
FFD,
FEC,
EEA,
BC8,
8A4,
482,
491,
390,
380,
380,
490,
390,
591,
481,
481,
270,
000,
000,
381,
490,
380,
270,
380,
380,
490,
381,
7A4,
DDA,
FFD,
FEC,
FEC,
EDB,
DDB,
DCB,
DCA,
EDB,
FEC,
EEB,
9B6,
491,
280,
280,
490,
380,
481,
380,
491,
380,
000,
000,
491,
280,
471,
480,
5A0,
380,
491,
9A6,
EEC,
FFD,
A98,
544,
432,
443,
443,
443,
443,
554,
776,
DCA,
FFC,
9A6,
380,
390,
381,
492,
481,
380,
490,
380,
000,
000,
491,
380,
370,
491,
5A0,
380,
8A5,
FEC,
DCB,
654,
443,
654,
664,
876,
986,
876,
775,
665,
543,
543,
BA9,
FFD,
895,
270,
381,
481,
490,
380,
490,
380,
000,
000,
491,
380,
380,
491,
491,
381,
CCA,
EDB,
765,
543,
765,
997,
BA8,
AA8,
A98,
A98,
987,
997,
876,
654,
765,
EDC,
AA8,
381,
380,
270,
490,
480,
380,
490,
000,
000,
380,
490,
591,
380,
481,
482,
BB9,
FEC,
886,
765,
987,
BA8,
AA8,
A97,
A98,
A98,
987,
987,
886,
876,
776,
EDB,
876,
370,
380,
280,
490,
380,
380,
380,
000,
000,
380,
481,
481,
370,
481,
380,
987,
FFD,
CCA,
776,
A97,
A98,
987,
A98,
A98,
A98,
A97,
987,
886,
775,
A98,
FFD,
554,
270,
380,
380,
490,
4A0,
481,
381,
000,
000,
380,
481,
490,
481,
480,
490,
765,
CB9,
FFD,
CCA,
987,
876,
876,
987,
986,
886,
886,
876,
876,
A98,
FFD,
CB9,
553,
481,
280,
380,
280,
490,
481,
480,
000,
000,
481,
581,
5A0,
491,
370,
481,
CB9,
987,
BA9,
EEC,
FEC,
CCA,
AA8,
886,
876,
876,
876,
997,
DCA,
FEC,
CBA,
554,
432,
481,
390,
490,
490,
270,
481,
481,
000,
000,
491,
481,
381,
490,
491,
471,
997,
DCA,
997,
987,
CB9,
EEC,
FEC,
FFC,
FEC,
FFD,
FEC,
FEC,
FEC,
987,
654,
876,
443,
480,
490,
480,
481,
380,
481,
471,
000,
000,
490,
381,
380,
390,
390,
572,
775,
997,
EDB,
CBA,
987,
997,
A97,
BA8,
BA9,
886,
765,
765,
554,
553,
876,
876,
332,
360,
490,
481,
481,
481,
270,
481,
000,
000,
591,
380,
490,
380,
490,
472,
987,
997,
876,
EDB,
EDB,
BA8,
A97,
AA8,
BA8,
765,
765,
765,
775,
A97,
765,
443,
543,
351,
370,
260,
260,
471,
380,
581,
000,
000,
380,
490,
380,
490,
490,
573,
987,
BB9,
997,
775,
665,
CBA,
EDB,
EDC,
FEC,
FEC,
DCA,
BB9,
987,
432,
443,
554,
543,
231,
140,
140,
240,
140,
140,
471,
000,
000,
380,
490,
380,
380,
280,
674,
997,
CCA,
BA9,
A97,
886,
554,
554,
443,
443,
443,
443,
433,
443,
543,
554,
765,
554,
331,
140,
240,
240,
140,
240,
360,
000,
000,
380,
380,
380,
380,
280,
775,
997,
BA8,
CB9,
DCA,
CBA,
776,
886,
876,
765,
654,
765,
554,
765,
775,
765,
665,
554,
332,
240,
240,
140,
240,
140,
250,
000,
000,
390,
380,
380,
490,
390,
886,
BA9,
876,
987,
CCA,
CCA,
886,
DCA,
EDB,
CCA,
A98,
A98,
876,
A98,
987,
775,
443,
443,
332,
240,
240,
240,
240,
140,
250,
000,
000,
380,
380,
280,
491,
490,
886,
DCA,
A98,
543,
A98,
987,
887,
CB9,
DCA,
CB9,
AA8,
997,
765,
A98,
886,
664,
221,
332,
433,
240,
240,
240,
240,
140,
260,
000,
000,
380,
490,
490,
490,
380,
765,
AA8,
886,
443,
BA9,
876,
776,
876,
775,
876,
775,
765,
544,
765,
665,
665,
332,
432,
433,
230,
240,
240,
241,
240,
260,
000,
000,
280,
490,
591,
491,
481,
876,
BA9,
665,
665,
DCA,
BA8,
A98,
BA9,
BA8,
221,
322,
997,
876,
886,
876,
876,
544,
443,
543,
231,
250,
240,
240,
240,
260,
000,
000,
380,
380,
481,
592,
573,
876,
DCA,
AA8,
A97,
DCA,
BA9,
CB9,
DCA,
CCA,
110,
111,
BA8,
AA8,
A97,
876,
765,
554,
443,
554,
221,
250,
250,
240,
140,
360,
000,
000,
491,
380,
280,
380,
664,
997,
DCA,
CB9,
A97,
997,
886,
CB9,
DCA,
EDB,
110,
211,
BA8,
997,
987,
654,
443,
543,
443,
443,
221,
250,
240,
240,
250,
370,
000,
000,
380,
481,
380,
380,
665,
AA8,
887,
CB9,
A98,
DCA,
BA8,
765,
654,
876,
443,
543,
665,
544,
443,
765,
886,
665,
443,
443,
332,
250,
140,
240,
250,
370,
000,
000,
490,
380,
481,
490,
664,
CBA,
A98,
765,
AA8,
CCA,
DDB,
EDB,
A98,
CCA,
DDB,
CB9,
997,
654,
987,
AA8,
A98,
765,
433,
775,
443,
240,
240,
250,
140,
380,
000,
000,
4A0,
481,
591,
490,
674,
CB9,
BA8,
776,
776,
AA8,
CB9,
EDB,
654,
AA8,
DCA,
BA8,
997,
654,
AA8,
A97,
876,
543,
765,
876,
553,
240,
240,
250,
370,
490,
000,
000,
591,
491,
481,
481,
692,
987,
AA8,
997,
221,
665,
887,
A98,
443,
886,
876,
987,
765,
433,
876,
765,
654,
322,
554,
775,
342,
250,
250,
380,
490,
481,
000,
000,
481,
581,
481,
591,
491,
684,
776,
776,
765,
DCA,
A98,
543,
775,
DCA,
BA8,
CBA,
CB9,
665,
554,
665,
876,
432,
443,
442,
351,
481,
490,
381,
280,
490,
000,
000,
481,
381,
491,
380,
481,
371,
573,
553,
665,
DCA,
DCA,
886,
FFC,
765,
000,
000,
543,
EDB,
765,
876,
765,
332,
341,
361,
380,
490,
380,
481,
380,
490,
000,
000,
490,
280,
390,
280,
380,
380,
370,
361,
453,
876,
887,
665,
FEC,
333,
100,
100,
221,
DCB,
443,
554,
553,
351,
370,
280,
591,
481,
280,
481,
490,
380,
000,
000,
490,
380,
490,
270,
380,
4A0,
390,
490,
481,
361,
452,
453,
BA8,
322,
100,
100,
221,
886,
452,
251,
370,
490,
490,
280,
591,
481,
370,
491,
490,
280,
000,
000,
481,
380,
490,
371,
481,
490,
390,
380,
480,
380,
480,
491,
582,
361,
260,
471,
260,
471,
381,
380,
380,
380,
490,
380,
490,
491,
380,
490,
380,
380,
000,
000,
000,
000,
000,
000,
000,
000,
000,
000,
000,
000,
000,
000,
000,
000,
000,
000,
000,
000,
000,
000,
000,
000,
000,
000,
000,
000,
000,
000,
000,
000,
000,
000,
000,
000,
000,
000,
000,
000,
000,
000,
000,
000,
000,
000,
000,
000,
000,
000,
000,
000,
000,
000,
000,
000,
000,
000,
000,
000,
000,
000,
000,
000,
000,
000,
380,
490,
280,
490,
380,
490,
491,
481,
380,
490,
481,
380,
481,
471,
481,
490,
491,
481,
390,
381,
491,
390,
380,
380,
490,
390,
591,
481,
481,
270,
000,
000,
381,
490,
FC7,
FC8,
FB7,
FC7,
FC8,
FD8,
FD8,
FC8,
FC7,
FC8,
FC8,
FC8,
FC7,
FC7,
FC7,
FC7,
FC7,
EB7,
FB7,
FB7,
FC7,
FC7,
FC7,
A84,
571,
380,
491,
380,
000,
000,
491,
280,
FD8,
853,
742,
852,
863,
752,
752,
853,
863,
863,
852,
852,
752,
853,
853,
752,
752,
752,
752,
752,
852,
853,
B84,
A84,
572,
380,
490,
380,
000,
000,
491,
380,
FD8,
421,
310,
531,
742,
742,
742,
742,
742,
852,
853,
852,
852,
752,
852,
853,
853,
853,
853,
853,
853,
742,
B85,
A74,
471,
380,
490,
380,
000,
000,
491,
380,
FC8,
421,
531,
964,
A74,
A74,
B75,
B75,
B75,
B85,
B85,
B85,
B85,
B75,
A74,
B85,
D96,
D96,
C96,
C85,
C86,
B75,
D96,
974,
471,
480,
380,
490,
000,
000,
380,
490,
FD8,
320,
531,
B85,
C85,
B85,
B85,
D96,
C96,
B75,
B75,
C96,
DA7,
C96,
B85,
C96,
DA7,
DA7,
D96,
DA7,
EA7,
D96,
EA7,
974,
471,
380,
380,
380,
000,
000,
380,
481,
FC8,
310,
532,
D96,
D96,
B75,
B85,
D96,
C96,
B85,
B85,
D96,
DA7,
D96,
D96,
EA7,
D96,
C96,
D96,
D97,
DA7,
D96,
EB7,
974,
350,
490,
481,
381,
000,
000,
380,
481,
FC8,
320,
532,
C86,
C96,
B85,
C85,
C96,
C86,
C85,
B75,
B85,
C86,
C96,
C96,
DA7,
D96,
DA7,
D96,
C85,
C96,
C96,
EB7,
974,
230,
250,
371,
480,
000,
000,
481,
581,
FC8,
420,
532,
B85,
C85,
C96,
B85,
C96,
D96,
D97,
C85,
B85,
D96,
D96,
C96,
D96,
D96,
EA7,
D96,
C96,
C96,
C85,
EB7,
974,
240,
130,
361,
481,
000,
000,
491,
481,
FD9,
320,
632,
B85,
C85,
C96,
C96,
D97,
EA7,
C96,
D96,
EA7,
DA7,
D96,
EA7,
EA7,
D96,
D96,
DA7,
EA7,
EA7,
C86,
EB7,
B85,
341,
140,
251,
471,
000,
000,
490,
381,
FE9,
421,
742,
C85,
C85,
C86,
C85,
C96,
D96,
C86,
C96,
DA7,
D96,
C96,
DA7,
DA7,
C96,
D96,
EA7,
DA7,
D96,
C96,
EB7,
B85,
341,
240,
140,
481,
000,
000,
591,
380,
FE9,
863,
963,
A74,
B85,
B85,
B85,
B85,
B85,
B85,
C85,
DA6,
C96,
C96,
DA6,
C96,
C96,
DA6,
C96,
C95,
C96,
A74,
DA7,
B95,
341,
241,
140,
581,
000,
000,
380,
490,
FC8,
FC8,
EC7,
EB7,
EC7,
EB7,
FC7,
FC8,
FC8,
EB7,
EC7,
FC8,
EC7,
EB7,
EC7,
EB7,
EB7,
EB7,
EC7,
EB7,
EB7,
EC7,
EC7,
A74,
341,
140,
140,
591,
000,
000,
380,
490,
852,
852,
852,
752,
752,
752,
852,
852,
852,
752,
852,
852,
752,
742,
742,
742,
742,
742,
742,
742,
742,
742,
752,
641,
240,
140,
240,
490,
000,
000,
380,
380,
642,
641,
642,
642,
642,
642,
642,
642,
642,
642,
642,
742,
642,
642,
642,
742,
742,
742,
742,
642,
642,
742,
742,
531,
230,
240,
140,
380,
000,
000,
390,
380,
752,
853,
752,
852,
952,
852,
752,
742,
852,
852,
852,
752,
752,
852,
852,
752,
742,
752,
852,
752,
642,
641,
742,
642,
341,
240,
140,
390,
000,
000,
380,
380,
DA6,
EA6,
B73,
963,
532,
752,
B73,
B73,
642,
532,
742,
B73,
A63,
642,
432,
963,
B73,
962,
431,
431,
852,
B74,
DB7,
A84,
451,
240,
140,
490,
000,
000,
380,
490,
963,
C74,
B73,
642,
000,
431,
A63,
B73,
221,
000,
321,
B73,
952,
211,
000,
742,
B73,
742,
000,
110,
952,
963,
963,
853,
340,
241,
140,
490,
000,
000,
280,
490,
FC8,
EC7,
A63,
631,
000,
321,
852,
952,
210,
000,
210,
952,
742,
110,
000,
631,
952,
531,
000,
000,
741,
B74,
FC8,
974,
340,
240,
240,
380,
000,
000,
380,
380,
B95,
A74,
963,
852,
963,
963,
963,
B84,
B84,
B84,
A74,
A74,
B84,
B84,
B85,
C95,
C95,
B85,
C95,
C95,
A73,
A73,
B85,
752,
340,
240,
140,
490,
000,
000,
491,
380,
DA6,
FD8,
FD8,
EB7,
FD8,
FC7,
EB7,
FC7,
FC7,
FC7,
FC7,
FC7,
FC7,
FC7,
FC7,
FC7,
EB7,
EB6,
EB7,
FC7,
EB7,
EB7,
CA6,
974,
341,
240,
250,
490,
000,
000,
380,
481,
852,
EB6,
DA6,
531,
432,
642,
852,
853,
A73,
B84,
B84,
B73,
A73,
A73,
B74,
963,
952,
852,
532,
642,
EB7,
C96,
321,
542,
241,
240,
250,
490,
000,
000,
490,
380,
852,
C84,
B84,
321,
000,
431,
952,
952,
531,
EB7,
CA7,
CA6,
CA6,
A85,
EC7,
A74,
952,
962,
000,
000,
A74,
A74,
642,
742,
341,
250,
150,
380,
000,
000,
4A0,
481,
852,
B74,
A73,
321,
000,
431,
852,
742,
641,
FD8,
000,
110,
110,
000,
A96,
974,
742,
852,
000,
101,
A63,
A63,
752,
852,
441,
250,
260,
490,
000,
000,
591,
491,
852,
B74,
A73,
531,
431,
641,
974,
A85,
863,
FD9,
000,
000,
100,
000,
985,
B96,
A75,
753,
431,
431,
A73,
963,
642,
852,
340,
240,
370,
481,
000,
000,
481,
581,
531,
A73,
B74,
531,
531,
531,
CA6,
FC8,
863,
FC8,
210,
211,
110,
110,
975,
EC7,
FC8,
853,
742,
631,
A63,
963,
431,
531,
340,
250,
270,
490,
000,
000,
481,
381,
481,
351,
341,
230,
240,
130,
863,
B85,
642,
461,
240,
240,
240,
130,
351,
863,
A73,
742,
340,
340,
341,
341,
240,
350,
370,
481,
380,
490,
000,
000,
490,
280,
380,
260,
260,
260,
260,
260,
752,
962,
631,
240,
140,
140,
250,
251,
251,
752,
952,
742,
250,
240,
260,
270,
591,
481,
280,
481,
490,
380,
000,
000,
490,
380,
490,
270,
380,
4A0,
390,
490,
862,
962,
641,
240,
260,
270,
380,
591,
380,
762,
952,
742,
250,
380,
490,
280,
591,
481,
370,
491,
490,
280,
000,
000,
481,
380,
490,
371,
481,
490,
390,
380,
762,
962,
531,
490,
481,
381,
380,
591,
380,
762,
962,
531,
380,
380,
490,
380,
490,
491,
380,
490,
380,
380,
000,
000,
000,
000,
000,
000,
000,
000,
000,
000,
000,
000,
000,
000,
000,
000,
000,
000,
000,
000,
000,
000,
000,
000,
000,
000,
000,
000,
000,
000,
000,
000,
000,
000,
000,
000,
000,
000,
000,
000,
000,
000,
000,
000,
000,
000,
000,
000,
000,
000,
000,
000,
000,
000,
000,
000,
000,
000,
000,
000,
000,
000,
000,
000,
000,
000,
380,
490,
280,
490,
380,
490,
491,
481,
380,
490,
481,
380,
481,
471,
481,
490,
491,
481,
390,
381,
491,
390,
380,
380,
490,
390,
591,
481,
481,
270,
000,
000,
381,
490,
380,
270,
380,
380,
490,
380,
490,
390,
481,
481,
270,
481,
370,
380,
490,
380,
490,
380,
481,
390,
280,
280,
490,
380,
481,
380,
491,
380,
000,
000,
491,
280,
471,
480,
5A0,
390,
380,
380,
590,
280,
380,
591,
380,
581,
481,
380,
591,
380,
490,
380,
380,
491,
380,
390,
381,
492,
481,
380,
490,
380,
000,
000,
491,
380,
370,
491,
5A0,
280,
390,
490,
481,
381,
380,
380,
280,
591,
370,
370,
380,
490,
380,
491,
280,
490,
490,
280,
381,
481,
490,
380,
490,
380,
000,
000,
491,
380,
380,
491,
491,
370,
490,
380,
490,
481,
481,
380,
490,
490,
280,
481,
380,
490,
380,
390,
280,
390,
490,
380,
380,
271,
582,
582,
6A2,
7A2,
000,
000,
380,
490,
591,
380,
481,
481,
380,
380,
490,
591,
591,
5A0,
380,
380,
490,
4A0,
380,
380,
380,
380,
280,
481,
481,
491,
692,
7A3,
8A3,
8B3,
9C3,
9C3,
000,
000,
380,
481,
481,
370,
481,
380,
491,
280,
491,
5A1,
581,
491,
581,
490,
380,
490,
390,
380,
380,
490,
390,
380,
692,
8B3,
9B3,
9B3,
9C3,
9C3,
9C3,
9C3,
000,
000,
380,
481,
490,
481,
480,
390,
490,
370,
481,
591,
481,
380,
280,
490,
380,
380,
380,
380,
280,
491,
591,
692,
8B3,
9C3,
AC3,
AD3,
AC3,
9C3,
9B3,
9C3,
000,
000,
481,
581,
5A0,
491,
370,
380,
481,
371,
490,
490,
491,
490,
280,
280,
280,
380,
380,
490,
490,
591,
693,
7A4,
8A3,
AC3,
AC3,
AC3,
AC3,
AD3,
AC3,
9C3,
000,
000,
491,
481,
381,
490,
491,
380,
481,
380,
490,
280,
380,
4A0,
491,
390,
380,
380,
280,
490,
591,
793,
8A3,
9B3,
9B3,
9B3,
9B3,
AC3,
AC3,
AD3,
AC3,
9C3,
000,
000,
490,
381,
380,
390,
390,
481,
491,
380,
380,
280,
380,
491,
481,
490,
591,
280,
380,
380,
693,
8B3,
8B3,
9C3,
9C3,
9C3,
9C3,
AC3,
AC3,
AC3,
AC3,
AC3,
000,
000,
591,
380,
490,
380,
490,
380,
481,
270,
280,
280,
490,
381,
380,
490,
491,
280,
491,
381,
7A3,
AC3,
9B3,
9B3,
9C3,
9C3,
9B3,
9C3,
AC3,
AC3,
AC3,
AC3,
000,
000,
380,
490,
380,
490,
490,
490,
491,
380,
380,
380,
490,
491,
270,
480,
481,
380,
380,
583,
793,
8A3,
8A3,
9C3,
9C3,
9B3,
9B3,
8B3,
9B3,
9B3,
8B3,
9B3,
000,
000,
380,
490,
380,
380,
280,
390,
380,
390,
280,
380,
491,
4A0,
491,
481,
480,
692,
583,
793,
793,
7A3,
9C3,
8A3,
8A3,
9B3,
8A3,
8A3,
8A3,
794,
794,
9B3,
000,
000,
380,
380,
380,
380,
280,
380,
170,
380,
490,
591,
381,
490,
490,
592,
693,
9B3,
793,
8B3,
9B3,
793,
8A3,
793,
793,
793,
793,
8B3,
9B3,
7A4,
8B3,
9B3,
000,
000,
390,
380,
380,
490,
390,
280,
380,
380,
491,
591,
370,
481,
6A2,
7A3,
8A3,
AC3,
9B3,
9B3,
793,
683,
793,
9B3,
9B3,
793,
574,
793,
9C3,
8A3,
683,
574,
000,
000,
380,
380,
280,
491,
490,
280,
380,
380,
481,
491,
280,
582,
8B3,
AC3,
AC3,
AD2,
AC3,
AC3,
8A3,
674,
683,
8A3,
9B3,
8B3,
793,
793,
7A3,
684,
574,
683,
000,
000,
380,
490,
490,
490,
380,
491,
390,
380,
380,
481,
380,
7A2,
8B3,
9B3,
AD3,
BD3,
BD2,
AD3,
9C3,
8A3,
9B3,
9B3,
8B3,
9C3,
8A3,
793,
7A3,
572,
793,
672,
000,
000,
280,
490,
591,
491,
380,
380,
491,
390,
380,
490,
491,
8A3,
AC3,
9C3,
9C3,
AC3,
AD3,
AC3,
AC3,
9B3,
9B3,
9B3,
9B3,
9B3,
793,
683,
683,
792,
792,
683,
000,
000,
380,
380,
481,
592,
490,
280,
591,
491,
390,
280,
482,
793,
AC3,
9C3,
9B3,
9B3,
AC3,
AC3,
9B3,
8A3,
9C3,
673,
8A3,
8A3,
573,
683,
793,
792,
792,
8A3,
000,
000,
491,
380,
280,
380,
591,
390,
380,
380,
380,
270,
473,
685,
8B4,
8A4,
7A4,
9B3,
9B3,
9B3,
8A3,
793,
8A3,
574,
564,
453,
343,
563,
793,
8A3,
8B3,
9B3,
000,
000,
380,
481,
380,
380,
591,
490,
280,
380,
381,
582,
574,
685,
8A4,
794,
794,
AC3,
8A4,
8A3,
AC3,
8A3,
794,
8B4,
695,
453,
341,
562,
793,
8A3,
9C3,
9B3,
000,
000,
490,
380,
481,
480,
491,
490,
490,
381,
693,
8B3,
683,
574,
574,
574,
694,
7A5,
695,
793,
8A4,
794,
8A3,
9C3,
685,
453,
451,
572,
572,
673,
8A3,
9C3,
000,
000,
4A0,
481,
591,
490,
481,
481,
481,
583,
793,
AD3,
793,
454,
463,
563,
684,
8A4,
684,
574,
795,
9C3,
8A4,
684,
463,
452,
682,
9B3,
9B3,
792,
782,
8B3,
000,
000,
591,
491,
481,
481,
490,
380,
592,
8A3,
AC3,
8A3,
683,
684,
683,
673,
8A3,
9B3,
7A5,
575,
695,
9B3,
8A4,
684,
683,
8A3,
793,
9C3,
9C3,
9B3,
793,
794,
000,
000,
481,
581,
481,
591,
590,
380,
6A2,
AD3,
AD3,
9B3,
8A3,
9B3,
8A3,
793,
8A2,
9B3,
7A4,
684,
7A4,
794,
8B4,
9C4,
8A3,
AD3,
AC3,
AC3,
AC3,
9C3,
8B4,
8A4,
000,
000,
481,
381,
491,
380,
481,
481,
9B3,
9C3,
9C3,
8B3,
794,
793,
793,
8A3,
8A2,
8A2,
9B3,
9B3,
9B3,
684,
7A4,
AC3,
AC3,
AD2,
AC3,
AC3,
AC3,
AD3,
AC3,
9B3,
000,
000,
490,
280,
390,
280,
381,
693,
9C3,
9B3,
9B3,
7A4,
794,
7A4,
793,
8B3,
8A3,
8B2,
9C3,
9B3,
793,
8A4,
684,
9B3,
9C3,
AD3,
AC3,
9C3,
AC3,
AC3,
AC3,
AC3,
000,
000,
490,
380,
490,
270,
381,
684,
794,
794,
9B3,
8A3,
793,
683,
573,
793,
8B3,
8B2,
8A3,
9B3,
793,
9B3,
684,
8A4,
8B4,
9B3,
9B3,
9B3,
AC3,
AC3,
AC3,
AD3,
000,
000,
481,
380,
490,
371,
472,
574,
575,
574,
793,
794,
683,
572,
463,
683,
682,
672,
8A3,
8A2,
573,
684,
684,
794,
794,
8A3,
8A4,
9C3,
9B3,
9B3,
9B3,
AD3,
000,
000,
000,
000,
000,
000,
000,
000,
000,
000,
000,
000,
000,
000,
000,
000,
000,
000,
000,
000,
000,
000,
000,
000,
000,
000,
000,
000,
000,
000,
000,
000,
000,
000,
000,
000,
000,
000,
000,
000,
000,
000,
000,
000,
000,
000,
000,
000,
000,
000,
000,
000,
000,
000,
000,
000,
000,
000,
000,
000,
000,
000,
000,
000,
000,
000,
380,
490,
280,
490,
380,
490,
491,
481,
380,
490,
481,
380,
481,
471,
481,
490,
491,
481,
390,
381,
491,
390,
380,
380,
490,
390,
591,
481,
481,
270,
000,
000,
381,
490,
380,
270,
380,
380,
490,
380,
490,
390,
481,
481,
270,
481,
370,
380,
490,
380,
490,
380,
481,
390,
280,
280,
490,
380,
481,
380,
491,
380,
000,
000,
491,
280,
471,
480,
5A0,
390,
380,
380,
590,
280,
380,
591,
380,
581,
481,
380,
591,
380,
490,
380,
380,
491,
380,
390,
381,
492,
481,
380,
490,
380,
000,
000,
491,
380,
370,
491,
5A0,
280,
390,
490,
481,
381,
380,
380,
280,
591,
370,
370,
380,
490,
380,
491,
280,
490,
490,
280,
381,
481,
490,
380,
490,
380,
000,
000,
693,
472,
481,
491,
491,
370,
490,
380,
490,
481,
481,
380,
490,
490,
280,
481,
380,
490,
380,
390,
280,
390,
490,
380,
380,
270,
490,
480,
380,
490,
000,
000,
9B3,
7A3,
8A3,
693,
573,
472,
371,
380,
490,
591,
591,
5A0,
380,
380,
490,
4A0,
380,
380,
380,
380,
280,
481,
380,
380,
380,
280,
490,
380,
380,
380,
000,
000,
9C3,
9C3,
9C3,
8A3,
793,
674,
463,
371,
491,
5A1,
581,
491,
581,
490,
380,
490,
390,
380,
380,
490,
390,
280,
381,
380,
380,
380,
490,
4A0,
481,
381,
000,
000,
AC3,
9C3,
9C3,
9B3,
8A3,
7A3,
793,
573,
472,
491,
481,
380,
280,
490,
380,
380,
380,
380,
280,
491,
490,
280,
380,
491,
280,
380,
280,
490,
481,
480,
000,
000,
AC3,
AC3,
9B3,
9B3,
8B3,
7A3,
9B3,
8A3,
463,
472,
491,
490,
280,
280,
280,
380,
380,
490,
490,
490,
380,
491,
390,
490,
390,
490,
490,
270,
481,
481,
000,
000,
AD3,
9C3,
9B3,
9B3,
9B3,
8A3,
8A3,
793,
453,
352,
371,
490,
491,
390,
380,
380,
280,
490,
591,
491,
380,
380,
491,
490,
490,
480,
481,
380,
481,
471,
000,
000,
AD3,
AC3,
9B3,
AC3,
9B3,
8B3,
792,
7A3,
573,
343,
352,
481,
481,
490,
591,
280,
380,
380,
481,
592,
490,
280,
491,
380,
490,
481,
481,
481,
270,
481,
000,
000,
AC3,
9B3,
9B3,
9B3,
8A3,
7A3,
682,
683,
453,
343,
242,
362,
381,
490,
491,
280,
491,
380,
280,
380,
591,
390,
390,
380,
480,
380,
380,
591,
380,
581,
000,
000,
9B3,
8A3,
8A3,
7A3,
8A3,
793,
683,
463,
343,
242,
342,
343,
352,
481,
481,
380,
380,
481,
380,
380,
591,
490,
380,
490,
380,
270,
490,
380,
280,
591,
000,
000,
9C3,
8A3,
8A3,
793,
683,
684,
793,
683,
243,
342,
343,
343,
342,
462,
371,
381,
490,
380,
481,
490,
490,
490,
280,
380,
380,
390,
380,
270,
490,
490,
000,
000,
8A3,
9B3,
794,
683,
673,
564,
352,
342,
232,
342,
354,
463,
453,
463,
463,
463,
582,
481,
491,
481,
381,
390,
380,
390,
380,
490,
280,
390,
380,
380,
000,
000,
7A3,
8A3,
793,
683,
8A3,
462,
453,
343,
352,
452,
573,
574,
463,
573,
463,
463,
462,
481,
491,
581,
491,
380,
490,
280,
390,
490,
490,
490,
270,
390,
000,
000,
672,
793,
8A3,
683,
572,
463,
575,
464,
353,
463,
573,
574,
573,
684,
573,
353,
352,
380,
490,
480,
490,
280,
490,
390,
490,
380,
380,
390,
380,
490,
000,
000,
563,
682,
682,
462,
453,
463,
464,
464,
575,
574,
574,
563,
573,
684,
584,
573,
342,
371,
490,
390,
491,
280,
490,
390,
390,
380,
380,
481,
380,
490,
000,
000,
684,
682,
462,
352,
462,
463,
463,
794,
684,
464,
463,
453,
453,
574,
573,
463,
353,
252,
480,
380,
490,
490,
380,
380,
490,
490,
380,
491,
491,
380,
000,
000,
9B3,
9B3,
682,
793,
792,
793,
573,
684,
574,
454,
463,
463,
463,
463,
343,
343,
343,
232,
361,
380,
490,
490,
390,
380,
380,
490,
490,
481,
380,
490,
000,
000,
9B3,
9B3,
8A3,
7A4,
8B3,
8A3,
8A3,
584,
574,
463,
584,
684,
463,
342,
353,
354,
353,
343,
342,
471,
480,
490,
280,
490,
380,
490,
390,
491,
490,
490,
000,
000,
9B3,
9B3,
9B3,
8A3,
9B3,
8A3,
8A3,
574,
464,
463,
463,
573,
463,
353,
354,
354,
354,
354,
342,
242,
241,
481,
380,
490,
481,
490,
270,
491,
390,
490,
000,
000,
8A4,
7A4,
9B3,
8A3,
8B3,
682,
572,
573,
463,
584,
684,
573,
463,
354,
354,
354,
353,
343,
232,
231,
221,
351,
481,
381,
590,
481,
481,
5A0,
280,
380,
000,
000,
7A4,
794,
8A3,
793,
793,
572,
462,
463,
453,
575,
685,
464,
353,
353,
353,
354,
343,
232,
232,
232,
231,
241,
380,
380,
5A0,
490,
491,
490,
390,
490,
000,
000,
794,
8B3,
8A3,
464,
464,
452,
352,
463,
684,
465,
464,
464,
464,
354,
343,
343,
342,
342,
342,
343,
343,
231,
241,
591,
481,
490,
380,
480,
490,
481,
000,
000,
795,
7A4,
8A4,
695,
574,
351,
342,
574,
685,
575,
464,
464,
464,
354,
232,
342,
452,
453,
353,
343,
343,
231,
232,
471,
481,
591,
490,
381,
280,
490,
000,
000,
8A4,
695,
795,
694,
462,
452,
685,
575,
575,
575,
575,
464,
353,
342,
231,
342,
463,
463,
453,
343,
352,
232,
241,
351,
380,
490,
380,
481,
380,
490,
000,
000,
9C3,
9B3,
8B4,
794,
684,
564,
585,
575,
585,
575,
575,
574,
353,
453,
452,
452,
462,
563,
463,
453,
462,
342,
241,
251,
591,
481,
280,
481,
490,
380,
000,
000,
8B3,
8A4,
9B4,
7A5,
685,
574,
574,
564,
685,
575,
454,
464,
464,
463,
462,
462,
462,
462,
462,
462,
462,
343,
232,
241,
481,
481,
370,
491,
490,
280,
000,
000,
8A4,
7A5,
7A5,
696,
685,
574,
685,
574,
353,
464,
464,
464,
573,
462,
452,
462,
462,
462,
462,
462,
462,
463,
343,
232,
361,
491,
380,
490,
380,
380,
000,
000,
000,
000,
000,
000,
000,
000,
000,
000,
000,
000,
000,
000,
000,
000,
000,
000,
000,
000,
000,
000,
000,
000,
000,
000,
000,
000,
000,
000,
000,
000,
000,
000,
000,
000,
000,
000,
000,
000,
000,
000,
000,
000,
000,
000,
000,
000,
000,
000,
000,
000,
000,
000,
000,
000,
000,
000,
000,
000,
000,
000,
000,
000,
000,
000,
380,
490,
280,
491,
472,
464,
575,
575,
685,
794,
673,
562,
573,
693,
573,
573,
573,
573,
563,
573,
683,
792,
683,
794,
9B4,
AD3,
8A3,
8A3,
9B3,
8A3,
000,
000,
381,
490,
380,
270,
453,
463,
464,
453,
575,
575,
452,
562,
793,
793,
683,
573,
573,
354,
684,
7A5,
683,
574,
684,
683,
792,
8A3,
9B3,
9B3,
8B3,
683,
000,
000,
491,
280,
471,
480,
453,
574,
573,
575,
586,
464,
673,
793,
683,
8A3,
683,
683,
7A3,
793,
8A3,
7A4,
683,
695,
695,
463,
462,
573,
9B3,
8B3,
693,
683,
000,
000,
491,
380,
370,
481,
353,
453,
573,
586,
587,
574,
683,
793,
683,
8A3,
9B3,
9B3,
8A3,
9C3,
9C3,
684,
8A3,
9C3,
683,
684,
574,
463,
463,
452,
452,
462,
000,
000,
491,
380,
380,
481,
353,
353,
464,
464,
575,
684,
794,
7A3,
9B3,
9C3,
9C3,
AD2,
AC3,
AC3,
AD2,
9B3,
9C3,
AC2,
8B3,
795,
7A4,
573,
464,
464,
453,
563,
000,
000,
380,
490,
591,
380,
352,
464,
574,
453,
564,
8A4,
9B3,
8B3,
9B3,
9B3,
AC3,
AC3,
AC3,
AC3,
AC3,
9C3,
AC3,
AD2,
8A3,
7A4,
AD2,
7A4,
685,
684,
463,
572,
000,
000,
380,
481,
481,
370,
471,
463,
463,
453,
574,
696,
695,
794,
794,
8A4,
8A3,
8A3,
AC3,
AC2,
AC3,
AC3,
AD2,
AC3,
9B3,
9B3,
8B3,
8B3,
7A3,
682,
573,
682,
000,
000,
380,
481,
490,
481,
471,
232,
232,
453,
574,
684,
794,
7A5,
574,
573,
683,
8A3,
9B3,
9B3,
9C3,
AC3,
AC3,
9C3,
793,
8A3,
AC3,
793,
573,
463,
464,
574,
000,
000,
481,
581,
5A0,
491,
361,
232,
342,
574,
575,
574,
794,
793,
683,
793,
683,
793,
794,
AC3,
AC3,
9B3,
9B3,
9B3,
683,
683,
9C3,
683,
353,
463,
573,
573,
000,
000,
491,
481,
381,
490,
481,
361,
342,
574,
574,
453,
574,
573,
573,
683,
452,
453,
683,
9B3,
9C3,
793,
792,
8B2,
9B3,
793,
463,
463,
572,
572,
9B3,
8A2,
000,
000,
490,
381,
380,
390,
390,
481,
352,
353,
453,
353,
575,
574,
573,
563,
573,
573,
463,
793,
682,
572,
792,
8A2,
8B3,
793,
463,
793,
9B3,
8A2,
9B3,
792,
000,
000,
591,
380,
490,
380,
490,
380,
381,
241,
232,
342,
453,
452,
564,
573,
683,
573,
463,
793,
572,
793,
9B3,
682,
8A2,
792,
8A3,
8A3,
8B2,
9C3,
8A3,
682,
000,
000,
380,
490,
380,
490,
490,
490,
491,
361,
232,
232,
342,
342,
463,
463,
462,
563,
573,
683,
683,
7A4,
683,
452,
683,
7A3,
AC3,
8B2,
8A2,
8A2,
792,
683,
000,
000,
380,
490,
380,
380,
280,
390,
380,
380,
251,
242,
242,
342,
343,
343,
342,
352,
572,
575,
574,
573,
564,
463,
684,
684,
7A3,
793,
683,
8A3,
9B3,
683,
000,
000,
380,
380,
380,
380,
280,
380,
170,
380,
490,
361,
232,
242,
242,
232,
232,
242,
342,
464,
464,
463,
575,
575,
574,
584,
793,
694,
575,
8A3,
8A2,
584,
000,
000,
390,
380,
380,
490,
390,
280,
380,
380,
491,
591,
361,
242,
232,
232,
342,
342,
342,
353,
342,
343,
464,
464,
352,
682,
682,
453,
683,
7A3,
684,
684,
000,
000,
380,
380,
280,
491,
490,
280,
380,
380,
481,
491,
280,
481,
370,
361,
241,
242,
342,
242,
342,
342,
342,
342,
342,
342,
342,
342,
452,
573,
575,
684,
000,
000,
380,
490,
490,
490,
380,
491,
390,
380,
380,
481,
380,
491,
380,
370,
360,
131,
232,
232,
342,
342,
232,
342,
232,
221,
232,
342,
231,
342,
464,
464,
000,
000,
280,
490,
591,
491,
380,
380,
491,
390,
380,
490,
490,
380,
380,
380,
370,
351,
241,
231,
241,
231,
121,
231,
221,
121,
331,
442,
442,
442,
542,
332,
000,
000,
380,
380,
481,
592,
490,
280,
591,
491,
390,
280,
490,
280,
490,
380,
380,
481,
250,
140,
240,
240,
240,
240,
121,
121,
332,
552,
542,
542,
652,
652,
000,
000,
491,
380,
280,
380,
591,
390,
380,
380,
380,
270,
370,
380,
390,
380,
591,
481,
270,
250,
240,
250,
240,
240,
121,
331,
652,
442,
431,
542,
652,
652,
000,
000,
380,
481,
380,
380,
591,
490,
280,
380,
380,
390,
380,
492,
491,
380,
491,
481,
380,
481,
360,
241,
240,
341,
763,
974,
552,
331,
331,
542,
542,
542,
000,
000,
490,
380,
481,
490,
490,
490,
490,
380,
490,
490,
380,
380,
380,
380,
380,
491,
491,
480,
380,
260,
341,
542,
652,
431,
331,
221,
221,
863,
974,
763,
000,
000,
4A0,
481,
591,
490,
481,
481,
380,
380,
380,
491,
380,
270,
490,
380,
380,
491,
481,
491,
490,
490,
370,
361,
340,
341,
340,
231,
341,
874,
984,
653,
000,
000,
591,
491,
481,
481,
490,
380,
380,
491,
380,
481,
270,
381,
491,
490,
492,
491,
380,
491,
380,
380,
490,
491,
280,
471,
350,
360,
250,
663,
A95,
652,
000,
000,
481,
581,
481,
591,
590,
380,
380,
491,
581,
581,
380,
490,
481,
491,
591,
481,
491,
491,
381,
380,
490,
481,
380,
491,
481,
481,
370,
673,
774,
451,
000,
000,
481,
381,
491,
380,
481,
370,
490,
380,
481,
481,
490,
390,
491,
380,
481,
380,
491,
380,
380,
380,
490,
491,
380,
380,
380,
490,
380,
592,
572,
480,
000,
000,
490,
280,
390,
280,
380,
380,
280,
380,
4A0,
390,
390,
380,
280,
280,
481,
491,
491,
380,
380,
390,
490,
480,
380,
280,
591,
481,
280,
481,
480,
380,
000,
000,
490,
380,
490,
270,
380,
4A0,
390,
490,
490,
280,
491,
380,
270,
270,
380,
591,
380,
490,
490,
280,
390,
390,
490,
280,
591,
481,
370,
491,
490,
280,
000,
000,
481,
380,
490,
371,
481,
490,
390,
380,
480,
380,
490,
4A0,
481,
381,
380,
591,
380,
481,
380,
380,
380,
380,
490,
380,
490,
491,
380,
490,
380,
380,
000,
000,
000,
000,
000,
000,
000,
000,
000,
000,
000,
000,
000,
000,
000,
000,
000,
000,
000,
000,
000,
000,
000,
000,
000,
000,
000,
000,
000,
000,
000,
000,
000,
000,
000,
000,
000,
000,
000,
000,
000,
000,
000,
000,
000,
000,
000,
000,
000,
000,
000,
000,
000,
000,
000,
000,
000,
000,
000,
000,
000,
000,
000,
000,
000,
000,
794,
695,
7A5,
686,
696,
453,
453,
463,
452,
463,
464,
464,
453,
452,
462,
562,
462,
462,
573,
464,
463,
452,
343,
342,
241,
380,
591,
481,
481,
270,
000,
000,
464,
573,
573,
685,
695,
353,
342,
572,
685,
685,
574,
574,
575,
574,
572,
452,
452,
562,
573,
464,
353,
343,
343,
221,
241,
370,
481,
380,
491,
380,
000,
000,
463,
462,
341,
353,
573,
682,
562,
683,
685,
695,
684,
573,
572,
562,
462,
452,
462,
562,
573,
562,
462,
343,
343,
231,
231,
482,
481,
380,
490,
380,
000,
000,
452,
452,
463,
464,
573,
572,
8A2,
8B3,
8B4,
795,
794,
7A4,
684,
563,
452,
452,
572,
462,
342,
462,
352,
232,
232,
121,
242,
371,
490,
380,
490,
380,
000,
000,
564,
563,
573,
574,
683,
683,
9C3,
9C3,
9B3,
8A4,
8A4,
8A3,
684,
453,
343,
352,
462,
352,
342,
353,
231,
221,
121,
221,
241,
160,
490,
480,
380,
490,
000,
000,
793,
682,
682,
673,
7A3,
8A2,
9B3,
9B3,
8B3,
8B3,
794,
684,
684,
463,
342,
342,
342,
342,
343,
232,
221,
121,
121,
121,
231,
260,
490,
380,
380,
380,
000,
000,
8B2,
8A2,
8A2,
792,
8A3,
8B3,
9C3,
9B3,
793,
685,
684,
584,
695,
574,
342,
342,
343,
342,
232,
221,
121,
121,
111,
111,
231,
261,
490,
4A0,
481,
381,
000,
000,
572,
792,
792,
793,
694,
794,
9B3,
8B3,
574,
464,
574,
574,
575,
464,
342,
232,
343,
232,
221,
231,
121,
111,
111,
111,
231,
250,
280,
490,
481,
480,
000,
000,
793,
7A3,
682,
683,
685,
584,
683,
684,
574,
342,
453,
353,
343,
353,
342,
231,
231,
231,
231,
221,
111,
111,
111,
121,
231,
260,
490,
270,
481,
481,
000,
000,
8A2,
792,
452,
574,
575,
574,
574,
684,
563,
341,
232,
342,
343,
342,
232,
343,
231,
340,
231,
121,
111,
111,
111,
221,
241,
350,
481,
380,
481,
471,
000,
000,
562,
452,
353,
463,
563,
462,
683,
574,
452,
452,
353,
342,
232,
221,
232,
342,
340,
340,
231,
121,
111,
111,
121,
231,
240,
350,
481,
481,
270,
481,
000,
000,
463,
683,
583,
352,
352,
352,
562,
572,
462,
342,
343,
342,
342,
343,
231,
121,
340,
221,
111,
111,
111,
121,
230,
240,
240,
250,
380,
591,
380,
581,
000,
000,
463,
573,
693,
452,
452,
463,
352,
351,
351,
242,
342,
232,
342,
342,
231,
231,
231,
111,
111,
111,
111,
121,
240,
250,
140,
260,
480,
380,
280,
591,
000,
000,
463,
463,
563,
462,
564,
463,
342,
452,
341,
231,
231,
341,
341,
340,
341,
231,
231,
121,
121,
111,
121,
231,
140,
240,
140,
380,
380,
270,
490,
490,
000,
000,
574,
574,
463,
683,
574,
342,
242,
451,
341,
121,
231,
341,
340,
340,
231,
231,
231,
231,
121,
111,
121,
240,
140,
240,
250,
380,
280,
390,
380,
380,
000,
000,
684,
575,
463,
694,
573,
242,
351,
351,
231,
231,
231,
340,
340,
231,
231,
231,
231,
221,
121,
121,
241,
140,
240,
140,
270,
490,
490,
490,
270,
390,
000,
000,
573,
342,
232,
342,
352,
341,
341,
341,
111,
111,
220,
230,
121,
111,
121,
231,
230,
121,
240,
240,
250,
140,
250,
260,
490,
380,
380,
390,
380,
490,
000,
000,
352,
121,
121,
221,
341,
351,
231,
121,
121,
120,
121,
111,
111,
111,
121,
130,
240,
240,
240,
240,
240,
140,
250,
380,
390,
380,
380,
481,
380,
490,
000,
000,
331,
221,
221,
221,
231,
241,
231,
131,
231,
240,
240,
130,
120,
131,
140,
251,
240,
140,
250,
140,
240,
250,
270,
380,
490,
490,
380,
491,
491,
380,
000,
000,
542,
331,
331,
321,
221,
140,
250,
250,
240,
140,
240,
140,
240,
140,
140,
351,
240,
140,
240,
240,
250,
370,
390,
380,
380,
490,
490,
481,
380,
490,
000,
000,
432,
321,
331,
331,
221,
240,
240,
140,
140,
140,
140,
240,
240,
240,
241,
240,
140,
240,
240,
351,
370,
490,
280,
490,
380,
490,
390,
491,
490,
490,
000,
000,
432,
331,
321,
331,
321,
221,
240,
140,
140,
240,
240,
241,
240,
140,
240,
240,
240,
240,
360,
371,
380,
481,
380,
490,
481,
490,
270,
491,
390,
490,
000,
000,
442,
221,
221,
221,
221,
221,
231,
140,
240,
250,
140,
140,
140,
140,
240,
240,
250,
360,
380,
380,
480,
481,
481,
381,
590,
481,
481,
5A0,
280,
380,
000,
000,
331,
231,
341,
341,
341,
341,
341,
240,
140,
241,
140,
140,
240,
240,
250,
360,
481,
491,
490,
490,
380,
481,
380,
380,
5A0,
490,
491,
490,
390,
490,
000,
000,
231,
240,
240,
241,
250,
250,
240,
240,
240,
241,
140,
250,
260,
370,
482,
491,
380,
491,
380,
380,
490,
491,
380,
591,
481,
490,
380,
480,
490,
481,
000,
000,
351,
341,
240,
251,
250,
250,
250,
351,
351,
361,
260,
480,
481,
491,
591,
481,
491,
491,
381,
380,
490,
481,
380,
491,
481,
591,
490,
381,
280,
490,
000,
000,
371,
371,
481,
370,
371,
270,
480,
370,
481,
381,
490,
390,
491,
380,
481,
380,
491,
380,
380,
380,
490,
491,
380,
380,
380,
490,
380,
481,
380,
490,
000,
000,
490,
280,
390,
280,
380,
380,
280,
380,
4A0,
390,
390,
380,
280,
280,
481,
491,
491,
380,
380,
390,
490,
480,
380,
280,
591,
481,
280,
481,
490,
380,
000,
000,
490,
380,
490,
270,
380,
4A0,
390,
490,
490,
280,
491,
380,
270,
270,
380,
591,
380,
490,
490,
280,
390,
390,
490,
280,
591,
481,
370,
491,
490,
280,
000,
000,
481,
380,
490,
371,
481,
490,
390,
380,
480,
380,
490,
4A0,
481,
381,
380,
591,
380,
481,
380,
380,
380,
380,
490,
380,
490,
491,
380,
490,
380,
380,
000,
000,
000,
000,
000,
000,
000,
000,
000,
000,
000,
000,
000,
000,
000,
000,
000,
000,
000,
000,
000,
000,
000,
000,
000,
000,
000,
000,
000,
000,
000,
000,
000,
000,
000,
000,
000,
000,
000,
000,
000,
000,
000,
000,
000,
000,
000,
000,
000,
000,
000,
000,
000,
000,
000,
000,
000,
000,
000,
000,
000,
000,
000,
000,
000,
000,
380,
591,
380,
491,
381,
481,
683,
673,
572,
582,
582,
481,
582,
472,
471,
582,
683,
572,
582,
573,
582,
481,
381,
481,
591,
481,
591,
481,
481,
270,
000,
000,
381,
490,
380,
271,
481,
482,
682,
A72,
773,
673,
672,
572,
472,
673,
572,
672,
973,
763,
873,
773,
673,
582,
472,
572,
682,
482,
482,
381,
491,
380,
000,
000,
591,
380,
471,
481,
692,
673,
773,
A72,
B72,
973,
773,
773,
873,
873,
663,
973,
C72,
A72,
B72,
A73,
763,
773,
873,
873,
773,
683,
582,
381,
491,
481,
000,
000,
591,
381,
371,
582,
682,
773,
973,
B72,
EA2,
C82,
973,
963,
A62,
B72,
763,
B72,
D91,
C82,
EA2,
C82,
763,
873,
B72,
A72,
963,
673,
582,
481,
591,
380,
000,
000,
481,
381,
481,
582,
673,
763,
B72,
D91,
FD6,
FC4,
D92,
C82,
D92,
D92,
A62,
EA2,
FC3,
FC5,
FD8,
D92,
A62,
C82,
EA2,
C82,
A72,
663,
682,
572,
381,
491,
000,
000,
380,
481,
592,
673,
863,
963,
A72,
EA3,
FEA,
FFD,
FE9,
FC4,
FC5,
FC5,
D82,
FD7,
FE9,
FFC,
FEA,
EB2,
EA3,
FD6,
FD7,
D92,
A72,
962,
673,
481,
381,
380,
000,
000,
380,
582,
582,
572,
973,
D81,
D91,
EA1,
FEA,
FEA,
FFC,
FFC,
FFD,
FFB,
FC5,
FFD,
FFC,
FEA,
FE9,
FD7,
FFD,
FFE,
FEB,
EB2,
D82,
873,
682,
591,
482,
481,
000,
000,
381,
582,
591,
573,
773,
B72,
EA1,
EB2,
FE9,
FE9,
FEA,
FFC,
FFE,
FEB,
FFC,
FFE,
FFD,
FE8,
FE8,
FFD,
FFE,
FFE,
FEB,
EA3,
B72,
863,
572,
481,
481,
480,
000,
000,
481,
582,
591,
582,
673,
A72,
C82,
FD7,
FEA,
FFD,
FEA,
FD6,
FE9,
FE8,
FFE,
FFC,
FD7,
FD5,
FFC,
FE8,
FFB,
FD8,
FE9,
EB2,
C82,
873,
682,
371,
482,
481,
000,
000,
591,
482,
472,
582,
672,
863,
B72,
EB3,
FEB,
FFD,
FFC,
FC2,
FB2,
EA1,
FEA,
FD7,
FD5,
FC3,
FD5,
EB2,
FEA,
FEA,
FD7,
D92,
B72,
863,
773,
572,
582,
472,
000,
000,
582,
572,
572,
672,
773,
863,
A73,
DA2,
FFB,
FFD,
FE7,
FC3,
FC3,
EA1,
EB2,
EB2,
FEA,
FC3,
EB2,
FC4,
FFD,
FEA,
EB2,
D92,
D92,
D92,
A73,
673,
371,
482,
000,
000,
773,
773,
773,
873,
A73,
B72,
C83,
EA2,
FEA,
FEB,
FC5,
FC4,
FD5,
FC4,
EA1,
EB2,
FE9,
FD6,
EA1,
FEA,
FEB,
FFD,
FE9,
FD8,
FD8,
D92,
863,
683,
472,
582,
000,
000,
572,
873,
B72,
D92,
EA3,
EB2,
FC5,
FEB,
FFD,
FFD,
FD4,
FE9,
EB2,
FEC,
FC4,
FD8,
FD8,
FEB,
FC4,
FE8,
EB3,
FB2,
FFC,
FEB,
EB3,
C82,
A72,
873,
773,
682,
000,
000,
572,
873,
A73,
D92,
FD6,
FEA,
FE9,
FE9,
FE8,
FD6,
EB2,
FD6,
FFE,
FFC,
FFE,
FFF,
FFF,
FD7,
EA1,
FC3,
FC3,
FC3,
FE9,
FFD,
FFC,
EB3,
B72,
763,
673,
592,
000,
000,
481,
572,
673,
973,
C82,
FD6,
FFC,
FD6,
EA1,
FC3,
FD8,
FD7,
FEB,
FFF,
FFF,
FFF,
FFF,
FFE,
FFE,
FC3,
EB3,
FD8,
FFD,
FFE,
FEA,
EA2,
B72,
873,
672,
481,
000,
000,
481,
673,
863,
C82,
EA2,
FE9,
FEA,
FEA,
FE8,
FC4,
FB2,
FFB,
FFD,
FFF,
FFF,
FFF,
FFF,
FFF,
FD7,
FD6,
FFC,
FFC,
FEB,
FEB,
FC6,
D93,
A73,
773,
472,
481,
000,
000,
481,
572,
673,
A73,
D92,
FD6,
FEA,
FE8,
EB2,
EB2,
FC3,
FE9,
FFF,
FFF,
FFF,
FFF,
FFF,
FFF,
FEB,
FD6,
FE9,
FFC,
FEA,
FD7,
EB2,
B72,
773,
582,
481,
481,
000,
000,
481,
582,
582,
773,
973,
D92,
FC4,
FFC,
FFC,
FE9,
FC4,
FFC,
FEC,
FFD,
FFC,
FFF,
FFA,
FFC,
FFD,
FD9,
EB2,
EA1,
FD7,
FE8,
EB2,
B72,
773,
583,
481,
481,
000,
000,
380,
491,
582,
673,
873,
C82,
EB3,
FFB,
FD7,
FC4,
FEA,
FC5,
FC4,
FEB,
FB3,
FFE,
FEA,
FD5,
FC3,
EB2,
FD5,
FE8,
FFC,
FEB,
FEB,
EB3,
A73,
773,
582,
481,
000,
000,
480,
482,
673,
973,
C82,
FD6,
FE9,
FFC,
FD7,
FD6,
FC4,
FE8,
FC4,
FD8,
EA1,
FEA,
FD6,
EB2,
FFC,
FD6,
FEA,
FFC,
FFD,
FFB,
FD7,
EB4,
D92,
A73,
773,
582,
000,
000,
481,
472,
673,
A73,
D92,
FD6,
FD8,
FEB,
FFB,
FD5,
FEA,
FE9,
FD5,
FC4,
EA1,
FD6,
FC4,
FD5,
FE9,
FFC,
FE9,
FFC,
FFD,
FFD,
FD8,
C72,
973,
873,
773,
582,
000,
000,
371,
573,
773,
A72,
B72,
D92,
FE9,
FFB,
FEB,
FFD,
FEB,
FFB,
FD6,
EB2,
FC4,
EB2,
FEA,
FEA,
FFC,
FFE,
FFD,
FFD,
FEA,
FE9,
EB3,
D92,
873,
683,
582,
481,
000,
000,
581,
572,
673,
773,
B72,
EA1,
EA2,
FFB,
FD7,
FD8,
FD7,
FEB,
FEA,
FD7,
FEA,
EB2,
FFD,
FFC,
FEA,
FD8,
EB4,
FD6,
FC5,
D92,
EB2,
A63,
873,
683,
371,
381,
000,
000,
591,
582,
682,
773,
A62,
C82,
EB3,
D93,
D92,
C82,
EB2,
EB2,
FEA,
FEB,
FFD,
FE8,
FFE,
FFC,
EA2,
EA2,
A72,
C72,
D82,
A72,
973,
B72,
773,
582,
481,
481,
000,
000,
591,
582,
582,
773,
873,
D91,
C82,
B72,
A72,
A73,
C82,
D82,
FD6,
FEB,
FFD,
FFC,
FFC,
FE9,
C82,
C72,
973,
873,
A73,
B72,
763,
773,
673,
482,
491,
481,
000,
000,
482,
572,
572,
683,
A72,
873,
773,
873,
773,
863,
863,
A73,
EB4,
FEA,
FC5,
FFC,
FC4,
EB2,
A73,
773,
783,
672,
672,
873,
773,
682,
582,
472,
381,
491,
000,
000,
481,
371,
582,
672,
673,
572,
582,
472,
582,
573,
682,
873,
EA3,
FB3,
C82,
FD7,
D92,
C82,
873,
572,
582,
582,
481,
572,
572,
582,
381,
481,
371,
491,
000,
000,
490,
381,
481,
381,
481,
481,
381,
381,
591,
381,
482,
773,
C72,
B72,
963,
EA2,
B72,
863,
773,
481,
591,
481,
380,
381,
592,
481,
381,
481,
480,
380,
000,
000,
490,
381,
491,
270,
380,
591,
390,
490,
491,
280,
482,
673,
873,
663,
673,
B72,
773,
673,
682,
371,
480,
490,
490,
280,
591,
481,
370,
491,
490,
280,
000,
000,
481,
480,
491,
371,
481,
490,
490,
381,
481,
380,
481,
682,
773,
572,
572,
973,
673,
673,
471,
381,
380,
380,
490,
380,
490,
491,
380,
490,
380,
380,
000,
000,
000,
000,
000,
000,
000,
000,
000,
000,
000,
000,
000,
000,
000,
000,
000,
000,
000,
000,
000,
000,
000,
000,
000,
000,
000,
000,
000,
000,
000,
000,
000,
000,
000,
000,
000,
000,
000,
000,
000,
000,
000,
000,
000,
000,
000,
000,
000,
000,
000,
000,
000,
000,
000,
000,
000,
000,
000,
000,
000,
000,
000,
000,
000,
000;
