000000007
000000003
000000003
000000003
000000003
000000006
00000000F
000000010
000000001
000000009
000000007
000000003
000000003
000000003
000000003
000000006
000000001
000000001
00000000F
000000010
000000002
000000009
000000001
000000001
000000001
000000002
000000011
000000012
000000001
000000001
000000002
000000001
00000000F
000000010
000000001
000000002
000000001
000000001
000000011
000000012
000000002
000000001
00000000F
000000010
000000001
000000002
000000001
000000001
000000001
000000001
000000002
000000001
000000011
000000012
000000001
000000005
000000003
000000003
000000003
000000003
000000002
000000001
000000011
000000012
000000009
000000002
000000001
000000001
00000000F
000000010
000000002
000000001
000000001
000000009
000000001
000000001
000000001
000000001
000000001
00000000C
000000002
000000001
000000009
000000001
000000001
000000002
000000001
000000009
000000011
000000012
000000002
000000001
000000001
000000001
000000001
000000001
000000009
000000001
000000001
000000001
000000005
000000003
000000003
000000003
000000003
000000008
000000003
000000003
000000003
000000003
000000004
000000001
000000001
00000000F
000000010
000000001
000000001
000000001
00000000F
000000010
00000000F
000000010
000000001
000000009
000000001
000000002
000000001
000000001
000000001
000000001
000000001
000000001
000000001
000000011
000000012
000000001
000000001
000000001
000000011
000000012
000000011
000000012
000000001
000000001
000000001
000000002
000000001
000000001
00000000F
000000010
000000001
000000001
000000001
000000007
000000003
000000003
000000003
000000003
000000003
00000000A
000000001
000000001
000000009
00000000F
000000010
000000002
00000000F
000000010
000000011
000000012
000000009
000000001
000000001
000000002
000000001
000000001
000000001
000000001
000000001
00000000B
00000000F
000000010
000000001
000000011
000000012
000000002
000000011
000000012
000000001
000000009
00000000F
000000010
000000001
000000002
000000001
000000001
000000009
000000001
00000000F
000000010
000000011
000000012
000000001
000000001
000000001
000000002
00000000F
000000010
000000001
000000001
000000011
000000012
000000001
000000002
000000001
000000001
000000001
000000001
000000011
000000012
000000007
000000003
000000003
000000003
000000003
000000004
000000011
000000012
000000001
000000001
000000001
000000001
000000009
000000002
000000009
000000001
000000001
000000001
000000001
000000009
000000002
000000001
000000001
000000001
000000001
00000000F
000000010
000000007
000000003
000000003
000000003
000000003
000000003
000000008
000000003
000000003
000000003
000000003
000000006
000000001
000000002
000000001
000000009
00000000F
000000010
000000011
000000012
000000002
000000001
000000001
000000009
000000001
000000001
000000002
000000001
000000001
000000001
000000001
000000002
000000001
000000002
000000001
000000001
000000011
000000012
000000009
000000001
000000002
000000001
00000000F
000000010
000000001
000000001
000000002
000000009
000000001
00000000F
000000010
000000002
000000001
000000002
000000001
000000001
000000001
000000001
000000001
000000001
000000002
000000001
000000011
000000012
000000001
000000001
000000002
000000001
000000001
000000011
000000012
000000002
000000009
000000002
00000000F
000000010
000000001
00000000F
000000010
000000001
000000002
000000001
000000009
000000001
000000001
000000001
000000002
000000001
000000001
000000001
000000001
000000002
000000001
000000002
000000011
000000012
000000001
000000011
000000012
000000001
000000002
000000001
000000001
000000001
000000009
000000001
000000002
00000000F
000000010
000000001
000000009
000000002
000000001
000000005
000000003
000000003
000000003
000000003
000000003
000000003
000000004
00000000F
000000010
000000001
000000001
000000001
000000002
000000011
000000012
000000001
000000001
000000002
000000001
000000001
000000001
000000009
000000001
000000001
000000009
000000001
000000009
000000011
000000012
000000001
000000001
000000001
000000005
000000003
000000003
000000003
000000003
000000004
000000009
